@RELATION wieniawski-romance1

@ATTRIBUTE instance_id	STRING
@ATTRIBUTE pitch        REAL
@ATTRIBUTE charge       INTEGER
@ATTRIBUTE composer     {Bach, Sibelius, Bartok, Wieniawski}
@ATTRIBUTE note-place	{begin, middle, end, entire}
@ATTRIBUTE dynamics     REAL
@ATTRIBUTE wedge        {cresc, dim, none}
@ATTRIBUTE text         STRING
@ATTRIBUTE tempo        INTEGER
@ATTRIBUTE duration     INTEGER
@ATTRIBUTE slur         {start, middle, stop, none}
@ATTRIBUTE tenuto       {0,1}
@ATTRIBUTE accent       {0,1}
@ATTRIBUTE staccato     {0,1}
@ATTRIBUTE fermata      {0,1}
@ATTRIBUTE ornament     {0,1}
@ATTRIBUTE chord	{0,1}
@ATTRIBUTE bow-dir      {up, down, none}
@ATTRIBUTE beat         INTEGER
@ATTRIBUTE bt-strength  INTEGER
@ATTRIBUTE 1dynamic	REAL
@ATTRIBUTE 0-1int	INTEGER
@ATTRIBUTE 1-2int	INTEGER
@ATTRIBUTE 2-3int	INTEGER
@ATTRIBUTE 3-4int	INTEGER
@ATTRIBUTE 1label	REAL
@ATTRIBUTE 2label	REAL
@ATTRIBUTE 3label	REAL
@ATTRIBUTE 4label 	REAL
@ATTRIBUTE label	REAL


@DATA
0.4.5,466.1637615180899,7,Wieniawski,middle,54.44,none,"Andante non troppo",120,12,none,0,0,0,0,0,0,none,6,4,54.44,0,0,0,0,1,1,1,1,1
0.4.6,466.1637615180899,7,Wieniawski,end,54.44,none,"Andante non troppo",120,12,none,0,0,0,0,0,0,none,6,4,54.44,0,0,0,0,1,1,1,1,1
0.5.1,440.0,5,Wieniawski,begin,54.44,none,none,120,6,start,0,0,0,0,0,0,none,18,3,54.44,0,0,0,0,1,1,1,1,1
0.5.2,440.0,5,Wieniawski,middle,54.44,none,none,120,6,start,0,0,0,0,0,0,none,18,3,54.44,-1,0,0,0,1,1,1,1,1
0.5.3,440.0,5,Wieniawski,end,54.44,none,none,120,6,start,0,0,0,0,0,0,none,18,3,54.44,0,-1,0,0,1,1,1,1,1
0.6.1,523.2511306011974,2,Wieniawski,begin,54.44,none,none,120,6,stop,0,0,0,0,0,0,none,24,2,54.44,0,0,-1,0,1,1,1,1,1
0.6.2,523.2511306011974,2,Wieniawski,middle,54.44,none,none,120,6,stop,0,0,0,0,0,0,none,24,2,54.44,3,0,0,-1,1,1,1,1,1
0.6.3,523.2511306011974,2,Wieniawski,end,54.44,none,none,120,6,stop,0,0,0,0,0,0,none,24,2,54.44,0,3,0,0,1,1,1,1,1
1.0.1,466.1637615180899,7,Wieniawski,begin,54.44,none,none,120,12,start,0,0,0,0,0,0,none,6,4,54.44,0,0,3,0,1,1,1,1,1
1.0.2,466.1637615180899,7,Wieniawski,middle,54.44,none,none,120,12,start,0,0,0,0,0,0,none,6,4,54.44,-2,0,0,3,1,1,1,1,1
1.0.3,466.1637615180899,7,Wieniawski,middle,54.44,none,none,120,12,start,0,0,0,0,0,0,none,6,4,54.44,0,-2,0,0,1,1,1,1,1
1.0.4,466.1637615180899,7,Wieniawski,middle,54.44,none,none,120,12,start,0,0,0,0,0,0,none,6,4,54.44,0,0,-2,0,1,1,1,1,1
1.0.5,466.1637615180899,7,Wieniawski,middle,54.44,none,none,120,12,start,0,0,0,0,0,0,none,6,4,54.44,0,0,0,-2,1,1,1,1,1
1.0.6,466.1637615180899,7,Wieniawski,end,54.44,none,none,120,12,start,0,0,0,0,0,0,none,6,4,54.44,0,0,0,0,1,1,1,1,1
1.1.1,349.2282314330038,1,Wieniawski,begin,54.44,none,none,120,4,stop,0,0,0,0,0,0,none,18,3,54.44,0,0,0,0,1,1,1,1,1
1.1.2,349.2282314330038,1,Wieniawski,end,54.44,none,none,120,4,stop,0,0,0,0,0,0,none,18,3,54.44,-5,0,0,0,1,1,1,1,1
1.3.1,349.2282314330038,1,Wieniawski,begin,54.44,none,none,120,6,none,0,0,0,0,0,0,none,26,1,54.44,0,-5,0,0,1,1,1,1,1
1.3.2,349.2282314330038,1,Wieniawski,middle,54.44,none,none,120,6,none,0,0,0,0,0,0,none,26,1,54.44,0,0,-5,0,1,1,1,1,1
1.3.3,349.2282314330038,1,Wieniawski,end,54.44,none,none,120,6,none,0,0,0,0,0,0,none,26,1,54.44,0,0,0,-5,1,1,1,1,1
2.1.1,415.3046975799451,5,Wieniawski,begin,54.44,none,none,120,12,start,0,0,0,0,0,0,none,6,4,54.44,0,0,0,0,1,1,1,1,1
2.1.2,415.3046975799451,5,Wieniawski,middle,54.44,none,none,120,12,start,0,0,0,0,0,0,none,6,4,54.44,3,0,0,0,1,1,1,1,1
2.1.3,415.3046975799451,5,Wieniawski,middle,54.44,none,none,120,12,start,0,0,0,0,0,0,none,6,4,54.44,0,3,0,0,1,1,1,1,1
2.1.4,415.3046975799451,5,Wieniawski,middle,54.44,none,none,120,12,start,0,0,0,0,0,0,none,6,4,54.44,0,0,3,0,1,1,1,1,1
2.1.5,415.3046975799451,5,Wieniawski,middle,54.44,none,none,120,12,start,0,0,0,0,0,0,none,6,4,54.44,0,0,0,3,1,1,1,1,1
2.1.6,415.3046975799451,5,Wieniawski,end,54.44,none,none,120,12,start,0,0,0,0,0,0,none,6,4,54.44,0,0,0,0,1,1,1,1,1
2.2.1,415.3046975799451,5,Wieniawski,begin,54.44,none,none,120,6,middle,0,0,0,0,0,0,none,18,3,54.44,0,0,0,0,1,1,1,1,1
2.2.2,415.3046975799451,5,Wieniawski,middle,54.44,none,none,120,6,middle,0,0,0,0,0,0,none,18,3,54.44,0,0,0,0,1,1,1,1,1
2.2.3,415.3046975799451,5,Wieniawski,end,54.44,none,none,120,6,middle,0,0,0,0,0,0,none,18,3,54.44,0,0,0,0,1,1,1,1,1
2.3.1,369.99442271163434,3,Wieniawski,begin,54.44,none,none,120,4,middle,0,0,0,0,0,0,none,24,2,54.44,0,0,0,0,1,1,1,1,1
2.3.2,369.99442271163434,3,Wieniawski,end,54.44,none,none,120,4,middle,0,0,0,0,0,0,none,24,2,54.44,-2,0,0,0,1,1,1,1,1
2.4.1,349.2282314330038,1,Wieniawski,entire,54.44,none,none,120,2,stop,0,0,0,0,0,0,none,28,1,54.44,0,-2,0,0,1,1,1,1,1
3.2.1,369.99442271163434,3,Wieniawski,begin,54.44,dim,none,120,24,none,0,0,0,0,0,0,none,6,4,54.44,-1,0,-2,0,1,1,1,1,1
3.2.2,369.99442271163434,3,Wieniawski,middle,54.44,dim,none,120,24,none,0,0,0,0,0,0,none,6,4,54.44,1,-1,0,-2,1,1,1,1,1
3.2.3,369.99442271163434,3,Wieniawski,middle,54.44,dim,none,120,24,none,0,0,0,0,0,0,none,6,4,54.44,0,1,-1,0,1,1,1,1,1
3.2.4,369.99442271163434,3,Wieniawski,middle,54.44,dim,none,120,24,none,0,0,0,0,0,0,none,6,4,54.44,0,0,1,-1,1,1,1,1,1
3.2.5,369.99442271163434,3,Wieniawski,middle,54.44,dim,none,120,24,none,0,0,0,0,0,0,none,6,4,54.44,0,0,0,1,1,1,1,1,1
3.2.6,369.99442271163434,3,Wieniawski,middle,54.44,dim,none,120,24,none,0,0,0,0,0,0,none,6,4,54.44,0,0,0,0,1,1,1,1,1
3.2.7,369.99442271163434,3,Wieniawski,middle,54.44,dim,none,120,24,none,0,0,0,0,0,0,none,6,4,54.44,0,0,0,0,1,1,1,1,1
3.2.8,369.99442271163434,3,Wieniawski,middle,54.44,dim,none,120,24,none,0,0,0,0,0,0,none,6,4,54.44,0,0,0,0,1,1,1,1,1
3.2.9,369.99442271163434,3,Wieniawski,middle,54.44,dim,none,120,24,none,0,0,0,0,0,0,none,6,4,54.44,0,0,0,0,1,1,1,1,1
3.2.10,369.99442271163434,3,Wieniawski,middle,54.44,dim,none,120,24,none,0,0,0,0,0,0,none,6,4,54.44,0,0,0,0,1,1,1,1,1
3.2.11,369.99442271163434,3,Wieniawski,middle,54.44,dim,none,120,24,none,0,0,0,0,0,0,none,6,4,54.44,0,0,0,0,1,1,1,1,1
3.2.12,369.99442271163434,3,Wieniawski,end,54.44,dim,none,120,24,none,0,0,0,0,0,0,none,6,4,54.44,0,0,0,0,1,1,1,1,1
4.1.1,739.988845423269,3,Wieniawski,begin,71.11,none,none,120,12,none,0,0,0,0,0,0,none,6,4,54.44,0,0,0,0,1,1,1,1,1
4.1.2,739.988845423269,3,Wieniawski,middle,71.11,none,none,120,12,none,0,0,0,0,0,0,none,6,4,71.11,12,0,0,0,1,1,1,1,1
4.1.3,739.988845423269,3,Wieniawski,middle,71.11,none,none,120,12,none,0,0,0,0,0,0,none,6,4,71.11,0,12,0,0,1,1,1,1,1
4.1.4,739.988845423269,3,Wieniawski,middle,71.11,none,none,120,12,none,0,0,0,0,0,0,none,6,4,71.11,0,0,12,0,1,1,1,1,1
4.1.5,739.988845423269,3,Wieniawski,middle,71.11,none,none,120,12,none,0,0,0,0,0,0,none,6,4,71.11,0,0,0,12,1,1,1,1,1
4.1.6,739.988845423269,3,Wieniawski,end,71.11,none,none,120,12,none,0,0,0,0,0,0,none,6,4,71.11,0,0,0,0,1,1,1,1,1
4.2.1,698.456462866008,1,Wieniawski,begin,71.11,none,none,120,6,start,0,0,0,0,0,0,none,18,3,71.11,0,0,0,0,1,1,1,1,1
4.2.2,698.456462866008,1,Wieniawski,middle,71.11,none,none,120,6,start,0,0,0,0,0,0,none,18,3,71.11,-1,0,0,0,1,1,1,1,1
4.2.3,698.456462866008,1,Wieniawski,end,71.11,none,none,120,6,start,0,0,0,0,0,0,none,18,3,71.11,0,-1,0,0,1,1,1,1,1
4.3.1,622.253967444162,6,Wieniawski,begin,71.11,none,none,120,6,stop,0,0,0,0,0,0,none,24,2,71.11,0,0,-1,0,1,1,1,1,1
4.3.2,622.253967444162,6,Wieniawski,middle,71.11,none,none,120,6,stop,0,0,0,0,0,0,none,24,2,71.11,-2,0,0,-1,1,1,1,1,1
4.3.3,622.253967444162,6,Wieniawski,end,71.11,none,none,120,6,stop,0,0,0,0,0,0,none,24,2,71.11,0,-2,0,0,1,1,1,1,1
5.1.1,587.3295358348153,4,Wieniawski,begin,71.11,none,none,120,12,none,0,0,0,0,0,0,none,6,4,71.11,0,0,-2,0,1,1,1,1,1
5.1.2,587.3295358348153,4,Wieniawski,middle,71.11,none,none,120,12,none,0,0,0,0,0,0,none,6,4,71.11,-1,0,0,-2,1,1,1,1,1
5.1.3,587.3295358348153,4,Wieniawski,middle,71.11,none,none,120,12,none,0,0,0,0,0,0,none,6,4,71.11,0,-1,0,0,1,1,1,1,1
5.1.4,587.3295358348153,4,Wieniawski,middle,71.11,none,none,120,12,none,0,0,0,0,0,0,none,6,4,71.11,0,0,-1,0,1,1,1,1,1
5.1.5,587.3295358348153,4,Wieniawski,middle,71.11,none,none,120,12,none,0,0,0,0,0,0,none,6,4,71.11,0,0,0,-1,1,1,1,1,1
5.1.6,587.3295358348153,4,Wieniawski,end,71.11,none,none,120,12,none,0,0,0,0,0,0,none,6,4,71.11,0,0,0,0,1,1,1,1,1
5.2.1,587.3295358348153,4,Wieniawski,begin,71.11,none,none,120,4,none,0,0,0,0,0,0,none,18,3,71.11,0,0,0,0,1,1,1,1,1
5.2.2,587.3295358348153,4,Wieniawski,end,71.11,none,none,120,4,none,0,0,0,0,0,0,none,18,3,71.11,0,0,0,0,1,1,1,1,1
5.4.1,587.3295358348153,4,Wieniawski,begin,71.11,none,none,120,6,none,0,0,0,0,0,0,none,26,1,71.11,0,0,0,0,1,1,1,1,1
5.4.2,587.3295358348153,4,Wieniawski,middle,71.11,none,none,120,6,none,0,0,0,0,0,0,none,26,1,71.11,0,0,0,0,1,1,1,1,1
5.4.3,587.3295358348153,4,Wieniawski,end,71.11,none,none,120,6,none,0,0,0,0,0,0,none,26,1,71.11,0,0,0,0,1,1,1,1,1
6.1.1,622.253967444162,6,Wieniawski,begin,71.11,dim,none,120,12,none,0,0,0,0,0,0,none,6,4,71.11,0,0,0,0,1,1,1,1,1
6.1.2,622.253967444162,6,Wieniawski,middle,71.11,dim,none,120,12,none,0,0,0,0,0,0,none,6,4,71.11,1,0,0,0,1,1,1,1,1
6.1.3,622.253967444162,6,Wieniawski,middle,71.11,dim,none,120,12,none,0,0,0,0,0,0,none,6,4,71.11,0,1,0,0,1,1,1,1,1
6.1.4,622.253967444162,6,Wieniawski,middle,71.11,dim,none,120,12,none,0,0,0,0,0,0,none,6,4,71.11,0,0,1,0,1,1,1,1,1
6.1.5,622.253967444162,6,Wieniawski,middle,71.11,dim,none,120,12,none,0,0,0,0,0,0,none,6,4,71.11,0,0,0,1,1,1,1,1,1
6.1.6,622.253967444162,6,Wieniawski,end,71.11,dim,none,120,12,none,0,0,0,0,0,0,none,6,4,71.11,0,0,0,0,1,1,1,1,1
6.2.1,587.3295358348153,4,Wieniawski,begin,71.11,none,none,120,6,start,0,0,0,0,0,0,none,18,3,71.11,0,0,0,0,1,1,1,1,1
6.2.2,587.3295358348153,4,Wieniawski,middle,71.11,none,none,120,6,start,0,0,0,0,0,0,none,18,3,71.11,-1,0,0,0,1,1,1,1,1
6.2.3,587.3295358348153,4,Wieniawski,end,71.11,none,none,120,6,start,0,0,0,0,0,0,none,18,3,71.11,0,-1,0,0,1,1,1,1,1
6.3.1,587.3295358348153,4,Wieniawski,begin,71.11,none,none,120,4,middle,0,0,0,0,0,0,none,24,2,71.11,0,0,-1,0,1,1,1,1,1
6.3.2,587.3295358348153,4,Wieniawski,end,71.11,none,none,120,4,middle,0,0,0,0,0,0,none,24,2,71.11,0,0,0,-1,1,1,1,1,1
6.4.1,523.2511306011974,2,Wieniawski,entire,71.11,none,none,120,2,stop,0,0,0,0,0,0,none,28,1,71.11,0,0,0,0,1,1,1,1,1
7.1.1,466.1637615180899,7,Wieniawski,begin,71.11,none,none,120,4,none,0,0,0,0,0,0,none,6,4,71.11,-2,0,0,0,1,1,1,1,1
7.1.2,466.1637615180899,7,Wieniawski,end,71.11,none,none,120,4,none,0,0,0,0,0,0,none,6,4,71.11,-2,-2,0,0,1,1,1,1,1
8.0.1,440.0,5,Wieniawski,begin,71.11,none,none,120,12,none,0,0,0,0,0,0,none,6,4,71.11,0,-2,-2,0,1,1,1,1,1
8.0.2,440.0,5,Wieniawski,middle,71.11,none,none,120,12,none,0,0,0,0,0,0,none,6,4,71.11,-1,0,-2,-2,1,1,1,1,1
8.0.3,440.0,5,Wieniawski,middle,71.11,none,none,120,12,none,0,0,0,0,0,0,none,6,4,71.11,0,-1,0,-2,1,1,1,1,1
8.0.4,440.0,5,Wieniawski,middle,71.11,none,none,120,12,none,0,0,0,0,0,0,none,6,4,71.11,0,0,-1,0,1,1,1,1,1
8.0.5,440.0,5,Wieniawski,middle,71.11,none,none,120,12,none,0,0,0,0,0,0,none,6,4,71.11,0,0,0,-1,1,1,1,1,1
8.0.6,440.0,5,Wieniawski,end,71.11,none,none,120,12,none,0,0,0,0,0,0,none,6,4,71.11,0,0,0,0,1,1,1,1,1
8.1.1,440.0,5,Wieniawski,begin,71.11,none,none,120,6,none,0,0,0,0,0,0,none,18,3,71.11,0,0,0,0,1,1,1,1,1
8.1.2,440.0,5,Wieniawski,middle,71.11,none,none,120,6,none,0,0,0,0,0,0,none,18,3,71.11,0,0,0,0,1,1,1,1,1
8.1.3,440.0,5,Wieniawski,end,71.11,none,none,120,6,none,0,0,0,0,0,0,none,18,3,71.11,0,0,0,0,1,1,1,1,1
8.2.1,391.99543598174927,3,Wieniawski,begin,71.11,none,none,120,4,start,0,0,0,0,0,0,none,24,2,71.11,0,0,0,0,1,1,1,1,1
8.2.2,391.99543598174927,3,Wieniawski,end,71.11,none,none,120,4,start,0,0,0,0,0,0,none,24,2,71.11,-2,0,0,0,1,1,1,1,1
8.3.1,440.0,5,Wieniawski,entire,71.11,none,none,120,2,stop,0,0,0,0,0,0,none,28,1,71.11,0,-2,0,0,1,1,1,1,1
9.0.1,466.1637615180899,7,Wieniawski,begin,71.11,none,none,120,12,start,0,0,0,0,0,0,none,6,4,71.11,2,0,-2,0,1,1,1,1,1
9.0.2,466.1637615180899,7,Wieniawski,middle,71.11,none,none,120,12,start,0,0,0,0,0,0,none,6,4,71.11,1,2,0,-2,1,1,1,1,1
9.0.3,466.1637615180899,7,Wieniawski,middle,71.11,none,none,120,12,start,0,0,0,0,0,0,none,6,4,71.11,0,1,2,0,1,1,1,1,1
9.0.4,466.1637615180899,7,Wieniawski,middle,71.11,none,none,120,12,start,0,0,0,0,0,0,none,6,4,71.11,0,0,1,2,1,1,1,1,1
9.0.5,466.1637615180899,7,Wieniawski,middle,71.11,none,none,120,12,start,0,0,0,0,0,0,none,6,4,71.11,0,0,0,1,1,1,1,1,1
9.0.6,466.1637615180899,7,Wieniawski,end,71.11,none,none,120,12,start,0,0,0,0,0,0,none,6,4,71.11,0,0,0,0,1,1,1,1,1
9.1.1,349.2282314330038,1,Wieniawski,begin,71.11,none,none,120,4,stop,0,0,0,0,0,0,none,18,3,71.11,0,0,0,0,1,1,1,1,1
9.1.2,349.2282314330038,1,Wieniawski,end,71.11,none,none,120,4,stop,0,0,0,0,0,0,none,18,3,71.11,-5,0,0,0,1,1,1,1,1
10.2.1,554.3652619537443,2,Wieniawski,begin,71.11,none,none,120,12,none,0,0,0,0,0,0,none,6,4,71.11,0,-5,0,0,1,1,1,1,1
10.2.2,554.3652619537443,2,Wieniawski,middle,71.11,none,none,120,12,none,0,0,0,0,0,0,none,6,4,71.11,8,0,-5,0,1,1,1,1,1
10.2.3,554.3652619537443,2,Wieniawski,middle,71.11,none,none,120,12,none,0,0,0,0,0,0,none,6,4,71.11,0,8,0,-5,1,1,1,1,1
10.2.4,554.3652619537443,2,Wieniawski,middle,71.11,none,none,120,12,none,0,0,0,0,0,0,none,6,4,71.11,0,0,8,0,1,1,1,1,1
10.2.5,554.3652619537443,2,Wieniawski,middle,71.11,none,none,120,12,none,0,0,0,0,0,0,none,6,4,71.11,0,0,0,8,1,1,1,1,1
10.2.6,554.3652619537443,2,Wieniawski,end,71.11,none,none,120,12,none,0,0,0,0,0,0,none,6,4,71.11,0,0,0,0,1,1,1,1,1
10.3.1,554.3652619537443,2,Wieniawski,begin,71.11,none,none,120,6,none,0,0,0,0,0,0,none,18,3,71.11,0,0,0,0,1,1,1,1,1
10.3.2,554.3652619537443,2,Wieniawski,middle,71.11,none,none,120,6,none,0,0,0,0,0,0,none,18,3,71.11,0,0,0,0,1,1,1,1,1
10.3.3,554.3652619537443,2,Wieniawski,end,71.11,none,none,120,6,none,0,0,0,0,0,0,none,18,3,71.11,0,0,0,0,1,1,1,1,1
10.4.1,493.8833012561241,7,Wieniawski,begin,71.11,none,none,120,4,start,0,0,0,0,0,0,none,24,2,71.11,0,0,0,0,1,1,1,1,1
10.4.2,493.8833012561241,7,Wieniawski,end,71.11,none,none,120,4,start,0,0,0,0,0,0,none,24,2,71.11,-2,0,0,0,1,1,1,1,1
10.5.1,554.3652619537443,2,Wieniawski,entire,71.11,none,none,120,2,stop,0,0,0,0,0,0,none,28,1,71.11,0,-2,0,0,1,1,1,1,1
11.0.1,587.3295358348153,4,Wieniawski,begin,71.11,none,none,120,12,none,0,0,0,0,0,0,none,6,4,71.11,2,0,-2,0,1,1,1,1,1
11.0.2,587.3295358348153,4,Wieniawski,middle,71.11,none,none,120,12,none,0,0,0,0,0,0,none,6,4,71.11,1,2,0,-2,1,1,1,1,1
11.0.3,587.3295358348153,4,Wieniawski,middle,71.11,none,none,120,12,none,0,0,0,0,0,0,none,6,4,71.11,0,1,2,0,1,1,1,1,1
11.0.4,587.3295358348153,4,Wieniawski,middle,71.11,none,none,120,12,none,0,0,0,0,0,0,none,6,4,71.11,0,0,1,2,1,1,1,1,1
11.0.5,587.3295358348153,4,Wieniawski,middle,71.11,none,none,120,12,none,0,0,0,0,0,0,none,6,4,71.11,0,0,0,1,1,1,1,1,1
11.0.6,587.3295358348153,4,Wieniawski,end,71.11,none,none,120,12,none,0,0,0,0,0,0,none,6,4,71.11,0,0,0,0,1,1,1,1,1
11.1.1,698.456462866008,1,Wieniawski,begin,71.11,none,none,120,6,start,0,0,0,0,0,0,none,18,3,71.11,0,0,0,0,1,1,1,1,1
11.1.2,698.456462866008,1,Wieniawski,middle,71.11,none,none,120,6,start,0,0,0,0,0,0,none,18,3,71.11,3,0,0,0,1,1,1,1,1
11.1.3,698.456462866008,1,Wieniawski,end,71.11,none,none,120,6,start,0,0,0,0,0,0,none,18,3,71.11,0,3,0,0,1,1,1,1,1
11.2.1,698.456462866008,1,Wieniawski,begin,71.11,none,none,120,4,middle,0,0,0,0,0,0,none,24,2,71.11,0,0,3,0,1,1,1,1,1
11.2.2,698.456462866008,1,Wieniawski,end,71.11,none,none,120,4,middle,0,0,0,0,0,0,none,24,2,71.11,0,0,0,3,1,1,1,1,1
11.3.1,415.3046975799451,5,Wieniawski,entire,71.11,none,none,120,2,stop,0,0,0,0,0,0,none,28,1,71.11,0,0,0,0,1,1,1,1,1
12.1.1,391.99543598174927,3,Wieniawski,begin,71.11,none,none,120,6,none,0,0,0,0,0,0,none,6,4,71.11,-9,0,0,0,1,1,1,1,1
12.1.2,391.99543598174927,3,Wieniawski,middle,71.11,none,none,120,6,none,0,0,0,0,0,0,none,6,4,71.11,-1,-9,0,0,1,1,1,1,1
12.1.3,391.99543598174927,3,Wieniawski,end,71.11,none,none,120,6,none,0,0,0,0,0,0,none,6,4,71.11,0,-1,-9,0,1,1,1,1,1
12.2.1,391.99543598174927,3,Wieniawski,entire,71.11,none,none,120,2,none,0,0,0,0,0,0,none,12,2,71.11,0,0,-1,-9,1,1,1,1,1
12.3.1,369.99442271163434,1,Wieniawski,entire,71.11,none,none,120,2,none,0,0,0,0,0,0,none,14,1,71.11,0,0,0,-1,1,1,1,1,1
12.4.1,391.99543598174927,3,Wieniawski,entire,71.11,none,none,120,2,none,0,0,0,0,0,0,none,16,1,71.11,-1,0,0,0,1,1,1,1,1
12.5.1,622.253967444162,6,Wieniawski,begin,71.11,none,none,120,6,start,0,0,0,0,0,0,none,18,3,71.11,1,-1,0,0,1,1,1,1,1
12.5.2,622.253967444162,6,Wieniawski,middle,71.11,none,none,120,6,start,0,0,0,0,0,0,none,18,3,71.11,8,1,-1,0,1,1,1,1,1
12.5.3,622.253967444162,6,Wieniawski,end,71.11,none,none,120,6,start,0,0,0,0,0,0,none,18,3,71.11,0,8,1,-1,1,1,1,1,1
12.6.1,622.253967444162,6,Wieniawski,begin,71.11,none,none,120,4,middle,0,0,0,0,0,0,none,24,2,71.11,0,0,8,1,1,1,1,1,1
12.6.2,622.253967444162,6,Wieniawski,end,71.11,none,none,120,4,middle,0,0,0,0,0,0,none,24,2,71.11,0,0,0,8,1,1,1,1,1
12.7.1,369.99442271163434,3,Wieniawski,entire,71.11,none,none,120,2,stop,0,0,0,0,0,0,none,28,1,71.11,0,0,0,0,1,1,1,1,1
13.0.1,349.2282314330038,1,Wieniawski,begin,71.11,none,none,120,12,none,0,0,0,0,0,0,none,6,4,71.11,-9,0,0,0,1,1,1,1,1
13.0.2,349.2282314330038,1,Wieniawski,middle,71.11,none,none,120,12,none,0,0,0,0,0,0,none,6,4,71.11,-1,-9,0,0,1,1,1,1,1
13.0.3,349.2282314330038,1,Wieniawski,middle,71.11,none,none,120,12,none,0,0,0,0,0,0,none,6,4,71.11,0,-1,-9,0,1,1,1,1,1
13.0.4,349.2282314330038,1,Wieniawski,middle,71.11,none,none,120,12,none,0,0,0,0,0,0,none,6,4,71.11,0,0,-1,-9,1,1,1,1,1
13.0.5,349.2282314330038,1,Wieniawski,middle,71.11,none,none,120,12,none,0,0,0,0,0,0,none,6,4,71.11,0,0,0,-1,1,1,1,1,1
13.0.6,349.2282314330038,1,Wieniawski,end,71.11,none,none,120,12,none,0,0,0,0,0,0,none,6,4,71.11,0,0,0,0,1,1,1,1,1
13.1.1,587.3295358348153,4,Wieniawski,begin,71.11,none,none,120,6,start,0,0,0,0,0,0,none,18,3,71.11,0,0,0,0,1,1,1,1,1
13.1.2,587.3295358348153,4,Wieniawski,middle,71.11,none,none,120,6,start,0,0,0,0,0,0,none,18,3,71.11,9,0,0,0,1,1,1,1,1
13.1.3,587.3295358348153,4,Wieniawski,end,71.11,none,none,120,6,start,0,0,0,0,0,0,none,18,3,71.11,0,9,0,0,1,1,1,1,1
13.2.1,587.3295358348153,4,Wieniawski,begin,71.11,none,none,120,4,middle,0,0,0,0,0,0,none,24,2,71.11,0,0,9,0,1,1,1,1,1
13.2.2,587.3295358348153,4,Wieniawski,end,71.11,none,none,120,4,middle,0,0,0,0,0,0,none,24,2,71.11,0,0,0,9,1,1,1,1,1
13.3.1,349.2282314330038,1,Wieniawski,entire,71.11,none,none,120,2,stop,0,0,0,0,0,0,none,28,1,71.11,0,0,0,0,1,1,1,1,1
14.1.1,329.62755691286986,6,Wieniawski,begin,71.11,none,none,120,12,none,0,0,0,0,0,0,none,6,4,71.11,-9,0,0,0,1,1,1,1,1
14.1.2,329.62755691286986,6,Wieniawski,middle,71.11,none,none,120,12,none,0,0,0,0,0,0,none,6,4,71.11,-1,-9,0,0,1,1,1,1,1
14.1.3,329.62755691286986,6,Wieniawski,middle,71.11,none,none,120,12,none,0,0,0,0,0,0,none,6,4,71.11,0,-1,-9,0,1,1,1,1,1
14.1.4,329.62755691286986,6,Wieniawski,middle,71.11,none,none,120,12,none,0,0,0,0,0,0,none,6,4,71.11,0,0,-1,-9,1,1,1,1,1
14.1.5,329.62755691286986,6,Wieniawski,middle,71.11,none,none,120,12,none,0,0,0,0,0,0,none,6,4,71.11,0,0,0,-1,1,1,1,1,1
14.1.6,329.62755691286986,6,Wieniawski,end,71.11,none,none,120,12,none,0,0,0,0,0,0,none,6,4,71.11,0,0,0,0,1,1,1,1,1
14.2.1,349.2282314330038,1,Wieniawski,begin,71.11,none,none,120,6,start,0,0,0,0,0,0,none,18,3,71.11,0,0,0,0,1,1,1,1,1
14.2.2,349.2282314330038,1,Wieniawski,middle,71.11,none,none,120,6,start,0,0,0,0,0,0,none,18,3,71.11,1,0,0,0,1,1,1,1,1
14.2.3,349.2282314330038,1,Wieniawski,end,71.11,none,none,120,6,start,0,0,0,0,0,0,none,18,3,71.11,0,1,0,0,1,1,1,1,1
14.3.1,349.2282314330038,1,Wieniawski,entire,71.11,none,none,120,2,middle,0,0,0,0,0,0,none,24,2,71.11,0,0,1,0,1,1,1,1,1
14.4.1,391.99543598174927,3,Wieniawski,entire,71.11,none,none,120,2,middle,0,0,0,0,0,0,none,26,1,71.11,0,0,0,1,1,1,1,1,1
14.5.1,440.0,5,Wieniawski,entire,71.11,none,none,120,2,stop,0,0,0,0,0,0,none,28,1,71.11,2,0,0,0,1,1,1,1,1
15.1.1,466.1637615180899,7,Wieniawski,begin,71.11,none,none,120,12,none,0,0,0,0,0,0,none,6,4,71.11,2,2,0,0,1,1,1,1,1
15.1.2,466.1637615180899,7,Wieniawski,middle,71.11,none,none,120,12,none,0,0,0,0,0,0,none,6,4,71.11,1,2,2,0,1,1,1,1,1
15.1.3,466.1637615180899,7,Wieniawski,middle,71.11,none,none,120,12,none,0,0,0,0,0,0,none,6,4,71.11,0,1,2,2,1,1,1,1,1
15.1.4,466.1637615180899,7,Wieniawski,middle,71.11,none,none,120,12,none,0,0,0,0,0,0,none,6,4,71.11,0,0,1,2,1,1,1,1,1
15.1.5,466.1637615180899,7,Wieniawski,middle,71.11,none,none,120,12,none,0,0,0,0,0,0,none,6,4,71.11,0,0,0,1,1,1,1,1,1
15.1.6,466.1637615180899,7,Wieniawski,end,71.11,none,none,120,12,none,0,0,0,0,0,0,none,6,4,71.11,0,0,0,0,1,1,1,1,1
15.2.1,440.0,5,Wieniawski,begin,71.11,none,none,120,6,start,0,0,0,0,0,0,none,18,3,71.11,0,0,0,0,1,1,1,1,1
15.2.2,440.0,5,Wieniawski,middle,71.11,none,none,120,6,start,0,0,0,0,0,0,none,18,3,71.11,-1,0,0,0,1,1,1,1,1
15.2.3,440.0,5,Wieniawski,end,71.11,none,none,120,6,start,0,0,0,0,0,0,none,18,3,71.11,0,-1,0,0,1,1,1,1,1
15.3.1,523.2511306011974,2,Wieniawski,begin,71.11,none,none,120,6,stop,0,0,0,0,0,0,none,24,2,71.11,0,0,-1,0,1,1,1,1,1
15.3.2,523.2511306011974,2,Wieniawski,middle,71.11,none,none,120,6,stop,0,0,0,0,0,0,none,24,2,71.11,3,0,0,-1,1,1,1,1,1
15.3.3,523.2511306011974,2,Wieniawski,end,71.11,none,none,120,6,stop,0,0,0,0,0,0,none,24,2,71.11,0,3,0,0,1,1,1,1,1
16.1.1,466.1637615180899,7,Wieniawski,begin,71.11,none,none,120,12,start,0,0,0,0,0,0,none,6,4,71.11,0,0,3,0,1,1,1,1,1
16.1.2,466.1637615180899,7,Wieniawski,middle,71.11,none,none,120,12,start,0,0,0,0,0,0,none,6,4,71.11,-2,0,0,3,1,1,1,1,1
16.1.3,466.1637615180899,7,Wieniawski,middle,71.11,none,none,120,12,start,0,0,0,0,0,0,none,6,4,71.11,0,-2,0,0,1,1,1,1,1
16.1.4,466.1637615180899,7,Wieniawski,middle,71.11,none,none,120,12,start,0,0,0,0,0,0,none,6,4,71.11,0,0,-2,0,1,1,1,1,1
16.1.5,466.1637615180899,7,Wieniawski,middle,71.11,none,none,120,12,start,0,0,0,0,0,0,none,6,4,71.11,0,0,0,-2,1,1,1,1,1
16.1.6,466.1637615180899,7,Wieniawski,end,71.11,none,none,120,12,start,0,0,0,0,0,0,none,6,4,71.11,0,0,0,0,1,1,1,1,1
16.2.1,349.2282314330038,1,Wieniawski,begin,71.11,none,none,120,4,stop,0,0,0,0,0,0,none,18,3,71.11,0,0,0,0,1,1,1,1,1
16.2.2,349.2282314330038,1,Wieniawski,end,71.11,none,none,120,4,stop,0,0,0,0,0,0,none,18,3,71.11,-5,0,0,0,1,1,1,1,1
16.4.1,349.2282314330038,1,Wieniawski,begin,71.11,none,none,120,6,none,0,0,0,0,0,0,none,26,1,71.11,0,-5,0,0,1,1,1,1,1
16.4.2,349.2282314330038,1,Wieniawski,middle,71.11,none,none,120,6,none,0,0,0,0,0,0,none,26,1,71.11,0,0,-5,0,1,1,1,1,1
16.4.3,349.2282314330038,1,Wieniawski,end,71.11,none,none,120,6,none,0,0,0,0,0,0,none,26,1,71.11,0,0,0,-5,1,1,1,1,1
17.0.1,415.3046975799451,5,Wieniawski,begin,71.11,none,none,120,12,start,0,0,0,0,0,0,none,6,4,71.11,0,0,0,0,1,1,1,1,1
17.0.2,415.3046975799451,5,Wieniawski,middle,71.11,none,none,120,12,start,0,0,0,0,0,0,none,6,4,71.11,3,0,0,0,1,1,1,1,1
17.0.3,415.3046975799451,5,Wieniawski,middle,71.11,none,none,120,12,start,0,0,0,0,0,0,none,6,4,71.11,0,3,0,0,1,1,1,1,1
17.0.4,415.3046975799451,5,Wieniawski,middle,71.11,none,none,120,12,start,0,0,0,0,0,0,none,6,4,71.11,0,0,3,0,1,1,1,1,1
17.0.5,415.3046975799451,5,Wieniawski,middle,71.11,none,none,120,12,start,0,0,0,0,0,0,none,6,4,71.11,0,0,0,3,1,1,1,1,1
17.0.6,415.3046975799451,5,Wieniawski,end,71.11,none,none,120,12,start,0,0,0,0,0,0,none,6,4,71.11,0,0,0,0,1,1,1,1,1
17.1.1,415.3046975799451,5,Wieniawski,begin,71.11,none,none,120,6,middle,0,0,0,0,0,0,none,18,3,71.11,0,0,0,0,1,1,1,1,1
17.1.2,415.3046975799451,5,Wieniawski,middle,71.11,none,none,120,6,middle,0,0,0,0,0,0,none,18,3,71.11,0,0,0,0,1,1,1,1,1
17.1.3,415.3046975799451,5,Wieniawski,end,71.11,none,none,120,6,middle,0,0,0,0,0,0,none,18,3,71.11,0,0,0,0,1,1,1,1,1
17.2.1,369.99442271163434,3,Wieniawski,begin,71.11,none,none,120,4,middle,0,0,0,0,0,0,none,24,2,71.11,0,0,0,0,1,1,1,1,1
17.2.2,369.99442271163434,3,Wieniawski,end,71.11,none,none,120,4,middle,0,0,0,0,0,0,none,24,2,71.11,-2,0,0,0,1,1,1,1,2
17.3.1,349.2282314330038,1,Wieniawski,entire,71.11,none,none,120,2,stop,0,0,0,0,0,0,none,28,1,71.11,0,-2,0,0,2,1,1,1,1
18.1.1,369.99442271163434,3,Wieniawski,begin,71.11,none,none,120,24,none,0,0,0,0,0,0,none,6,4,71.11,-1,0,-2,0,1,2,1,1,1
18.1.2,369.99442271163434,3,Wieniawski,middle,71.11,none,none,120,24,none,0,0,0,0,0,0,none,6,4,71.11,1,-1,0,-2,1,1,2,1,1
18.1.3,369.99442271163434,3,Wieniawski,middle,71.11,none,none,120,24,none,0,0,0,0,0,0,none,6,4,71.11,0,1,-1,0,1,1,1,2,1
18.1.4,369.99442271163434,3,Wieniawski,middle,71.11,none,none,120,24,none,0,0,0,0,0,0,none,6,4,71.11,0,0,1,-1,1,1,1,1,1
18.1.5,369.99442271163434,3,Wieniawski,middle,71.11,none,none,120,24,none,0,0,0,0,0,0,none,6,4,71.11,0,0,0,1,1,1,1,1,1
18.1.6,369.99442271163434,3,Wieniawski,middle,71.11,none,none,120,24,none,0,0,0,0,0,0,none,6,4,71.11,0,0,0,0,1,1,1,1,1
18.1.7,369.99442271163434,3,Wieniawski,middle,71.11,none,none,120,24,none,0,0,0,0,0,0,none,6,4,71.11,0,0,0,0,1,1,1,1,1
18.1.8,369.99442271163434,3,Wieniawski,middle,71.11,none,none,120,24,none,0,0,0,0,0,0,none,6,4,71.11,0,0,0,0,1,1,1,1,1
18.1.9,369.99442271163434,3,Wieniawski,middle,71.11,none,none,120,24,none,0,0,0,0,0,0,none,6,4,71.11,0,0,0,0,1,1,1,1,1
18.1.10,369.99442271163434,3,Wieniawski,middle,71.11,none,none,120,24,none,0,0,0,0,0,0,none,6,4,71.11,0,0,0,0,1,1,1,1,1
18.1.11,369.99442271163434,3,Wieniawski,middle,71.11,none,none,120,24,none,0,0,0,0,0,0,none,6,4,71.11,0,0,0,0,1,1,1,1,1
18.1.12,369.99442271163434,3,Wieniawski,end,71.11,none,none,120,24,none,0,0,0,0,0,0,none,6,4,71.11,0,0,0,0,1,1,1,1,1
19.1.1,739.988845423269,3,Wieniawski,begin,88.89,none,none,120,12,none,0,0,0,0,0,0,none,6,4,71.11,0,0,0,0,1,1,1,1,1
19.1.2,739.988845423269,3,Wieniawski,middle,88.89,none,none,120,12,none,0,0,0,0,0,0,none,6,4,88.89,12,0,0,0,1,1,1,1,1
19.1.3,739.988845423269,3,Wieniawski,middle,88.89,none,none,120,12,none,0,0,0,0,0,0,none,6,4,88.89,0,12,0,0,1,1,1,1,1
19.1.4,739.988845423269,3,Wieniawski,middle,88.89,none,none,120,12,none,0,0,0,0,0,0,none,6,4,88.89,0,0,12,0,1,1,1,1,1
19.1.5,739.988845423269,3,Wieniawski,middle,88.89,none,none,120,12,none,0,0,0,0,0,0,none,6,4,88.89,0,0,0,12,1,1,1,1,1
19.1.6,739.988845423269,3,Wieniawski,end,88.89,none,none,120,12,none,0,0,0,0,0,0,none,6,4,88.89,0,0,0,0,1,1,1,1,1
19.2.1,698.456462866008,1,Wieniawski,begin,88.89,none,none,120,6,start,0,0,0,0,0,0,none,18,3,88.89,0,0,0,0,1,1,1,1,1
19.2.2,698.456462866008,1,Wieniawski,middle,88.89,none,none,120,6,start,0,0,0,0,0,0,none,18,3,88.89,-1,0,0,0,1,1,1,1,1
19.2.3,698.456462866008,1,Wieniawski,end,88.89,none,none,120,6,start,0,0,0,0,0,0,none,18,3,88.89,0,-1,0,0,1,1,1,1,1
19.3.1,622.253967444162,6,Wieniawski,begin,88.89,none,none,120,6,stop,0,0,0,0,0,0,none,24,2,88.89,0,0,-1,0,1,1,1,1,1
19.3.2,622.253967444162,6,Wieniawski,middle,88.89,none,none,120,6,stop,0,0,0,0,0,0,none,24,2,88.89,-2,0,0,-1,1,1,1,1,1
19.3.3,622.253967444162,6,Wieniawski,end,88.89,none,none,120,6,stop,0,0,0,0,0,0,none,24,2,88.89,0,-2,0,0,1,1,1,1,1
20.1.1,587.3295358348153,4,Wieniawski,begin,88.89,none,none,120,12,none,0,0,0,0,0,0,none,6,4,88.89,0,0,-2,0,1,1,1,1,1
20.1.2,587.3295358348153,4,Wieniawski,middle,88.89,none,none,120,12,none,0,0,0,0,0,0,none,6,4,88.89,-1,0,0,-2,1,1,1,1,1
20.1.3,587.3295358348153,4,Wieniawski,middle,88.89,none,none,120,12,none,0,0,0,0,0,0,none,6,4,88.89,0,-1,0,0,1,1,1,1,1
20.1.4,587.3295358348153,4,Wieniawski,middle,88.89,none,none,120,12,none,0,0,0,0,0,0,none,6,4,88.89,0,0,-1,0,1,1,1,1,1
20.1.5,587.3295358348153,4,Wieniawski,middle,88.89,none,none,120,12,none,0,0,0,0,0,0,none,6,4,88.89,0,0,0,-1,1,1,1,1,1
20.1.6,587.3295358348153,4,Wieniawski,end,88.89,none,none,120,12,none,0,0,0,0,0,0,none,6,4,88.89,0,0,0,0,1,1,1,1,1
20.2.1,587.3295358348153,4,Wieniawski,begin,88.89,none,none,120,4,none,0,0,0,0,0,0,none,18,3,88.89,0,0,0,0,1,1,1,1,1
20.2.2,587.3295358348153,4,Wieniawski,end,88.89,none,none,120,4,none,0,0,0,0,0,0,none,18,3,88.89,0,0,0,0,1,1,1,1,1
20.4.1,587.3295358348153,4,Wieniawski,begin,88.89,none,none,120,6,none,0,0,0,0,0,0,none,26,1,88.89,0,0,0,0,1,1,1,1,1
20.4.2,587.3295358348153,4,Wieniawski,middle,88.89,none,none,120,6,none,0,0,0,0,0,0,none,26,1,88.89,0,0,0,0,1,1,1,1,1
20.4.3,587.3295358348153,4,Wieniawski,end,88.89,none,none,120,6,none,0,0,0,0,0,0,none,26,1,88.89,0,0,0,0,1,1,1,1,1
21.0.1,622.253967444162,6,Wieniawski,begin,88.89,none,none,120,6,start,0,0,0,0,0,0,none,6,4,88.89,0,0,0,0,1,1,1,1,1
21.0.2,622.253967444162,6,Wieniawski,middle,88.89,none,none,120,6,start,0,0,0,0,0,0,none,6,4,88.89,1,0,0,0,1,1,1,1,1
21.0.3,622.253967444162,6,Wieniawski,end,88.89,none,none,120,6,start,0,0,0,0,0,0,none,6,4,88.89,0,1,0,0,1,1,1,1,1
21.1.1,622.253967444162,6,Wieniawski,begin,88.89,none,none,120,4,middle,0,0,0,0,0,0,none,12,2,88.89,0,0,1,0,1,1,1,1,1
21.1.2,622.253967444162,6,Wieniawski,end,88.89,none,none,120,4,middle,0,0,0,0,0,0,none,12,2,88.89,0,0,0,1,1,1,1,1,1
21.2.1,587.3295358348153,4,Wieniawski,entire,88.89,none,none,120,2,stop,0,0,0,0,0,0,none,16,1,88.89,0,0,0,0,1,1,1,1,1
21.3.1,587.3295358348153,4,Wieniawski,begin,88.89,none,none,120,6,start,0,0,0,0,0,0,none,18,3,88.89,-1,0,0,0,1,1,1,1,1
21.3.2,587.3295358348153,4,Wieniawski,middle,88.89,none,none,120,6,start,0,0,0,0,0,0,none,18,3,88.89,0,-1,0,0,1,1,1,1,1
21.3.3,587.3295358348153,4,Wieniawski,end,88.89,none,none,120,6,start,0,0,0,0,0,0,none,18,3,88.89,0,0,-1,0,1,1,1,1,1
21.4.1,587.3295358348153,4,Wieniawski,begin,88.89,none,none,120,4,middle,0,0,0,0,0,0,none,24,2,88.89,0,0,0,-1,1,1,1,1,1
21.4.2,587.3295358348153,4,Wieniawski,end,88.89,none,none,120,4,middle,0,0,0,0,0,0,none,24,2,88.89,0,0,0,0,1,1,1,1,1
21.5.1,523.2511306011974,2,Wieniawski,entire,88.89,none,none,120,2,stop,0,0,0,0,0,0,none,28,1,88.89,0,0,0,0,1,1,1,1,1
22.0.1,466.1637615180899,7,Wieniawski,begin,88.89,none,none,120,4,none,0,0,0,0,0,0,none,6,4,88.89,-2,0,0,0,1,1,1,1,1
22.0.2,466.1637615180899,7,Wieniawski,end,88.89,none,none,120,4,none,0,0,0,0,0,0,none,6,4,88.89,-2,-2,0,0,1,1,1,1,1
23.1.1,440.0,5,Wieniawski,begin,88.89,none,none,120,12,none,0,0,0,0,0,0,none,6,4,88.89,0,-2,-2,0,1,1,1,1,1
23.1.2,440.0,5,Wieniawski,middle,88.89,none,none,120,12,none,0,0,0,0,0,0,none,6,4,88.89,-1,0,-2,-2,1,1,1,1,1
23.1.3,440.0,5,Wieniawski,middle,88.89,none,none,120,12,none,0,0,0,0,0,0,none,6,4,88.89,0,-1,0,-2,1,1,1,1,1
23.1.4,440.0,5,Wieniawski,middle,88.89,none,none,120,12,none,0,0,0,0,0,0,none,6,4,88.89,0,0,-1,0,1,1,1,1,1
23.1.5,440.0,5,Wieniawski,middle,88.89,none,none,120,12,none,0,0,0,0,0,0,none,6,4,88.89,0,0,0,-1,1,1,1,1,1
23.1.6,440.0,5,Wieniawski,end,88.89,none,none,120,12,none,0,0,0,0,0,0,none,6,4,88.89,0,0,0,0,1,1,1,1,1
23.2.1,440.0,5,Wieniawski,begin,88.89,none,none,120,6,none,0,0,0,0,0,0,none,18,3,88.89,0,0,0,0,1,1,1,1,1
23.2.2,440.0,5,Wieniawski,middle,88.89,none,none,120,6,none,0,0,0,0,0,0,none,18,3,88.89,0,0,0,0,1,1,1,1,1
23.2.3,440.0,5,Wieniawski,end,88.89,none,none,120,6,none,0,0,0,0,0,0,none,18,3,88.89,0,0,0,0,1,1,1,1,1
23.3.1,391.99543598174927,3,Wieniawski,begin,88.89,none,none,120,4,start,0,0,0,0,0,0,none,24,2,88.89,0,0,0,0,1,1,1,1,1
23.3.2,391.99543598174927,3,Wieniawski,end,88.89,none,none,120,4,start,0,0,0,0,0,0,none,24,2,88.89,-2,0,0,0,1,1,1,1,1
23.4.1,440.0,5,Wieniawski,entire,88.89,none,none,120,2,stop,0,0,0,0,0,0,none,28,1,88.89,0,-2,0,0,1,1,1,1,1
24.0.1,466.1637615180899,7,Wieniawski,begin,88.89,none,none,120,12,start,0,0,0,0,0,0,none,6,4,88.89,2,0,-2,0,1,1,1,1,1
24.0.2,466.1637615180899,7,Wieniawski,middle,88.89,none,none,120,12,start,0,0,0,0,0,0,none,6,4,88.89,1,2,0,-2,1,1,1,1,1
24.0.3,466.1637615180899,7,Wieniawski,middle,88.89,none,none,120,12,start,0,0,0,0,0,0,none,6,4,88.89,0,1,2,0,1,1,1,1,1
24.0.4,466.1637615180899,7,Wieniawski,middle,88.89,none,none,120,12,start,0,0,0,0,0,0,none,6,4,88.89,0,0,1,2,1,1,1,1,1
24.0.5,466.1637615180899,7,Wieniawski,middle,88.89,none,none,120,12,start,0,0,0,0,0,0,none,6,4,88.89,0,0,0,1,1,1,1,1,1
24.0.6,466.1637615180899,7,Wieniawski,end,88.89,none,none,120,12,start,0,0,0,0,0,0,none,6,4,88.89,0,0,0,0,1,1,1,1,1
24.1.1,349.2282314330038,1,Wieniawski,begin,88.89,none,none,120,4,stop,0,0,0,0,0,0,none,18,3,88.89,0,0,0,0,1,1,1,1,1
24.1.2,349.2282314330038,1,Wieniawski,end,88.89,none,none,120,4,stop,0,0,0,0,0,0,none,18,3,88.89,-5,0,0,0,1,1,1,1,1
25.1.1,261.6255653005985,2,Wieniawski,begin,88.89,none,none,120,12,none,0,0,0,0,0,0,none,6,4,88.89,0,-5,0,0,1,1,1,1,0.5
25.1.2,261.6255653005985,2,Wieniawski,middle,88.89,none,none,120,12,none,0,0,0,0,0,0,none,6,4,88.89,-5,0,-5,0,0.5,1,1,1,0.5
25.1.3,261.6255653005985,2,Wieniawski,middle,88.89,none,none,120,12,none,0,0,0,0,0,0,none,6,4,88.89,0,-5,0,-5,0.5,0.5,1,1,0.5
25.1.4,261.6255653005985,2,Wieniawski,middle,88.89,none,none,120,12,none,0,0,0,0,0,0,none,6,4,88.89,0,0,-5,0,0.5,0.5,0.5,1,0.5
25.1.5,261.6255653005985,2,Wieniawski,middle,88.89,none,none,120,12,none,0,0,0,0,0,0,none,6,4,88.89,0,0,0,-5,0.5,0.5,0.5,0.5,0.5
25.1.6,261.6255653005985,2,Wieniawski,end,88.89,none,none,120,12,none,0,0,0,0,0,0,none,6,4,88.89,0,0,0,0,0.5,0.5,0.5,0.5,0.5
25.2.1,261.6255653005985,2,Wieniawski,begin,88.89,none,none,120,6,none,0,0,0,0,0,0,none,18,3,88.89,0,0,0,0,0.5,0.5,0.5,0.5,0.5
25.2.2,261.6255653005985,2,Wieniawski,middle,88.89,none,none,120,6,none,0,0,0,0,0,0,none,18,3,88.89,0,0,0,0,0.5,0.5,0.5,0.5,0.5
25.2.3,261.6255653005985,2,Wieniawski,end,88.89,none,none,120,6,none,0,0,0,0,0,0,none,18,3,88.89,0,0,0,0,0.5,0.5,0.5,0.5,0.5
25.3.1,233.08188075904488,7,Wieniawski,begin,88.89,none,none,120,4,start,0,0,0,0,0,0,none,24,2,88.89,0,0,0,0,0.5,0.5,0.5,0.5,1
25.3.2,233.08188075904488,7,Wieniawski,end,88.89,none,none,120,4,start,0,0,0,0,0,0,none,24,2,88.89,-2,0,0,0,1,0.5,0.5,0.5,1
25.4.1,261.6255653005985,2,Wieniawski,entire,88.89,none,none,120,2,stop,0,0,0,0,0,0,none,28,1,88.89,0,-2,0,0,1,1,0.5,0.5,1
26.0.1,277.182630976872,4,Wieniawski,begin,88.89,none,none,120,12,none,0,0,0,0,0,0,none,6,4,88.89,2,0,-2,0,1,1,1,0.5,0.5
26.0.2,277.182630976872,4,Wieniawski,middle,88.89,none,none,120,12,none,0,0,0,0,0,0,none,6,4,88.89,1,2,0,-2,0.5,1,1,1,0.5
26.0.3,277.182630976872,4,Wieniawski,middle,88.89,none,none,120,12,none,0,0,0,0,0,0,none,6,4,88.89,0,1,2,0,0.5,0.5,1,1,0.5
26.0.4,277.182630976872,4,Wieniawski,middle,88.89,none,none,120,12,none,0,0,0,0,0,0,none,6,4,88.89,0,0,1,2,0.5,0.5,0.5,1,0.5
26.0.5,277.182630976872,4,Wieniawski,middle,88.89,none,none,120,12,none,0,0,0,0,0,0,none,6,4,88.89,0,0,0,1,0.5,0.5,0.5,0.5,0.5
26.0.6,277.182630976872,4,Wieniawski,end,88.89,none,none,120,12,none,0,0,0,0,0,0,none,6,4,88.89,0,0,0,0,0.5,0.5,0.5,0.5,0.5
26.1.1,261.6255653005985,2,Wieniawski,begin,88.89,none,none,120,6,start,0,0,0,0,0,0,none,18,3,88.89,0,0,0,0,0.5,0.5,0.5,0.5,1
26.1.2,261.6255653005985,2,Wieniawski,middle,88.89,none,none,120,6,start,0,0,0,0,0,0,none,18,3,88.89,-1,0,0,0,1,0.5,0.5,0.5,1
26.1.3,261.6255653005985,2,Wieniawski,end,88.89,none,none,120,6,start,0,0,0,0,0,0,none,18,3,88.89,0,-1,0,0,1,1,0.5,0.5,1
26.2.1,311.1269837220808,6,Wieniawski,begin,88.89,none,none,120,6,stop,0,0,0,0,0,0,none,24,2,88.89,0,0,-1,0,1,1,1,0.5,1
26.2.2,311.1269837220808,6,Wieniawski,middle,88.89,none,none,120,6,stop,0,0,0,0,0,0,none,24,2,88.89,3,0,0,-1,1,1,1,1,1
26.2.3,311.1269837220808,6,Wieniawski,end,88.89,none,none,120,6,stop,0,0,0,0,0,0,none,24,2,88.89,0,3,0,0,1,1,1,1,1
27.1.1,277.182630976872,4,Wieniawski,begin,88.89,none,none,120,12,start,0,0,0,0,0,0,none,6,4,88.89,0,0,3,0,1,1,1,1,0.5
27.1.2,277.182630976872,4,Wieniawski,middle,88.89,none,none,120,12,start,0,0,0,0,0,0,none,6,4,88.89,-2,0,0,3,0.5,1,1,1,0.5
27.1.3,277.182630976872,4,Wieniawski,middle,88.89,none,none,120,12,start,0,0,0,0,0,0,none,6,4,88.89,0,-2,0,0,0.5,0.5,1,1,0.5
27.1.4,277.182630976872,4,Wieniawski,middle,88.89,none,none,120,12,start,0,0,0,0,0,0,none,6,4,88.89,0,0,-2,0,0.5,0.5,0.5,1,0.5
27.1.5,277.182630976872,4,Wieniawski,middle,88.89,none,none,120,12,start,0,0,0,0,0,0,none,6,4,88.89,0,0,0,-2,0.5,0.5,0.5,0.5,0.5
27.1.6,277.182630976872,4,Wieniawski,end,88.89,none,none,120,12,start,0,0,0,0,0,0,none,6,4,88.89,0,0,0,0,0.5,0.5,0.5,0.5,0.5
27.2.1,207.65234878997245,5,Wieniawski,entire,88.89,none,none,120,2,stop,0,0,0,0,0,0,none,18,3,88.89,0,0,0,0,0.5,0.5,0.5,0.5,0.5
27.3.1,207.65234878997245,5,Wieniawski,entire,88.89,none,none,120,2,none,0,1,0,0,0,0,none,20,1,88.89,-5,0,0,0,0.5,0.5,0.5,0.5,0.5
27.4.1,233.08188075904488,7,Wieniawski,entire,88.89,none,none,120,2,none,0,1,0,0,0,0,none,22,1,88.89,0,-5,0,0,0.5,0.5,0.5,0.5,0.5
27.5.1,261.6255653005985,2,Wieniawski,entire,88.89,none,none,120,2,start,0,1,0,0,0,0,none,24,2,88.89,2,0,-5,0,0.5,0.5,0.5,0.5,0.5
27.6.1,277.182630976872,4,Wieniawski,entire,88.89,none,none,120,2,middle,0,1,0,0,0,0,none,26,1,88.89,2,2,0,-5,0.5,0.5,0.5,0.5,0.5
27.7.1,311.1269837220808,6,Wieniawski,entire,88.89,none,none,120,2,stop,0,1,0,0,0,0,none,28,1,88.89,1,2,2,0,0.5,0.5,0.5,0.5,0.5
28.1.1,329.62755691286986,6,Wieniawski,begin,88.89,none,none,120,12,none,0,0,0,0,0,0,none,6,4,88.89,2,1,2,2,0.5,0.5,0.5,0.5,0.5
28.1.2,329.62755691286986,6,Wieniawski,middle,88.89,none,none,120,12,none,0,0,0,0,0,0,none,6,4,88.89,1,2,1,2,0.5,0.5,0.5,0.5,.5
28.1.3,329.62755691286986,6,Wieniawski,middle,88.89,none,none,120,12,none,0,0,0,0,0,0,none,6,4,88.89,0,1,2,1,.5,0.5,0.5,0.5,.5
28.1.4,329.62755691286986,6,Wieniawski,middle,88.89,none,none,120,12,none,0,0,0,0,0,0,none,6,4,88.89,0,0,1,2,.5,.5,0.5,0.5,.5
28.1.5,329.62755691286986,6,Wieniawski,middle,88.89,none,none,120,12,none,0,0,0,0,0,0,none,6,4,88.89,0,0,0,1,.5,.5,.5,0.5,.5
28.1.6,329.62755691286986,6,Wieniawski,end,88.89,none,none,120,12,none,0,0,0,0,0,0,none,6,4,88.89,0,0,0,0,.5,.5,.5,.5,.5
28.2.1,311.1269837220808,4,Wieniawski,begin,88.89,none,none,120,6,start,0,0,0,0,0,0,none,18,3,88.89,0,0,0,0,.5,.5,.5,.5,0.5
28.2.2,311.1269837220808,4,Wieniawski,middle,88.89,none,none,120,6,start,0,0,0,0,0,0,none,18,3,88.89,-1,0,0,0,0.5,.5,.5,.5,0.5
28.2.3,311.1269837220808,4,Wieniawski,end,88.89,none,none,120,6,start,0,0,0,0,0,0,none,18,3,88.89,0,-1,0,0,0.5,0.5,.5,.5,0.5
28.3.1,369.99442271163434,1,Wieniawski,begin,88.89,none,none,120,6,stop,0,0,0,0,0,0,none,24,2,88.89,0,0,-1,0,0.5,0.5,0.5,.5,0.5
28.3.2,369.99442271163434,1,Wieniawski,middle,88.89,none,none,120,6,stop,0,0,0,0,0,0,none,24,2,88.89,3,0,0,-1,0.5,0.5,0.5,0.5,0.5
28.3.3,369.99442271163434,1,Wieniawski,end,88.89,none,none,120,6,stop,0,0,0,0,0,0,none,24,2,88.89,0,3,0,0,0.5,0.5,0.5,0.5,0.5
29.0.1,311.1269837220808,6,Wieniawski,begin,88.89,none,none,120,12,start,0,0,0,0,0,0,none,6,4,88.89,0,0,3,0,0.5,0.5,0.5,0.5,0.5
29.0.2,311.1269837220808,6,Wieniawski,middle,88.89,none,none,120,12,start,0,0,0,0,0,0,none,6,4,88.89,-3,0,0,3,0.5,0.5,0.5,0.5,.5
29.0.3,311.1269837220808,6,Wieniawski,middle,88.89,none,none,120,12,start,0,0,0,0,0,0,none,6,4,88.89,0,-3,0,0,.5,0.5,0.5,0.5,.5
29.0.4,311.1269837220808,6,Wieniawski,middle,88.89,none,none,120,12,start,0,0,0,0,0,0,none,6,4,88.89,0,0,-3,0,.5,.5,0.5,0.5,.5
29.0.5,311.1269837220808,6,Wieniawski,middle,88.89,none,none,120,12,start,0,0,0,0,0,0,none,6,4,88.89,0,0,0,-3,.5,.5,.5,0.5,.5
29.0.6,311.1269837220808,6,Wieniawski,end,88.89,none,none,120,12,start,0,0,0,0,0,0,none,6,4,88.89,0,0,0,0,.5,.5,.5,.5,.5
29.1.1,246.94165062806198,7,Wieniawski,entire,88.89,none,none,120,2,stop,0,0,0,0,0,0,none,18,3,88.89,0,0,0,0,.5,.5,.5,.5,.5
29.2.1,246.94165062806198,7,Wieniawski,entire,88.89,none,none,120,2,none,0,1,0,0,0,0,none,20,1,88.89,-4,0,0,0,.5,.5,.5,.5,.5
29.3.1,277.182630976872,2,Wieniawski,entire,88.89,none,none,120,2,none,0,1,0,0,0,0,none,22,1,88.89,0,-4,0,0,.5,.5,.5,.5,.5
29.4.1,311.1269837220808,4,Wieniawski,entire,88.89,none,none,120,2,start,0,1,0,0,0,0,none,24,2,88.89,2,0,-4,0,.5,.5,.5,.5,.5
29.5.1,311.1269837220808,6,Wieniawski,entire,88.89,none,none,120,2,middle,0,1,0,0,0,0,none,26,1,88.89,2,2,0,-4,.5,.5,.5,.5,.5
29.6.1,369.99442271163434,1,Wieniawski,entire,88.89,none,none,120,2,stop,0,1,0,0,0,0,none,28,1,88.89,0,2,2,0,.5,.5,.5,.5,.5
30.1.1,391.99543598174927,3,Wieniawski,begin,88.89,none,none,120,12,none,0,0,0,0,0,0,none,6,4,88.89,3,0,2,2,.5,.5,.5,.5,.5
30.1.2,391.99543598174927,3,Wieniawski,middle,88.89,none,none,120,12,none,0,0,0,0,0,0,none,6,4,88.89,1,3,0,2,.5,.5,.5,.5,.5
30.1.3,391.99543598174927,3,Wieniawski,middle,88.89,none,none,120,12,none,0,0,0,0,0,0,none,6,4,88.89,0,1,3,0,.5,.5,.5,.5,.5
30.1.4,391.99543598174927,3,Wieniawski,middle,88.89,none,none,120,12,none,0,0,0,0,0,0,none,6,4,88.89,0,0,1,3,.5,.5,.5,.5,.5
30.1.5,391.99543598174927,3,Wieniawski,middle,88.89,none,none,120,12,none,0,0,0,0,0,0,none,6,4,88.89,0,0,0,1,.5,.5,.5,.5,.5
30.1.6,391.99543598174927,3,Wieniawski,end,88.89,none,none,120,12,none,0,0,0,0,0,0,none,6,4,88.89,0,0,0,0,.5,.5,.5,.5,.5
30.2.1,369.99442271163434,1,Wieniawski,begin,88.89,none,none,120,6,start,0,0,0,0,0,0,none,18,3,88.89,0,0,0,0,.5,.5,.5,.5,.5
30.2.2,369.99442271163434,1,Wieniawski,middle,88.89,none,none,120,6,start,0,0,0,0,0,0,none,18,3,88.89,-1,0,0,0,.5,.5,.5,.5,.5
30.2.3,369.99442271163434,1,Wieniawski,end,88.89,none,none,120,6,start,0,0,0,0,0,0,none,18,3,88.89,0,-1,0,0,.5,.5,.5,.5,.5
30.3.1,440.0,5,Wieniawski,begin,88.89,none,none,120,6,stop,0,0,0,0,0,0,none,24,2,88.89,0,0,-1,0,.5,.5,.5,.5,.5
30.3.2,440.0,5,Wieniawski,middle,88.89,none,none,120,6,stop,0,0,0,0,0,0,none,24,2,88.89,3,0,0,-1,.5,.5,.5,.5,.5
30.3.3,440.0,5,Wieniawski,end,88.89,none,none,120,6,stop,0,0,0,0,0,0,none,24,2,88.89,0,3,0,0,.5,.5,.5,.5,.5
31.0.1,391.99543598174927,3,Wieniawski,begin,88.89,none,none,120,12,start,0,0,0,0,0,0,none,6,4,88.89,0,0,3,0,.5,.5,.5,.5,.5
31.0.2,391.99543598174927,3,Wieniawski,middle,88.89,none,none,120,12,start,0,0,0,0,0,0,none,6,4,88.89,-2,0,0,3,.5,.5,.5,.5,.5
31.0.3,391.99543598174927,3,Wieniawski,middle,88.89,none,none,120,12,start,0,0,0,0,0,0,none,6,4,88.89,0,-2,0,0,.5,.5,.5,.5,.5
31.0.4,391.99543598174927,3,Wieniawski,middle,88.89,none,none,120,12,start,0,0,0,0,0,0,none,6,4,88.89,0,0,-2,0,.5,.5,.5,.5,.5
31.0.5,391.99543598174927,3,Wieniawski,middle,88.89,none,none,120,12,start,0,0,0,0,0,0,none,6,4,88.89,0,0,0,-2,.5,.5,.5,.5,.5
31.0.6,391.99543598174927,3,Wieniawski,end,88.89,none,none,120,12,start,0,0,0,0,0,0,none,6,4,88.89,0,0,0,0,.5,.5,.5,.5,.5
31.1.1,293.66476791740746,4,Wieniawski,begin,88.89,none,none,120,4,stop,0,0,0,0,0,0,none,18,3,88.89,0,0,0,0,.5,.5,.5,.5,.5
31.1.2,293.66476791740746,4,Wieniawski,end,88.89,none,none,120,4,stop,0,0,0,0,0,0,none,18,3,88.89,-5,0,0,0,.5,.5,.5,.5,.5
31.3.1,293.66476791740746,4,Wieniawski,begin,88.89,none,none,120,6,none,0,0,0,0,0,0,none,26,1,88.89,0,-5,0,0,.5,.5,.5,.5,1
31.3.2,293.66476791740746,4,Wieniawski,middle,88.89,none,none,120,6,none,0,0,0,0,0,0,none,26,1,88.89,0,0,-5,0,1,.5,.5,.5,1
31.3.3,293.66476791740746,4,Wieniawski,end,88.89,none,none,120,6,none,0,0,0,0,0,0,none,26,1,88.89,0,0,0,-5,1,1,.5,.5,1
32.1.1,349.2282314330038,1,Wieniawski,begin,88.89,none,none,120,12,none,0,0,0,0,0,0,none,6,4,88.89,0,0,0,0,1,1,1,.5,.5
32.1.2,349.2282314330038,1,Wieniawski,middle,88.89,none,none,120,12,none,0,0,0,0,0,0,none,6,4,88.89,3,0,0,0,.5,1,1,1,.5
32.1.3,349.2282314330038,1,Wieniawski,middle,88.89,none,none,120,12,none,0,0,0,0,0,0,none,6,4,88.89,0,3,0,0,.5,.5,1,1,.5
32.1.4,349.2282314330038,1,Wieniawski,middle,88.89,none,none,120,12,none,0,0,0,0,0,0,none,6,4,88.89,0,0,3,0,.5,.5,.5,1,.5
32.1.5,349.2282314330038,1,Wieniawski,middle,88.89,none,none,120,12,none,0,0,0,0,0,0,none,6,4,88.89,0,0,0,3,.5,.5,.5,.5,.5
32.1.6,349.2282314330038,1,Wieniawski,end,88.89,none,none,120,12,none,0,0,0,0,0,0,none,6,4,88.89,0,0,0,0,.5,.5,.5,.5,.5
32.2.1,349.2282314330038,1,Wieniawski,begin,88.89,none,none,120,6,none,0,0,0,0,0,0,none,18,3,88.89,0,0,0,0,.5,.5,.5,.5,.5
32.2.2,349.2282314330038,1,Wieniawski,middle,88.89,none,none,120,6,none,0,0,0,0,0,0,none,18,3,88.89,0,0,0,0,.5,.5,.5,.5,.5
32.2.3,349.2282314330038,1,Wieniawski,end,88.89,none,none,120,6,none,0,0,0,0,0,0,none,18,3,88.89,0,0,0,0,.5,.5,.5,.5,.5
32.3.1,311.1269837220808,6,Wieniawski,begin,88.89,none,none,120,4,start,0,0,0,0,0,0,none,24,2,88.89,0,0,0,0,.5,.5,.5,.5,.5
32.3.2,311.1269837220808,6,Wieniawski,end,88.89,none,none,120,4,start,0,0,0,0,0,0,none,24,2,88.89,-2,0,0,0,.5,.5,.5,.5,.5
32.4.1,293.66476791740746,4,Wieniawski,entire,88.89,none,none,120,2,stop,0,0,0,0,0,0,none,28,1,88.89,0,-2,0,0,.5,.5,.5,.5,.5
33.0.1,311.1269837220808,6,Wieniawski,begin,88.89,none,none,120,12,none,0,0,0,0,0,0,none,6,4,88.89,-1,0,-2,0,.5,.5,.5,.5,.5
33.0.2,311.1269837220808,6,Wieniawski,middle,88.89,none,none,120,12,none,0,0,0,0,0,0,none,6,4,88.89,1,-1,0,-2,.5,.5,.5,.5,.5
33.0.3,311.1269837220808,6,Wieniawski,middle,88.89,none,none,120,12,none,0,0,0,0,0,0,none,6,4,88.89,0,1,-1,0,.5,.5,.5,.5,.5
33.0.4,311.1269837220808,6,Wieniawski,middle,88.89,none,none,120,12,none,0,0,0,0,0,0,none,6,4,88.89,0,0,1,-1,.5,.5,.5,.5,.5
33.0.5,311.1269837220808,6,Wieniawski,middle,88.89,none,none,120,12,none,0,0,0,0,0,0,none,6,4,88.89,0,0,0,1,.5,.5,.5,.5,.5
33.0.6,311.1269837220808,6,Wieniawski,end,88.89,none,none,120,12,none,0,0,0,0,0,0,none,6,4,88.89,0,0,0,0,.5,.5,.5,.5,.5
33.1.1,311.1269837220808,6,Wieniawski,begin,88.89,none,none,120,6,none,0,0,0,0,0,0,none,18,3,88.89,0,0,0,0,.5,.5,.5,.5,.5
33.1.2,311.1269837220808,6,Wieniawski,middle,88.89,none,none,120,6,none,0,0,0,0,0,0,none,18,3,88.89,0,0,0,0,.5,.5,.5,.5,.5
33.1.3,311.1269837220808,6,Wieniawski,end,88.89,none,none,120,6,none,0,0,0,0,0,0,none,18,3,88.89,0,0,0,0,.5,.5,.5,.5,.5
33.2.1,311.1269837220808,6,Wieniawski,begin,88.89,none,none,120,6,none,0,0,0,0,0,0,none,24,2,88.89,0,0,0,0,.5,.5,.5,.5,.5
33.2.2,311.1269837220808,6,Wieniawski,middle,88.89,none,none,120,6,none,0,0,0,0,0,0,none,24,2,88.89,0,0,0,0,.5,.5,.5,.5,.5
33.2.3,311.1269837220808,6,Wieniawski,end,88.89,none,none,120,6,none,0,0,0,0,0,0,none,24,2,88.89,0,0,0,0,.5,.5,.5,.5,.5
34.1.1,622.253967444162,6,Wieniawski,begin,88.89,none,none,120,12,none,0,0,0,0,0,0,none,6,4,88.89,0,0,0,0,.5,.5,.5,.5,.5
34.1.2,622.253967444162,6,Wieniawski,middle,88.89,none,none,120,12,none,0,0,0,0,0,0,none,6,4,88.89,12,0,0,0,.5,.5,.5,.5,.5
34.1.3,622.253967444162,6,Wieniawski,middle,88.89,none,none,120,12,none,0,0,0,0,0,0,none,6,4,88.89,0,12,0,0,.5,.5,.5,.5,.5
34.1.4,622.253967444162,6,Wieniawski,middle,88.89,none,none,120,12,none,0,0,0,0,0,0,none,6,4,88.89,0,0,12,0,.5,.5,.5,.5,.5
34.1.5,622.253967444162,6,Wieniawski,middle,88.89,none,none,120,12,none,0,0,0,0,0,0,none,6,4,88.89,0,0,0,12,.5,.5,.5,.5,.5
34.1.6,622.253967444162,6,Wieniawski,end,88.89,none,none,120,12,none,0,0,0,0,0,0,none,6,4,88.89,0,0,0,0,.5,.5,.5,.5,.5
34.2.1,554.3652619537443,4,Wieniawski,begin,88.89,none,none,120,6,start,0,0,0,0,0,0,none,18,3,88.89,0,0,0,0,.5,.5,.5,.5,.5
34.2.2,554.3652619537443,4,Wieniawski,middle,88.89,none,none,120,6,start,0,0,0,0,0,0,none,18,3,88.89,-2,0,0,0,.5,.5,.5,.5,.5
34.2.3,554.3652619537443,4,Wieniawski,end,88.89,none,none,120,6,start,0,0,0,0,0,0,none,18,3,88.89,0,-2,0,0,.5,.5,.5,.5,.5
34.3.1,493.8833012561241,2,Wieniawski,begin,88.89,none,none,120,6,stop,0,0,0,0,0,0,none,24,2,88.89,0,0,-2,0,.5,.5,.5,.5,.5
34.3.2,493.8833012561241,2,Wieniawski,middle,88.89,none,none,120,6,stop,0,0,0,0,0,0,none,24,2,88.89,-2,0,0,-2,.5,.5,.5,.5,.5
34.3.3,493.8833012561241,2,Wieniawski,end,88.89,none,none,120,6,stop,0,0,0,0,0,0,none,24,2,88.89,0,-2,0,0,.5,.5,.5,.5,.5
35.0.1,466.1637615180899,7,Wieniawski,begin,88.89,none,none,120,12,none,0,0,0,0,0,0,none,6,4,88.89,0,0,-2,0,.5,.5,.5,.5,.5
35.0.2,466.1637615180899,7,Wieniawski,middle,88.89,none,none,120,12,none,0,0,0,0,0,0,none,6,4,88.89,-1,0,0,-2,.5,.5,.5,.5,.5
35.0.3,466.1637615180899,7,Wieniawski,middle,88.89,none,none,120,12,none,0,0,0,0,0,0,none,6,4,88.89,0,-1,0,0,.5,.5,.5,.5,.5
35.0.4,466.1637615180899,7,Wieniawski,middle,88.89,none,none,120,12,none,0,0,0,0,0,0,none,6,4,88.89,0,0,-1,0,.5,.5,.5,.5,.5
35.0.5,466.1637615180899,7,Wieniawski,middle,88.89,none,none,120,12,none,0,0,0,0,0,0,none,6,4,88.89,0,0,0,-1,.5,.5,.5,.5,.5
35.0.6,466.1637615180899,7,Wieniawski,end,88.89,none,none,120,12,none,0,0,0,0,0,0,none,6,4,88.89,0,0,0,0,.5,.5,.5,.5,.5
35.1.1,466.1637615180899,7,Wieniawski,begin,88.89,none,none,120,4,none,0,0,0,0,0,0,none,18,3,88.89,0,0,0,0,.5,.5,.5,.5,.5
35.1.2,466.1637615180899,7,Wieniawski,end,88.89,none,none,120,4,none,0,0,0,0,0,0,none,18,3,88.89,0,0,0,0,.5,.5,.5,.5,.5
35.3.1,466.1637615180899,7,Wieniawski,begin,88.89,none,none,120,6,none,0,0,0,0,0,0,none,26,1,88.89,0,0,0,0,.5,.5,.5,.5,1
35.3.2,466.1637615180899,7,Wieniawski,middle,88.89,none,none,120,6,none,0,0,0,0,0,0,none,26,1,88.89,0,0,0,0,1,.5,.5,.5,1
35.3.3,466.1637615180899,7,Wieniawski,end,88.89,none,none,120,6,none,0,0,0,0,0,0,none,26,1,88.89,0,0,0,0,1,1,.5,.5,1
36.1.1,493.8833012561241,2,Wieniawski,begin,88.89,none,none,120,12,none,0,0,0,0,0,0,none,6,4,88.89,0,0,0,0,1,1,1,.5,1
36.1.2,493.8833012561241,2,Wieniawski,middle,88.89,none,none,120,12,none,0,0,0,0,0,0,none,6,4,88.89,1,0,0,0,1,1,1,1,1
36.1.3,493.8833012561241,2,Wieniawski,middle,88.89,none,none,120,12,none,0,0,0,0,0,0,none,6,4,88.89,0,1,0,0,1,1,1,1,1
36.1.4,493.8833012561241,2,Wieniawski,middle,88.89,none,none,120,12,none,0,0,0,0,0,0,none,6,4,88.89,0,0,1,0,1,1,1,1,1
36.1.5,493.8833012561241,2,Wieniawski,middle,88.89,none,none,120,12,none,0,0,0,0,0,0,none,6,4,88.89,0,0,0,1,1,1,1,1,1
36.1.6,493.8833012561241,2,Wieniawski,end,88.89,none,none,120,12,none,0,0,0,0,0,0,none,6,4,88.89,0,0,0,0,1,1,1,1,1
36.2.1,466.1637615180899,7,Wieniawski,begin,88.89,none,none,120,6,start,0,0,0,0,0,0,none,18,3,88.89,0,0,0,0,1,1,1,1,1
36.2.2,466.1637615180899,7,Wieniawski,middle,88.89,none,none,120,6,start,0,0,0,0,0,0,none,18,3,88.89,-1,0,0,0,1,1,1,1,1
36.2.3,466.1637615180899,7,Wieniawski,end,88.89,none,none,120,6,start,0,0,0,0,0,0,none,18,3,88.89,0,-1,0,0,1,1,1,1,1
36.3.1,415.3046975799451,5,Wieniawski,begin,88.89,none,none,120,6,stop,0,0,0,0,0,0,none,24,2,88.89,0,0,-1,0,1,1,1,1,1
36.3.2,415.3046975799451,5,Wieniawski,middle,88.89,none,none,120,6,stop,0,0,0,0,0,0,none,24,2,88.89,-2,0,0,-1,1,1,1,1,1
36.3.3,415.3046975799451,5,Wieniawski,end,88.89,none,none,120,6,stop,0,0,0,0,0,0,none,24,2,88.89,0,-2,0,0,1,1,1,1,1
37.1.1,391.99543598174927,3,Wieniawski,begin,88.89,none,none,120,12,none,0,0,0,0,0,0,none,6,4,88.89,0,0,-2,0,1,1,1,1,1
37.1.2,391.99543598174927,3,Wieniawski,middle,88.89,none,none,120,12,none,0,0,0,0,0,0,none,6,4,88.89,-1,0,0,-2,1,1,1,1,1
37.1.3,391.99543598174927,3,Wieniawski,middle,88.89,none,none,120,12,none,0,0,0,0,0,0,none,6,4,88.89,0,-1,0,0,1,1,1,1,1
37.1.4,391.99543598174927,3,Wieniawski,middle,88.89,none,none,120,12,none,0,0,0,0,0,0,none,6,4,88.89,0,0,-1,0,1,1,1,1,1
37.1.5,391.99543598174927,3,Wieniawski,middle,88.89,none,none,120,12,none,0,0,0,0,0,0,none,6,4,88.89,0,0,0,-1,1,1,1,1,1
37.1.6,391.99543598174927,3,Wieniawski,end,88.89,none,none,120,12,none,0,0,0,0,0,0,none,6,4,88.89,0,0,0,0,1,1,1,1,1
37.2.1,391.99543598174927,3,Wieniawski,entire,88.89,none,none,120,2,none,0,0,0,0,0,0,none,18,3,88.89,0,0,0,0,1,1,1,1,1
37.3.1,391.99543598174927,3,Wieniawski,entire,88.89,none,none,120,2,none,0,0,0,0,0,0,none,20,1,88.89,0,0,0,0,1,1,1,1,1
37.4.1,440.0,5,Wieniawski,entire,88.89,none,none,120,2,none,0,0,0,0,0,0,none,22,1,88.89,0,0,0,0,1,1,1,1,1
37.5.1,493.8833012561241,7,Wieniawski,entire,88.89,none,none,120,2,start,0,0,0,0,0,0,none,24,2,88.89,2,0,0,0,1,1,1,1,1
37.6.1,523.2511306011974,2,Wieniawski,entire,88.89,none,none,120,2,middle,0,0,0,0,0,0,none,26,1,88.89,2,2,0,0,1,1,1,1,1
37.7.1,587.3295358348153,4,Wieniawski,entire,88.89,none,none,120,2,stop,0,0,0,0,0,0,none,28,1,88.89,1,2,2,0,1,1,1,1,1
38.1.1,783.990871963499,3,Wieniawski,begin,88.89,none,none,120,12,none,0,0,0,0,0,0,none,6,4,88.89,2,1,2,2,1,1,1,1,1
38.1.2,783.990871963499,3,Wieniawski,middle,88.89,none,none,120,12,none,0,0,0,0,0,0,none,6,4,88.89,5,2,1,2,1,1,1,1,1
38.1.3,783.990871963499,3,Wieniawski,middle,88.89,none,none,120,12,none,0,0,0,0,0,0,none,6,4,88.89,0,5,2,1,1,1,1,1,1
38.1.4,783.990871963499,3,Wieniawski,middle,88.89,none,none,120,12,none,0,0,0,0,0,0,none,6,4,88.89,0,0,5,2,1,1,1,1,1
38.1.5,783.990871963499,3,Wieniawski,middle,88.89,none,none,120,12,none,0,0,0,0,0,0,none,6,4,88.89,0,0,0,5,1,1,1,1,1
38.1.6,783.990871963499,3,Wieniawski,end,88.89,none,none,120,12,none,0,0,0,0,0,0,none,6,4,88.89,0,0,0,0,1,1,1,1,1
38.2.1,783.990871963499,3,Wieniawski,begin,88.89,none,none,120,6,none,0,0,0,0,0,0,none,18,3,88.89,0,0,0,0,1,1,1,1,1
38.2.2,783.990871963499,3,Wieniawski,middle,88.89,none,none,120,6,none,0,0,0,0,0,0,none,18,3,88.89,0,0,0,0,1,1,1,1,1
38.2.3,783.990871963499,3,Wieniawski,end,88.89,none,none,120,6,none,0,0,0,0,0,0,none,18,3,88.89,0,0,0,0,1,1,1,1,1
38.3.1,698.456462866008,1,Wieniawski,begin,88.89,none,none,120,4,start,0,0,0,0,0,0,none,24,2,88.89,0,0,0,0,1,1,1,1,1
38.3.2,698.456462866008,1,Wieniawski,end,88.89,none,none,120,4,start,0,0,0,0,0,0,none,24,2,88.89,-2,0,0,0,1,1,1,1,1
38.4.1,622.253967444162,6,Wieniawski,entire,88.89,none,none,120,2,stop,0,0,0,0,0,0,none,28,1,88.89,0,-2,0,0,1,1,1,1,1
39.0.1,587.3295358348153,4,Wieniawski,begin,88.89,none,none,120,12,none,0,0,0,0,0,0,none,6,4,88.89,-2,0,-2,0,1,1,1,1,1
39.0.2,587.3295358348153,4,Wieniawski,middle,88.89,none,none,120,12,none,0,0,0,0,0,0,none,6,4,88.89,-1,-2,0,-2,1,1,1,1,1
39.0.3,587.3295358348153,4,Wieniawski,middle,88.89,none,none,120,12,none,0,0,0,0,0,0,none,6,4,88.89,0,-1,-2,0,1,1,1,1,1
39.0.4,587.3295358348153,4,Wieniawski,middle,88.89,none,none,120,12,none,0,0,0,0,0,0,none,6,4,88.89,0,0,-1,-2,1,1,1,1,1
39.0.5,587.3295358348153,4,Wieniawski,middle,88.89,none,none,120,12,none,0,0,0,0,0,0,none,6,4,88.89,0,0,0,-1,1,1,1,1,1
39.0.6,587.3295358348153,4,Wieniawski,end,88.89,none,none,120,12,none,0,0,0,0,0,0,none,6,4,88.89,0,0,0,0,1,1,1,1,1
39.1.1,587.3295358348153,4,Wieniawski,entire,88.89,none,none,120,2,none,0,0,0,0,0,0,none,18,3,88.89,0,0,0,0,1,1,1,1,1
39.2.1,587.3295358348153,4,Wieniawski,entire,88.89,none,none,120,2,none,0,0,0,0,0,0,none,20,1,88.89,0,0,0,0,1,1,1,1,1
39.3.1,659.2551138257401,6,Wieniawski,entire,88.89,none,none,120,2,none,0,0,0,0,0,0,none,22,1,88.89,0,0,0,0,1,1,1,1,1
39.4.1,739.988845423269,1,Wieniawski,entire,88.89,none,none,120,2,start,0,0,0,0,0,0,none,24,2,88.89,2,0,0,0,1,1,1,1,1
39.5.1,783.990871963499,3,Wieniawski,entire,88.89,none,none,120,2,middle,0,0,0,0,0,0,none,26,1,88.89,2,2,0,0,1,1,1,1,1
39.6.1,880.0000000000003,5,Wieniawski,entire,88.89,none,none,120,2,stop,0,0,0,0,0,0,none,28,1,88.89,1,2,2,0,1,1,1,1,1
40.1.1,1174.659071669631,4,Wieniawski,begin,88.89,none,none,120,12,none,0,0,0,0,0,0,none,6,4,88.89,2,1,2,2,1,1,1,1,1
40.1.2,1174.659071669631,4,Wieniawski,middle,88.89,none,none,120,12,none,0,0,0,0,0,0,none,6,4,88.89,5,2,1,2,1,1,1,1,1
40.1.3,1174.659071669631,4,Wieniawski,middle,88.89,none,none,120,12,none,0,0,0,0,0,0,none,6,4,88.89,0,5,2,1,1,1,1,1,1
40.1.4,1174.659071669631,4,Wieniawski,middle,88.89,none,none,120,12,none,0,0,0,0,0,0,none,6,4,88.89,0,0,5,2,1,1,1,1,1
40.1.5,1174.659071669631,4,Wieniawski,middle,88.89,none,none,120,12,none,0,0,0,0,0,0,none,6,4,88.89,0,0,0,5,1,1,1,1,1
40.1.6,1174.659071669631,4,Wieniawski,end,88.89,none,none,120,12,none,0,0,0,0,0,0,none,6,4,88.89,0,0,0,0,1,1,1,1,1
40.2.1,1174.659071669631,4,Wieniawski,begin,88.89,none,none,120,6,none,0,0,0,0,0,0,none,18,3,88.89,0,0,0,0,1,1,1,1,1
40.2.2,1174.659071669631,4,Wieniawski,middle,88.89,none,none,120,6,none,0,0,0,0,0,0,none,18,3,88.89,0,0,0,0,1,1,1,1,1
40.2.3,1174.659071669631,4,Wieniawski,end,88.89,none,none,120,6,none,0,0,0,0,0,0,none,18,3,88.89,0,0,0,0,1,1,1,1,1
40.3.1,1046.5022612023952,2,Wieniawski,begin,88.89,none,none,120,4,start,0,0,0,0,0,0,none,24,2,88.89,0,0,0,0,1,1,1,1,1
40.3.2,1046.5022612023952,2,Wieniawski,end,88.89,none,none,120,4,start,0,0,0,0,0,0,none,24,2,88.89,-2,0,0,0,1,1,1,1,1
40.4.1,932.3275230361803,7,Wieniawski,entire,88.89,none,none,120,2,stop,0,0,0,0,0,0,none,28,1,88.89,0,-2,0,0,1,1,1,1,1
41.0.1,932.3275230361803,7,Wieniawski,begin,88.89,none,none,120,12,none,0,0,0,0,0,0,none,6,4,88.89,-2,0,-2,0,1,1,1,1,.5
41.0.2,932.3275230361803,7,Wieniawski,middle,88.89,none,none,120,12,none,0,0,0,0,0,0,none,6,4,88.89,0,-2,0,-2,.5,1,1,1,.5
41.0.3,932.3275230361803,7,Wieniawski,middle,88.89,none,none,120,12,none,0,0,0,0,0,0,none,6,4,88.89,0,0,-2,0,.5,.5,1,1,.5
41.0.4,932.3275230361803,7,Wieniawski,middle,88.89,none,none,120,12,none,0,0,0,0,0,0,none,6,4,88.89,0,0,0,-2,.5,.5,.5,1,.5
41.0.5,932.3275230361803,7,Wieniawski,middle,88.89,none,none,120,12,none,0,0,0,0,0,0,none,6,4,88.89,0,0,0,0,.5,.5,.5,.5,.5
41.0.6,932.3275230361803,7,Wieniawski,end,88.89,none,none,120,12,none,0,0,0,0,0,0,none,6,4,88.89,0,0,0,0,.5,.5,.5,.5,.5
41.1.1,932.3275230361803,7,Wieniawski,entire,88.89,none,none,120,2,none,0,0,0,0,0,0,none,18,3,88.89,0,0,0,0,.5,.5,.5,.5,.5
41.2.1,466.1637615180899,7,Wieniawski,entire,88.89,none,none,120,2,start,0,0,0,0,0,0,none,20,1,88.89,0,0,0,0,.5,.5,.5,.5,.5
41.3.1,523.2511306011974,2,Wieniawski,entire,88.89,none,none,120,2,middle,0,0,0,0,0,0,none,22,1,88.89,-12,0,0,0,.5,.5,.5,.5,.5
41.4.1,587.3295358348153,4,Wieniawski,entire,88.89,none,none,120,2,stop,0,0,0,0,0,0,none,24,2,88.89,2,-12,0,0,.5,.5,.5,.5,.5
41.5.1,622.253967444162,6,Wieniawski,entire,88.89,none,none,120,2,none,0,0,0,0,0,0,none,26,1,88.89,2,2,-12,0,.5,.5,.5,.5,.5
41.6.1,698.456462866008,1,Wieniawski,entire,88.89,none,none,120,2,none,0,0,0,0,0,0,none,28,1,88.89,1,2,2,-12,.5,.5,.5,.5,.5
42.1.1,932.3275230361803,7,Wieniawski,begin,88.89,none,none,120,12,start,0,0,0,0,0,0,none,6,4,88.89,2,1,2,2,.5,.5,.5,.5,.5
42.1.2,932.3275230361803,7,Wieniawski,middle,88.89,none,none,120,12,start,0,0,0,0,0,0,none,6,4,88.89,5,2,1,2,.5,.5,.5,.5,.5
42.1.3,932.3275230361803,7,Wieniawski,middle,88.89,none,none,120,12,start,0,0,0,0,0,0,none,6,4,88.89,0,5,2,1,.5,.5,.5,.5,.5
42.1.4,932.3275230361803,7,Wieniawski,middle,88.89,none,none,120,12,start,0,0,0,0,0,0,none,6,4,88.89,0,0,5,2,.5,.5,.5,.5,.5
42.1.5,932.3275230361803,7,Wieniawski,middle,88.89,none,none,120,12,start,0,0,0,0,0,0,none,6,4,88.89,0,0,0,5,.5,.5,.5,.5,.5
42.1.6,932.3275230361803,7,Wieniawski,end,88.89,none,none,120,12,start,0,0,0,0,0,0,none,6,4,88.89,0,0,0,0,.5,.5,.5,.5,.5
42.2.1,932.3275230361803,7,Wieniawski,begin,88.89,none,none,120,3,stop,0,0,0,0,0,0,none,18,3,88.89,0,0,0,0,.5,.5,.5,.5,.5
42.2.2,932.3275230361803,7,Wieniawski,end,88.89,none,none,120,3,stop,0,0,0,0,0,0,none,18,3,88.89,0,0,0,0,.5,.5,.5,.5,.5
42.3.1,739.988845423269,3,Wieniawski,begin,88.89,none,none,120,3,start,0,0,0,0,0,0,none,21,0,88.89,0,0,0,0,.5,.5,.5,.5,.5
42.3.2,739.988845423269,3,Wieniawski,end,88.89,none,none,120,3,start,0,0,0,0,0,0,none,21,0,88.89,-4,0,0,0,.5,.5,.5,.5,.5
42.4.1,698.456462866008,1,Wieniawski,begin,88.89,none,none,120,3,middle,0,0,0,0,0,0,none,24,2,88.89,0,-4,0,0,.5,.5,.5,.5,.5
42.4.2,698.456462866008,1,Wieniawski,end,88.89,none,none,120,3,middle,0,0,0,0,0,0,none,24,2,88.89,-1,0,-4,0,.5,.5,.5,.5,.5
42.5.1,622.253967444162,6,Wieniawski,begin,88.89,none,none,120,3,stop,0,0,0,0,0,0,none,27,0,88.89,0,-1,0,-4,.5,.5,.5,.5,.5
42.5.2,622.253967444162,6,Wieniawski,end,88.89,none,none,120,3,stop,0,0,0,0,0,0,none,27,0,88.89,-2,0,-1,0,.5,.5,.5,.5,.5
43.0.1,880.0000000000003,5,Wieniawski,begin,88.89,none,none,120,12,none,0,0,0,0,0,0,none,6,4,88.89,0,-2,0,-1,.5,.5,.5,.5,.5
43.0.2,880.0000000000003,5,Wieniawski,middle,88.89,none,none,120,12,none,0,0,0,0,0,0,none,6,4,88.89,6,0,-2,0,.5,.5,.5,.5,.5
43.0.3,880.0000000000003,5,Wieniawski,middle,88.89,none,none,120,12,none,0,0,0,0,0,0,none,6,4,88.89,0,6,0,-2,.5,.5,.5,.5,.5
43.0.4,880.0000000000003,5,Wieniawski,middle,88.89,none,none,120,12,none,0,0,0,0,0,0,none,6,4,88.89,0,0,6,0,.5,.5,.5,.5,.5
43.0.5,880.0000000000003,5,Wieniawski,middle,88.89,none,none,120,12,none,0,0,0,0,0,0,none,6,4,88.89,0,0,0,6,.5,.5,.5,.5,.5
43.0.6,880.0000000000003,5,Wieniawski,end,88.89,none,none,120,12,none,0,0,0,0,0,0,none,6,4,88.89,0,0,0,0,.5,.5,.5,.5,.5
43.1.1,932.3275230361803,7,Wieniawski,begin,88.89,none,none,120,12,none,0,0,0,0,0,0,none,18,3,88.89,0,0,0,0,.5,.5,.5,.5,.5
43.1.2,932.3275230361803,7,Wieniawski,middle,88.89,none,none,120,12,none,0,0,0,0,0,0,none,18,3,88.89,1,0,0,0,.5,.5,.5,.5,.5
43.1.3,932.3275230361803,7,Wieniawski,middle,88.89,none,none,120,12,none,0,0,0,0,0,0,none,18,3,88.89,0,1,0,0,.5,.5,.5,.5,.5
43.1.4,932.3275230361803,7,Wieniawski,middle,88.89,none,none,120,12,none,0,0,0,0,0,0,none,18,3,88.89,0,0,1,0,.5,.5,.5,.5,.5
43.1.5,932.3275230361803,7,Wieniawski,middle,88.89,none,none,120,12,none,0,0,0,0,0,0,none,18,3,88.89,0,0,0,1,.5,.5,.5,.5,.5
43.1.6,932.3275230361803,7,Wieniawski,end,88.89,none,none,120,12,none,0,0,0,0,0,0,none,18,3,88.89,0,0,0,0,.5,.5,.5,.5,.5
44.1.1,987.7666025122488,2,Wieniawski,begin,88.89,none,none,120,12,none,0,0,0,0,0,0,none,6,4,88.89,0,0,0,0,.5,.5,.5,.5,1
44.1.2,987.7666025122488,2,Wieniawski,middle,88.89,none,none,120,12,none,0,0,0,0,0,0,none,6,4,88.89,1,0,0,0,1,.5,.5,.5,1
44.1.3,987.7666025122488,2,Wieniawski,middle,88.89,none,none,120,12,none,0,0,0,0,0,0,none,6,4,88.89,0,1,0,0,1,1,.5,.5,1
44.1.4,987.7666025122488,2,Wieniawski,middle,88.89,none,none,120,12,none,0,0,0,0,0,0,none,6,4,88.89,0,0,1,0,1,1,1,.5,1
44.1.5,987.7666025122488,2,Wieniawski,middle,88.89,none,none,120,12,none,0,0,0,0,0,0,none,6,4,88.89,0,0,0,1,1,1,1,1,1
44.1.6,987.7666025122488,2,Wieniawski,end,88.89,none,none,120,12,none,0,0,0,0,0,0,none,6,4,88.89,0,0,0,0,1,1,1,1,1
44.2.1,987.7666025122488,2,Wieniawski,begin,88.89,none,none,120,6,none,0,0,0,0,0,0,none,18,3,88.89,0,0,0,0,1,1,1,1,1
44.2.2,987.7666025122488,2,Wieniawski,middle,88.89,none,none,120,6,none,0,0,0,0,0,0,none,18,3,88.89,0,0,0,0,1,1,1,1,1
44.2.3,987.7666025122488,2,Wieniawski,end,88.89,none,none,120,6,none,0,0,0,0,0,0,none,18,3,88.89,0,0,0,0,1,1,1,1,1
44.3.1,932.3275230361803,7,Wieniawski,begin,88.89,none,none,120,6,none,0,0,0,0,0,0,none,24,2,88.89,0,0,0,0,1,1,1,1,1
44.3.2,932.3275230361803,7,Wieniawski,middle,88.89,none,none,120,6,none,0,0,0,0,0,0,none,24,2,88.89,-1,0,0,0,1,1,1,1,1
44.3.3,932.3275230361803,7,Wieniawski,end,88.89,none,none,120,6,none,0,0,0,0,0,0,none,24,2,88.89,0,-1,0,0,1,1,1,1,1
45.1.1,880.0000000000003,5,Wieniawski,begin,88.89,none,none,120,3,start,0,0,0,0,0,0,none,6,4,88.89,0,0,-1,0,1,1,1,1,.5
45.1.2,880.0000000000003,5,Wieniawski,end,88.89,none,none,120,3,start,0,0,0,0,0,0,none,6,4,88.89,-1,0,0,-1,.5,1,1,1,.5
45.2.1,739.988845423269,3,Wieniawski,begin,88.89,none,none,120,3,stop,0,0,0,0,0,0,none,9,0,88.89,0,-1,0,0,.5,.5,1,1,.5
45.2.2,739.988845423269,3,Wieniawski,end,88.89,none,none,120,3,stop,0,0,0,0,0,0,none,9,0,88.89,-3,0,-1,0,.5,.5,.5,1,.5
45.3.1,698.456462866008,1,Wieniawski,begin,88.89,none,none,120,3,none,0,0,0,0,0,0,none,12,2,88.89,0,-3,0,-1,.5,.5,.5,.5,.5
45.3.2,698.456462866008,1,Wieniawski,end,88.89,none,none,120,3,none,0,0,0,0,0,0,none,12,2,88.89,-1,0,-3,0,.5,.5,.5,.5,.5
45.4.1,622.253967444162,6,Wieniawski,begin,88.89,none,none,120,3,none,0,0,0,0,0,0,none,15,0,88.89,0,-1,0,-3,.5,.5,.5,.5,.5
45.4.2,622.253967444162,6,Wieniawski,end,88.89,none,none,120,3,none,0,0,0,0,0,0,none,15,0,88.89,-2,0,-1,0,.5,.5,.5,.5,.5
45.5.1,466.1637615180899,7,Wieniawski,begin,88.89,none,none,120,3,start,0,0,0,0,0,0,none,18,3,88.89,0,-2,0,-1,.5,.5,.5,.5,.5
45.5.2,466.1637615180899,7,Wieniawski,end,88.89,none,none,120,3,start,0,0,0,0,0,0,none,18,3,88.89,-5,0,-2,0,.5,.5,.5,.5,.5
45.6.1,369.99442271163434,3,Wieniawski,begin,88.89,none,none,120,3,stop,0,0,0,0,0,0,none,21,0,88.89,0,-5,0,-2,.5,.5,.5,.5,.5
45.6.2,369.99442271163434,3,Wieniawski,end,88.89,none,none,120,3,stop,0,0,0,0,0,0,none,21,0,88.89,-4,0,-5,0,.5,.5,.5,.5,.5
45.7.1,349.2282314330038,1,Wieniawski,begin,88.89,none,none,120,3,none,0,0,0,0,0,0,none,24,2,88.89,0,-4,0,-5,.5,.5,.5,.5,.5
45.7.2,349.2282314330038,1,Wieniawski,end,88.89,none,none,120,3,none,0,0,0,0,0,0,none,24,2,88.89,-1,0,-4,0,.5,.5,.5,.5,.5
45.8.1,311.1269837220808,6,Wieniawski,begin,88.89,none,none,120,3,none,0,0,0,0,0,0,none,27,0,88.89,0,-1,0,-4,.5,.5,.5,.5,.5
45.8.2,311.1269837220808,6,Wieniawski,end,88.89,none,none,120,3,none,0,0,0,0,0,0,none,27,0,88.89,-2,0,-1,0,.5,.5,.5,.5,.5
46.1.1,311.1269837220808,6,Wieniawski,begin,88.89,none,none,120,4,start,0,0,0,0,0,0,none,6,4,88.89,0,-2,0,-1,.5,.5,.5,.5,.5
46.1.2,311.1269837220808,6,Wieniawski,end,88.89,none,none,120,4,start,0,0,0,0,0,0,none,6,4,88.89,0,0,-2,0,.5,.5,.5,.5,1
46.2.1,523.2511306011974,2,Wieniawski,entire,88.89,none,none,120,2,stop,0,0,0,0,0,0,none,10,1,88.89,0,0,0,-2,1,.5,.5,.5,1
46.3.1,523.2511306011974,2,Wieniawski,begin,88.89,none,none,120,12,none,0,0,0,0,0,0,none,12,2,88.89,9,0,0,0,1,1,.5,.5,1
46.3.2,523.2511306011974,2,Wieniawski,middle,88.89,none,none,120,12,none,0,0,0,0,0,0,none,12,2,88.89,0,9,0,0,1,1,1,.5,1
46.3.3,523.2511306011974,2,Wieniawski,middle,88.89,none,none,120,12,none,0,0,0,0,0,0,none,12,2,88.89,0,0,9,0,1,1,1,1,1
46.3.4,523.2511306011974,2,Wieniawski,middle,88.89,none,none,120,12,none,0,0,0,0,0,0,none,12,2,88.89,0,0,0,9,1,1,1,1,1
46.3.5,523.2511306011974,2,Wieniawski,middle,88.89,none,none,120,12,none,0,0,0,0,0,0,none,12,2,88.89,0,0,0,0,1,1,1,1,1
46.3.6,523.2511306011974,2,Wieniawski,end,88.89,none,none,120,12,none,0,0,0,0,0,0,none,12,2,88.89,0,0,0,0,1,1,1,1,1
46.4.1,523.2511306011974,2,Wieniawski,begin,88.89,none,none,120,6,none,0,0,0,0,0,0,none,24,2,88.89,0,0,0,0,1,1,1,1,1
46.4.2,523.2511306011974,2,Wieniawski,middle,88.89,none,none,120,6,none,0,0,0,0,0,0,none,24,2,88.89,0,0,0,0,1,1,1,1,1
46.4.3,523.2511306011974,2,Wieniawski,end,88.89,none,none,120,6,none,0,0,0,0,0,0,none,24,2,88.89,0,0,0,0,1,1,1,1,1
47.2.1,329.62755691286986,6,Wieniawski,entire,88.89,dim,none,120,2,start,0,0,0,0,0,0,none,12,2,88.89,0,0,0,0,1,1,1,1,1
47.3.1,349.2282314330038,1,Wieniawski,entire,88.89,none,none,120,2,middle,0,0,0,0,0,0,none,14,1,88.89,-8,0,0,0,1,1,1,1,1
47.4.1,440.0,5,Wieniawski,entire,88.89,none,none,120,2,middle,0,0,0,0,0,0,none,16,1,88.89,1,-8,0,0,1,1,1,1,1
47.5.1,523.2511306011974,2,Wieniawski,entire,88.89,none,none,120,2,middle,0,0,0,0,0,0,none,18,3,88.89,4,1,-8,0,1,1,1,1,1
47.6.1,698.456462866008,1,Wieniawski,entire,88.89,none,none,120,2,stop,0,0,0,0,0,0,none,20,1,88.89,3,4,1,-8,1,1,1,1,1.5
47.7.1,1396.912925732017,1,Wieniawski,begin,88.89,none,none,120,6,start,0,0,0,0,0,0,none,22,1,88.89,5,3,4,1,1.5,1,1,1,1.5
47.7.2,1396.912925732017,1,Wieniawski,middle,88.89,none,none,120,6,start,0,0,0,0,0,0,none,22,1,88.89,12,5,3,4,1.5,1.5,1,1,1.5
47.7.3,1396.912925732017,1,Wieniawski,end,88.89,none,none,120,6,start,0,0,0,0,0,0,none,22,1,88.89,0,12,5,3,1.5,1.5,1.5,1,1.5
47.8.1,1244.5079348883246,6,Wieniawski,begin,88.89,none,none,120,6,stop,0,0,0,0,0,0,none,28,1,88.89,0,0,12,5,1.5,1.5,1.5,1.5,1.5
47.8.2,1244.5079348883246,6,Wieniawski,middle,88.89,none,none,120,6,stop,0,0,0,0,0,0,none,28,1,88.89,-2,0,0,12,1.5,1.5,1.5,1.5,1.5
47.8.3,1244.5079348883246,6,Wieniawski,end,88.89,none,none,120,6,stop,0,0,0,0,0,0,none,28,1,88.89,0,-2,0,0,1.5,1.5,1.5,1.5,1.5
48.3.1,1174.659071669631,4,Wieniawski,begin,54.44,none,"L'istesso tempo",120,12,none,0,0,0,0,0,0,none,6,4,88.89,0,0,-2,0,1.5,1.5,1.5,1.5,1.5
48.3.2,1174.659071669631,4,Wieniawski,middle,54.44,none,"L'istesso tempo",120,12,none,0,0,0,0,0,0,none,6,4,54.44,-1,0,0,-2,1.5,1.5,1.5,1.5,1.5
48.3.3,1174.659071669631,4,Wieniawski,middle,54.44,none,"L'istesso tempo",120,12,none,0,0,0,0,0,0,none,6,4,54.44,0,-1,0,0,1.5,1.5,1.5,1.5,1.5
48.3.4,1174.659071669631,4,Wieniawski,middle,54.44,none,"L'istesso tempo",120,12,none,0,0,0,0,0,0,none,6,4,54.44,0,0,-1,0,1.5,1.5,1.5,1.5,1.5
48.3.5,1174.659071669631,4,Wieniawski,middle,54.44,none,"L'istesso tempo",120,12,none,0,0,0,0,0,0,none,6,4,54.44,0,0,0,-1,1.5,1.5,1.5,1.5,1.5
48.3.6,1174.659071669631,4,Wieniawski,end,54.44,none,"L'istesso tempo",120,12,none,0,0,0,0,0,0,none,6,4,54.44,0,0,0,0,1.5,1.5,1.5,1.5,1.5
48.4.1,1174.659071669631,4,Wieniawski,entire,54.44,none,none,120,2,none,0,0,0,0,0,0,none,18,3,54.44,0,0,0,0,1.5,1.5,1.5,1.5,1.5
48.5.1,1046.5022612023952,2,Wieniawski,entire,54.44,none,none,120,2,start,0,0,0,0,0,0,none,20,1,54.44,0,0,0,0,1.5,1.5,1.5,1.5,1.5
48.6.1,932.3275230361803,7,Wieniawski,entire,54.44,none,none,120,2,middle,0,0,0,0,0,0,none,22,1,54.44,-2,0,0,0,1.5,1.5,1.5,1.5,1.5
48.7.1,880.0000000000003,5,Wieniawski,entire,54.44,none,none,120,2,middle,0,0,0,0,0,0,none,24,2,54.44,-2,-2,0,0,1.5,1.5,1.5,1.5,1.5
48.8.1,932.3275230361803,7,Wieniawski,entire,54.44,none,none,120,2,middle,0,0,0,0,0,0,none,26,1,54.44,-1,-2,-2,0,1.5,1.5,1.5,1.5,1.5
48.9.1,1046.5022612023952,2,Wieniawski,entire,54.44,none,none,120,2,stop,0,0,0,0,0,0,none,28,1,54.44,1,-1,-2,-2,1.5,1.5,1.5,1.5,1.5
49.1.1,698.456462866008,1,Wieniawski,begin,54.44,none,none,120,6,start,0,0,0,0,0,0,none,6,4,54.44,2,1,-1,-2,1.5,1.5,1.5,1.5,1.5
49.1.2,698.456462866008,1,Wieniawski,middle,54.44,none,none,120,6,start,0,0,0,0,0,0,none,6,4,54.44,-7,2,1,-1,1.5,1.5,1.5,1.5,1.5
49.1.3,698.456462866008,1,Wieniawski,end,54.44,none,none,120,6,start,0,0,0,0,0,0,none,6,4,54.44,0,-7,2,1,1.5,1.5,1.5,1.5,1.5
49.2.1,698.456462866008,1,Wieniawski,entire,54.44,none,none,120,2,middle,0,0,0,0,0,0,none,12,2,54.44,0,0,-7,2,1.5,1.5,1.5,1.5,1.5
49.3.1,783.990871963499,3,Wieniawski,begin,54.44,none,none,120,1,middle,0,0,0,0,0,0,none,14,1,54.44,0,0,0,-7,1.5,1.5,1.5,1.5,1.5
49.5.1,932.3275230361803,7,Wieniawski,begin,54.44,none,none,120,1,middle,0,0,0,0,0,0,none,16,1,54.44,2,0,0,0,1.5,1.5,1.5,1.5,1.5
49.7.1,1174.659071669631,4,Wieniawski,begin,54.44,none,none,120,6,middle,0,0,0,0,0,0,none,18,3,54.44,3,2,0,0,1.5,1.5,1.5,1.5,1.5
49.7.2,1174.659071669631,4,Wieniawski,middle,54.44,none,none,120,6,middle,0,0,0,0,0,0,none,18,3,54.44,4,3,2,0,1.5,1.5,1.5,1.5,1.5
49.7.3,1174.659071669631,4,Wieniawski,end,54.44,none,none,120,6,middle,0,0,0,0,0,0,none,18,3,54.44,0,4,3,2,1.5,1.5,1.5,1.5,1.5
49.8.1,1174.659071669631,4,Wieniawski,begin,54.44,none,none,120,4,middle,0,0,0,0,0,0,none,24,2,54.44,0,0,4,3,1.5,1.5,1.5,1.5,1.5
49.8.2,1174.659071669631,4,Wieniawski,end,54.44,none,none,120,4,middle,0,0,0,0,0,0,none,24,2,54.44,0,0,0,4,1.5,1.5,1.5,1.5,1.5
50.3.1,932.3275230361803,7,Wieniawski,entire,54.44,cresc,none,120,2,start,0,0,0,0,0,0,up,10,1,54.44,0,0,0,0,1.5,1.5,1.5,1.5,1.5
50.4.1,1046.5022612023952,2,Wieniawski,entire,54.44,none,none,120,2,middle,0,0,0,0,0,0,none,12,2,54.44,-4,0,0,0,1.5,1.5,1.5,1.5,1.5
50.5.1,1174.659071669631,4,Wieniawski,entire,54.44,none,none,120,2,middle,0,0,0,0,0,0,none,14,1,54.44,2,-4,0,0,1.5,1.5,1.5,1.5,1.5
50.6.1,1244.5079348883246,6,Wieniawski,entire,54.44,none,none,120,2,middle,0,0,0,0,0,0,none,16,1,54.44,2,2,-4,0,1.5,1.5,1.5,1.5,1.25
50.7.1,1396.912925732017,1,Wieniawski,entire,54.44,none,none,120,2,stop,0,0,0,0,0,0,none,18,3,54.44,1,2,2,-4,1.25,1.5,1.5,1.5,1
50.8.1,1864.6550460723618,7,Wieniawski,begin,54.44,none,none,120,12,none,0,0,0,0,0,0,none,20,1,54.44,2,1,2,2,1,1.25,1.5,1.5,.5
50.8.2,1864.6550460723618,7,Wieniawski,middle,54.44,none,none,120,12,none,0,0,0,0,0,0,none,20,1,54.44,5,2,1,2,.5,1,1.25,1.5,.5
50.8.3,1864.6550460723618,7,Wieniawski,middle,54.44,none,none,120,12,none,0,0,0,0,0,0,none,20,1,54.44,0,5,2,1,.5,.5,1,1.25,.5
50.8.4,1864.6550460723618,7,Wieniawski,middle,54.44,none,none,120,12,none,0,0,0,0,0,0,none,20,1,54.44,0,0,5,2,.5,.5,.5,1,.5
50.8.5,1864.6550460723618,7,Wieniawski,middle,54.44,none,none,120,12,none,0,0,0,0,0,0,none,20,1,54.44,0,0,0,5,.5,.5,.5,.5,.5
50.8.6,1864.6550460723618,7,Wieniawski,end,54.44,none,none,120,12,none,0,0,0,0,0,0,none,20,1,54.44,0,0,0,0,.5,.5,.5,.5,.5
51.0.1,1864.6550460723618,7,Wieniawski,begin,54.44,none,none,120,3,none,0,0,0,0,0,0,none,6,4,54.44,0,0,0,0,.5,.5,.5,.5,.5
51.0.2,1864.6550460723618,7,Wieniawski,end,54.44,none,none,120,3,none,0,0,0,0,0,0,none,6,4,54.44,0,0,0,0,.5,.5,.5,.5,.5
51.1.1,1479.977690846539,3,Wieniawski,begin,54.44,none,none,120,3,start,1,0,0,0,0,0,none,9,0,54.44,0,0,0,0,.5,.5,.5,.5,.5
51.1.2,1479.977690846539,3,Wieniawski,end,54.44,none,none,120,3,start,1,0,0,0,0,0,none,9,0,54.44,-4,0,0,0,.5,.5,.5,.5,.5
51.2.1,1396.912925732017,1,Wieniawski,begin,54.44,none,none,120,3,middle,1,0,0,0,0,0,none,12,2,54.44,0,-4,0,0,.5,.5,.5,.5,.5
51.2.2,1396.912925732017,1,Wieniawski,end,54.44,none,none,120,3,middle,1,0,0,0,0,0,none,12,2,54.44,-1,0,-4,0,.5,.5,.5,.5,.5
51.3.1,1244.5079348883246,6,Wieniawski,begin,54.44,none,none,120,3,stop,1,0,0,0,0,0,none,15,0,54.44,0,-1,0,-4,.5,.5,.5,.5,.5
51.3.2,1244.5079348883246,6,Wieniawski,end,54.44,none,none,120,3,stop,1,0,0,0,0,0,none,15,0,54.44,-2,0,-1,0,.5,.5,.5,.5,.5
51.4.1,1479.977690846539,3,Wieniawski,begin,54.44,none,none,120,12,none,0,0,0,0,0,0,none,18,3,54.44,0,-2,0,-1,.5,.5,.5,.5,.5
51.4.2,1479.977690846539,3,Wieniawski,middle,54.44,none,none,120,12,none,0,0,0,0,0,0,none,18,3,54.44,3,0,-2,0,.5,.5,.5,.5,.5
51.4.3,1479.977690846539,3,Wieniawski,middle,54.44,none,none,120,12,none,0,0,0,0,0,0,none,18,3,54.44,0,3,0,-2,.5,.5,.5,.5,.5
51.4.4,1479.977690846539,3,Wieniawski,middle,54.44,none,none,120,12,none,0,0,0,0,0,0,none,18,3,54.44,0,0,3,0,.5,.5,.5,.5,.5
51.4.5,1479.977690846539,3,Wieniawski,middle,54.44,none,none,120,12,none,0,0,0,0,0,0,none,18,3,54.44,0,0,0,3,.5,.5,.5,.5,.5
51.4.6,1479.977690846539,3,Wieniawski,end,54.44,none,none,120,12,none,0,0,0,0,0,0,none,18,3,54.44,0,0,0,0,.5,.5,.5,.5,.5
52.1.1,1479.977690846539,3,Wieniawski,entire,54.44,none,none,120,2,none,0,0,0,0,0,0,none,6,4,54.44,0,0,0,0,.5,.5,.5,.5,.5
52.2.1,1244.5079348883246,6,Wieniawski,entire,54.44,none,none,120,2,none,1,0,0,0,0,0,none,8,1,54.44,0,0,0,0,.5,.5,.5,.5,.5
52.3.1,1396.912925732017,1,Wieniawski,entire,54.44,none,none,120,2,none,1,0,0,0,0,0,none,10,1,54.44,-3,0,0,0,.5,.5,.5,.5,.5
52.4.1,1479.977690846539,3,Wieniawski,entire,54.44,none,none,120,2,start,0,0,0,0,0,0,none,12,2,54.44,2,-3,0,0,.5,.5,.5,.5,.5
52.5.1,1244.5079348883246,6,Wieniawski,begin,54.44,none,none,120,3,middle,0,0,0,0,0,0,none,14,1,54.44,1,2,-3,0,.5,.5,.5,.5,.5
52.5.2,1244.5079348883246,6,Wieniawski,end,54.44,none,none,120,3,middle,0,0,0,0,0,0,none,14,1,54.44,-3,1,2,-3,.5,.5,.5,.5,.5
52.7.1,932.3275230361803,7,Wieniawski,begin,54.44,none,none,120,12,middle,0,0,0,0,0,0,none,20,1,54.44,0,-3,1,2,.5,.5,.5,.5,.5
52.7.2,932.3275230361803,7,Wieniawski,middle,54.44,none,none,120,12,middle,0,0,0,0,0,0,none,20,1,54.44,-5,0,-3,1,.5,.5,.5,.5,.5
52.7.3,932.3275230361803,7,Wieniawski,middle,54.44,none,none,120,12,middle,0,0,0,0,0,0,none,20,1,54.44,0,-5,0,-3,.5,.5,.5,.5,.5
52.7.4,932.3275230361803,7,Wieniawski,middle,54.44,none,none,120,12,middle,0,0,0,0,0,0,none,20,1,54.44,0,0,-5,0,.5,.5,.5,.5,.5
52.7.5,932.3275230361803,7,Wieniawski,middle,54.44,none,none,120,12,middle,0,0,0,0,0,0,none,20,1,54.44,0,0,0,-5,.5,.5,.5,.5,.5
52.7.6,932.3275230361803,7,Wieniawski,end,54.44,none,none,120,12,middle,0,0,0,0,0,0,none,20,1,54.44,0,0,0,0,.5,.5,.5,.5,.5
53.0.1,932.3275230361803,7,Wieniawski,entire,54.44,none,none,120,2,middle,0,0,0,0,0,0,none,6,4,54.44,0,0,0,0,.5,.5,.5,.5,.5
53.1.1,932.3275230361803,7,Wieniawski,entire,54.44,none,none,120,2,middle,1,0,0,0,0,0,none,8,1,54.44,0,0,0,0,.5,.5,.5,.5,1
53.2.1,1046.5022612023952,2,Wieniawski,entire,54.44,none,none,120,2,middle,1,0,0,0,0,0,none,10,1,54.44,0,0,0,0,1,.5,.5,.5,1
53.3.1,1174.659071669631,4,Wieniawski,entire,54.44,none,none,120,2,start,0,0,0,0,0,0,none,12,2,54.44,2,0,0,0,1,1,.5,.5,1
53.4.1,932.3275230361803,7,Wieniawski,begin,54.44,none,none,120,3,middle,0,0,0,0,0,0,none,14,1,54.44,2,2,0,0,1,1,1,.5,1
53.4.2,932.3275230361803,7,Wieniawski,end,54.44,none,none,120,3,middle,0,0,0,0,0,0,none,14,1,54.44,-4,2,2,0,1,1,1,1,1
53.6.1,698.456462866008,1,Wieniawski,begin,54.44,none,none,120,6,middle,0,0,0,0,0,0,none,20,1,54.44,0,-4,2,2,1,1,1,1,1
53.6.2,698.456462866008,1,Wieniawski,middle,54.44,none,none,120,6,middle,0,0,0,0,0,0,none,20,1,54.44,-5,0,-4,2,1,1,1,1,1
53.6.3,698.456462866008,1,Wieniawski,end,54.44,none,none,120,6,middle,0,0,0,0,0,0,none,20,1,54.44,0,-5,0,-4,1,1,1,1,1
53.7.1,698.456462866008,1,Wieniawski,begin,54.44,none,none,120,4,middle,0,0,0,0,0,0,none,26,1,54.44,0,0,-5,0,1,1,1,1,1
53.7.2,698.456462866008,1,Wieniawski,end,54.44,none,none,120,4,middle,0,0,0,0,0,0,none,26,1,54.44,0,0,0,-5,1,1,1,1,1
54.3.1,219.9999999999999,5,Wieniawski,entire,88.89,none,none,120,2,start,0,0,0,0,0,0,down,10,1,54.44,0,0,0,0,1,1,1,1,.5
54.4.1,261.6255653005985,2,Wieniawski,entire,88.89,none,none,120,2,middle,0,0,0,0,0,0,none,12,2,88.89,-20,0,0,0,.5,1,1,1,.5
54.5.1,311.1269837220808,6,Wieniawski,entire,88.89,none,none,120,2,stop,0,0,0,0,0,0,none,14,1,88.89,3,-20,0,0,.5,.5,1,1,.5
54.6.1,369.99442271163434,1,Wieniawski,entire,88.89,none,none,120,2,none,0,0,0,0,0,0,none,16,1,88.89,3,3,-20,0,.5,.5,.5,1,1
54.7.1,440.0,5,Wieniawski,entire,88.89,none,none,120,2,none,0,0,0,0,0,0,none,18,3,88.89,3,3,3,-20,1,.5,.5,.5,1
54.8.1,523.2511306011974,2,Wieniawski,entire,88.89,none,none,120,2,start,0,0,0,0,0,0,none,20,1,88.89,3,3,3,3,1,1,.5,.5,1
54.9.1,587.3295358348153,4,Wieniawski,entire,88.89,none,none,120,2,stop,1,0,0,0,0,0,up,22,1,88.89,3,3,3,3,1,1,1,.5,1
54.10.1,739.988845423269,1,Wieniawski,entire,88.89,none,none,120,2,none,1,0,0,0,0,0,none,24,2,88.89,2,3,3,3,1,1,1,1,1
54.11.1,1244.5079348883246,6,Wieniawski,entire,88.89,none,none,120,2,start,0,0,0,0,0,0,none,26,1,88.89,4,2,3,3,1,1,1,1,1
54.12.1,1174.659071669631,4,Wieniawski,entire,88.89,none,none,120,2,middle,0,0,0,0,0,0,none,28,1,88.89,9,4,2,3,1,1,1,1,1
54.13.1,880.0000000000003,5,Wieniawski,entire,88.89,none,none,120,2,stop,0,0,0,0,0,0,none,30,3,88.89,-1,9,4,2,1,1,1,1,1
55.1.1,880.0000000000003,5,Wieniawski,entire,88.89,none,none,120,2,start,0,0,0,0,0,0,none,6,4,88.89,-5,-1,9,4,1,1,1,1,.5
55.2.1,932.3275230361803,7,Wieniawski,entire,88.89,none,none,120,2,middle,0,0,0,0,0,0,none,8,1,88.89,0,-5,-1,9,.5,1,1,1,.5
55.3.1,739.988845423269,1,Wieniawski,entire,88.89,none,none,120,2,middle,0,0,0,0,0,0,none,10,1,88.89,1,0,-5,-1,.5,.5,1,1,.5
55.4.1,783.990871963499,3,Wieniawski,entire,88.89,none,none,120,2,stop,0,0,0,0,0,0,none,12,2,88.89,-4,1,0,-5,.5,.5,.5,1,.5
55.5.1,554.3652619537443,2,Wieniawski,entire,88.89,none,none,120,2,none,1,0,0,0,0,0,none,14,1,88.89,1,-4,1,0,.5,.5,.5,.5,.5
55.6.1,587.3295358348153,4,Wieniawski,entire,88.89,none,none,120,2,none,1,0,0,0,0,0,none,16,1,88.89,-6,1,-4,1,.5,.5,.5,.5,.5
55.7.1,739.988845423269,1,Wieniawski,entire,88.89,none,none,120,2,start,0,0,0,0,0,0,none,18,3,88.89,1,-6,1,-4,.5,.5,.5,.5,.5
55.8.1,783.990871963499,3,Wieniawski,entire,88.89,none,none,120,2,stop,0,0,0,0,0,0,none,20,1,88.89,4,1,-6,1,.5,.5,.5,.5,.5
55.9.1,880.0000000000003,5,Wieniawski,entire,88.89,none,none,120,2,none,0,0,1,0,0,0,none,22,1,88.89,1,4,1,-6,.5,.5,.5,.5,.5
55.11.1,932.3275230361803,7,Wieniawski,begin,88.89,none,none,120,4,start,0,0,0,0,0,1,none,24,2,88.89,2,1,4,1,.5,.5,.5,.5,.5
55.11.2,932.3275230361803,7,Wieniawski,end,88.89,none,none,120,4,start,0,0,0,0,0,1,none,24,2,88.89,-11,2,1,4,.5,.5,.5,.5,.5
55.14.1,1864.6550460723618,7,Wieniawski,entire,124.44,none,none,120,2,stop,0,0,0,0,0,1,none,28,1,88.89,0,-11,2,1,.5,.5,.5,.5,.5
56.1.1,1864.6550460723618,7,Wieniawski,begin,124.44,none,none,120,12,none,0,0,0,0,0,1,none,6,4,124.44,12,0,-11,2,.5,.5,.5,.5,.5
56.1.2,1864.6550460723618,7,Wieniawski,middle,124.44,none,none,120,12,none,0,0,0,0,0,1,none,6,4,124.44,0,12,0,-11,.5,.5,.5,.5,.5
56.1.3,1864.6550460723618,7,Wieniawski,middle,124.44,none,none,120,12,none,0,0,0,0,0,1,none,6,4,124.44,0,0,12,0,.5,.5,.5,.5,.5
56.1.4,1864.6550460723618,7,Wieniawski,middle,124.44,none,none,120,12,none,0,0,0,0,0,1,none,6,4,124.44,0,0,0,12,.5,.5,.5,.5,.5
56.1.5,1864.6550460723618,7,Wieniawski,middle,124.44,none,none,120,12,none,0,0,0,0,0,1,none,6,4,124.44,0,0,0,0,.5,.5,.5,.5,.5
56.1.6,1864.6550460723618,7,Wieniawski,end,124.44,none,none,120,12,none,0,0,0,0,0,1,none,6,4,124.44,0,0,0,0,.5,.5,.5,.5,.5
56.3.1,1661.218790319782,5,Wieniawski,begin,124.44,none,none,120,6,start,0,0,0,0,0,1,none,18,3,124.44,0,0,0,0,.5,.5,.5,.5,.5
56.3.2,1661.218790319782,5,Wieniawski,middle,124.44,none,none,120,6,start,0,0,0,0,0,1,none,18,3,124.44,-2,0,0,0,.5,.5,.5,.5,.5
56.3.3,1661.218790319782,5,Wieniawski,end,124.44,none,none,120,6,start,0,0,0,0,0,1,none,18,3,124.44,0,-2,0,0,.5,.5,.5,.5,.5
56.5.1,1479.977690846539,3,Wieniawski,begin,124.44,none,none,120,6,stop,0,0,0,0,0,1,none,24,2,124.44,0,0,-2,0,.5,.5,.5,.5,.5
56.5.2,1479.977690846539,3,Wieniawski,middle,124.44,none,none,120,6,stop,0,0,0,0,0,1,none,24,2,124.44,-2,0,0,-2,.5,.5,.5,.5,.5
56.5.3,1479.977690846539,3,Wieniawski,end,124.44,none,none,120,6,stop,0,0,0,0,0,1,none,24,2,124.44,0,-2,0,0,.5,.5,.5,.5,.5
57.2.1,1396.912925732017,1,Wieniawski,begin,124.44,none,none,120,12,none,0,0,0,0,0,1,none,6,4,124.44,0,0,-2,0,.5,.5,.5,.5,.5
57.2.2,1396.912925732017,1,Wieniawski,middle,124.44,none,none,120,12,none,0,0,0,0,0,1,none,6,4,124.44,-1,0,0,-2,.5,.5,.5,.5,.5
57.2.3,1396.912925732017,1,Wieniawski,middle,124.44,none,none,120,12,none,0,0,0,0,0,1,none,6,4,124.44,0,-1,0,0,.5,.5,.5,.5,.5
57.2.4,1396.912925732017,1,Wieniawski,middle,124.44,none,none,120,12,none,0,0,0,0,0,1,none,6,4,124.44,0,0,-1,0,.5,.5,.5,.5,.5
57.2.5,1396.912925732017,1,Wieniawski,middle,124.44,none,none,120,12,none,0,0,0,0,0,1,none,6,4,124.44,0,0,0,-1,.5,.5,.5,.5,.5
57.2.6,1396.912925732017,1,Wieniawski,end,124.44,none,none,120,12,none,0,0,0,0,0,1,none,6,4,124.44,0,0,0,0,.5,.5,.5,.5,.5
57.4.1,1396.912925732017,1,Wieniawski,begin,124.44,none,none,120,4,none,0,0,0,0,0,1,none,18,3,124.44,0,0,0,0,.5,.5,.5,.5,.5
57.4.2,1396.912925732017,1,Wieniawski,end,124.44,none,none,120,4,none,0,0,0,0,0,1,none,18,3,124.44,0,0,0,0,.5,.5,.5,.5,.5
57.7.1,1174.659071669631,4,Wieniawski,begin,124.44,none,none,120,6,none,0,0,0,0,0,1,none,26,1,124.44,0,0,0,0,.5,.5,.5,.5,.5
57.7.2,1174.659071669631,4,Wieniawski,middle,124.44,none,none,120,6,none,0,0,0,0,0,1,none,26,1,124.44,0,0,0,0,.5,.5,.5,.5,.5
57.7.3,1174.659071669631,4,Wieniawski,end,124.44,none,none,120,6,none,0,0,0,0,0,1,none,26,1,124.44,0,0,0,0,.5,.5,.5,.5,.5
58.1.1,1244.5079348883246,6,Wieniawski,begin,124.44,none,none,120,12,none,0,0,0,0,0,1,none,6,4,124.44,0,0,0,0,.5,.5,.5,.5,.5
58.1.2,1244.5079348883246,6,Wieniawski,middle,124.44,none,none,120,12,none,0,0,0,0,0,1,none,6,4,124.44,1,0,0,0,.5,.5,.5,.5,.5
58.1.3,1244.5079348883246,6,Wieniawski,middle,124.44,none,none,120,12,none,0,0,0,0,0,1,none,6,4,124.44,0,1,0,0,.5,.5,.5,.5,.5
58.1.4,1244.5079348883246,6,Wieniawski,middle,124.44,none,none,120,12,none,0,0,0,0,0,1,none,6,4,124.44,0,0,1,0,.5,.5,.5,.5,.5
58.1.5,1244.5079348883246,6,Wieniawski,middle,124.44,none,none,120,12,none,0,0,0,0,0,1,none,6,4,124.44,0,0,0,1,.5,.5,.5,.5,.5
58.1.6,1244.5079348883246,6,Wieniawski,end,124.44,none,none,120,12,none,0,0,0,0,0,1,none,6,4,124.44,0,0,0,0,.5,.5,.5,.5,.5
58.3.1,1174.659071669631,4,Wieniawski,begin,124.44,none,none,120,6,start,0,0,0,0,0,1,none,18,3,124.44,0,0,0,0,.5,.5,.5,.5,.5
58.3.2,1174.659071669631,4,Wieniawski,middle,124.44,none,none,120,6,start,0,0,0,0,0,1,none,18,3,124.44,-1,0,0,0,.5,.5,.5,.5,.5
58.3.3,1174.659071669631,4,Wieniawski,end,124.44,none,none,120,6,start,0,0,0,0,0,1,none,18,3,124.44,0,-1,0,0,.5,.5,.5,.5,.75
58.5.1,1046.5022612023952,2,Wieniawski,begin,124.44,none,none,120,6,middle,0,0,0,0,0,1,none,24,2,124.44,0,0,-1,0,.75,.5,.5,.5,.75
58.5.2,1046.5022612023952,2,Wieniawski,middle,124.44,none,none,120,6,middle,0,0,0,0,0,1,none,24,2,124.44,-2,0,0,-1,.75,.75,.5,.5,.75
58.5.3,1046.5022612023952,2,Wieniawski,end,124.44,none,none,120,6,middle,0,0,0,0,0,1,none,24,2,124.44,0,-2,0,0,.75,.75,.75,.5,1
59.2.1,932.3275230361803,7,Wieniawski,begin,124.44,none,none,120,4,middle,0,0,0,0,0,1,none,6,4,124.44,0,0,-2,0,1,.75,.75,.75,1
59.2.2,932.3275230361803,7,Wieniawski,end,124.44,none,none,120,4,middle,0,0,0,0,0,1,none,6,4,124.44,-1,0,0,-2,1,1,.75,.75,1
60.1.1,440.0,5,Wieniawski,begin,54.44,none,none,120,12,start,0,0,0,0,0,0,none,6,4,124.44,0,-1,0,0,1,1,1,.75,1
60.1.2,440.0,5,Wieniawski,middle,54.44,none,none,120,12,start,0,0,0,0,0,0,none,6,4,54.44,-5,0,-1,0,1,1,1,1,1
60.1.3,440.0,5,Wieniawski,middle,54.44,none,none,120,12,start,0,0,0,0,0,0,none,6,4,54.44,0,-5,0,-1,1,1,1,1,1
60.1.4,440.0,5,Wieniawski,middle,54.44,none,none,120,12,start,0,0,0,0,0,0,none,6,4,54.44,0,0,-5,0,1,1,1,1,1
60.1.5,440.0,5,Wieniawski,middle,54.44,none,none,120,12,start,0,0,0,0,0,0,none,6,4,54.44,0,0,0,-5,1,1,1,1,1
60.1.6,440.0,5,Wieniawski,end,54.44,none,none,120,12,start,0,0,0,0,0,0,none,6,4,54.44,0,0,0,0,1,1,1,1,1
60.2.1,440.0,5,Wieniawski,begin,54.44,none,none,120,6,middle,0,0,0,0,0,0,none,18,3,54.44,0,0,0,0,1,1,1,1,1
60.2.2,440.0,5,Wieniawski,middle,54.44,none,none,120,6,middle,0,0,0,0,0,0,none,18,3,54.44,0,0,0,0,1,1,1,1,1
60.2.3,440.0,5,Wieniawski,end,54.44,none,none,120,6,middle,0,0,0,0,0,0,none,18,3,54.44,0,0,0,0,1,1,1,1,1
60.3.1,391.99543598174927,3,Wieniawski,begin,54.44,none,none,120,4,middle,0,0,0,0,0,0,none,24,2,54.44,0,0,0,0,1,1,1,1,1
60.3.2,391.99543598174927,3,Wieniawski,end,54.44,none,none,120,4,middle,0,0,0,0,0,0,none,24,2,54.44,-2,0,0,0,1,1,1,1,1
60.4.1,440.0,5,Wieniawski,entire,54.44,none,none,120,2,stop,0,0,0,0,0,0,none,28,1,54.44,0,-2,0,0,1,1,1,1,1
61.0.1,466.1637615180899,7,Wieniawski,begin,54.44,none,none,120,12,start,0,0,0,0,0,0,none,6,4,54.44,2,0,-2,0,1,1,1,1,1
61.0.2,466.1637615180899,7,Wieniawski,middle,54.44,none,none,120,12,start,0,0,0,0,0,0,none,6,4,54.44,1,2,0,-2,1,1,1,1,1
61.0.3,466.1637615180899,7,Wieniawski,middle,54.44,none,none,120,12,start,0,0,0,0,0,0,none,6,4,54.44,0,1,2,0,1,1,1,1,1
61.0.4,466.1637615180899,7,Wieniawski,middle,54.44,none,none,120,12,start,0,0,0,0,0,0,none,6,4,54.44,0,0,1,2,1,1,1,1,1
61.0.5,466.1637615180899,7,Wieniawski,middle,54.44,none,none,120,12,start,0,0,0,0,0,0,none,6,4,54.44,0,0,0,1,1,1,1,1,1
61.0.6,466.1637615180899,7,Wieniawski,end,54.44,none,none,120,12,start,0,0,0,0,0,0,none,6,4,54.44,0,0,0,0,1,1,1,1,1
61.1.1,349.2282314330038,1,Wieniawski,begin,54.44,none,none,120,4,stop,0,0,0,0,0,0,none,18,3,54.44,0,0,0,0,1,1,1,1,1
61.1.2,349.2282314330038,1,Wieniawski,end,54.44,none,none,120,4,stop,0,0,0,0,0,0,none,18,3,54.44,-5,0,0,0,1,1,1,1,1
62.1.1,349.2282314330038,1,Wieniawski,begin,54.44,none,none,120,6,start,0,0,0,0,0,0,none,6,4,54.44,0,-5,0,0,1,1,1,1,1
62.1.2,349.2282314330038,1,Wieniawski,middle,54.44,none,none,120,6,start,0,0,0,0,0,0,none,6,4,54.44,0,0,-5,0,1,1,1,1,1
62.1.3,349.2282314330038,1,Wieniawski,end,54.44,none,none,120,6,start,0,0,0,0,0,0,none,6,4,54.44,0,0,0,-5,1,1,1,1,1
62.2.1,349.2282314330038,1,Wieniawski,entire,54.44,none,none,120,2,middle,0,0,0,0,0,0,none,12,2,54.44,0,0,0,0,1,1,1,1,1
62.3.1,329.62755691286986,6,Wieniawski,entire,54.44,none,none,120,2,middle,0,0,0,0,0,0,none,14,1,54.44,0,0,0,0,1,1,1,1,1
62.4.1,311.1269837220808,6,Wieniawski,entire,54.44,none,none,120,2,middle,0,0,0,0,0,0,none,16,1,54.44,-1,0,0,0,1,1,1,1,1
62.5.1,293.66476791740746,4,Wieniawski,entire,54.44,none,none,120,2,stop,0,0,0,0,0,0,none,18,3,54.44,-1,-1,0,0,1,1,1,1,1
62.6.1,233.08188075904488,7,Wieniawski,entire,54.44,none,none,120,2,none,1,0,0,0,0,0,none,20,1,54.44,-1,-1,-1,0,1,1,1,1,1
62.7.1,261.6255653005985,2,Wieniawski,entire,54.44,none,none,120,2,none,1,0,0,0,0,0,none,22,1,54.44,-4,-1,-1,-1,1,1,1,1,1
62.8.1,311.1269837220808,6,Wieniawski,begin,54.44,none,none,120,4,start,0,0,0,0,0,0,none,24,2,54.44,2,-4,-1,-1,1,1,1,1,1
62.8.2,311.1269837220808,6,Wieniawski,end,54.44,none,none,120,4,start,0,0,0,0,0,0,none,24,2,54.44,3,2,-4,-1,1,1,1,1,1
62.9.1,293.66476791740746,4,Wieniawski,entire,54.44,none,none,120,2,stop,0,0,0,0,0,0,none,28,1,54.44,0,3,2,-4,1,1,1,1,1
63.1.1,233.08188075904488,7,Wieniawski,begin,88.89,none,none,120,6,start,0,0,0,0,0,0,none,6,4,54.44,-1,0,3,2,1,1,1,1,1
63.1.2,233.08188075904488,7,Wieniawski,middle,88.89,none,none,120,6,start,0,0,0,0,0,0,none,6,4,88.89,-4,-1,0,3,1,1,1,1,1
63.1.3,233.08188075904488,7,Wieniawski,end,88.89,none,none,120,6,start,0,0,0,0,0,0,none,6,4,88.89,0,-4,-1,0,1,1,1,1,1
63.2.1,349.2282314330038,1,Wieniawski,begin,88.89,none,none,120,6,stop,0,0,0,0,0,0,none,12,2,88.89,0,0,-4,-1,1,1,1,1,1
63.2.2,349.2282314330038,1,Wieniawski,middle,88.89,none,none,120,6,stop,0,0,0,0,0,0,none,12,2,88.89,7,0,0,-4,1,1,1,1,1
63.2.3,349.2282314330038,1,Wieniawski,end,88.89,none,none,120,6,stop,0,0,0,0,0,0,none,12,2,88.89,0,7,0,0,1,1,1,1,1
63.3.1,369.99442271163434,3,Wieniawski,begin,88.89,none,none,120,6,start,0,0,0,0,0,0,none,18,3,88.89,0,0,7,0,1,1,1,1,1
63.3.2,369.99442271163434,3,Wieniawski,middle,88.89,none,none,120,6,start,0,0,0,0,0,0,none,18,3,88.89,1,0,0,7,1,1,1,1,1
63.3.3,369.99442271163434,3,Wieniawski,end,88.89,none,none,120,6,start,0,0,0,0,0,0,none,18,3,88.89,0,1,0,0,1,1,1,1,1
63.4.1,349.2282314330038,1,Wieniawski,begin,88.89,none,none,120,4,middle,0,0,0,0,0,0,none,24,2,88.89,0,0,1,0,1,1,1,1,1
63.4.2,349.2282314330038,1,Wieniawski,end,88.89,none,none,120,4,middle,0,0,0,0,0,0,none,24,2,88.89,-1,0,0,1,1,1,1,1,1
63.5.1,311.1269837220808,6,Wieniawski,entire,88.89,none,none,120,2,stop,0,0,0,0,0,0,none,28,1,88.89,0,-1,0,0,1,1,1,1,1
64.1.1,293.66476791740746,4,Wieniawski,begin,88.89,none,none,120,12,start,0,0,0,0,0,0,none,6,4,88.89,-2,0,-1,0,1,1,1,1,1
64.1.2,293.66476791740746,4,Wieniawski,middle,88.89,none,none,120,12,start,0,0,0,0,0,0,none,6,4,88.89,-1,-2,0,-1,1,1,1,1,1
64.1.3,293.66476791740746,4,Wieniawski,middle,88.89,none,none,120,12,start,0,0,0,0,0,0,none,6,4,88.89,0,-1,-2,0,1,1,1,1,1
64.1.4,293.66476791740746,4,Wieniawski,middle,88.89,none,none,120,12,start,0,0,0,0,0,0,none,6,4,88.89,0,0,-1,-2,1,1,1,1,1
64.1.5,293.66476791740746,4,Wieniawski,middle,88.89,none,none,120,12,start,0,0,0,0,0,0,none,6,4,88.89,0,0,0,-1,1,1,1,1,1
64.1.6,293.66476791740746,4,Wieniawski,end,88.89,none,none,120,12,start,0,0,0,0,0,0,none,6,4,88.89,0,0,0,0,1,1,1,1,1
64.4.1,311.1269837220808,6,Wieniawski,begin,88.89,none,none,120,6,stop,0,0,0,0,0,0,none,42,3,88.89,0,0,0,0,1,1,1,1,1
64.4.2,311.1269837220808,6,Wieniawski,middle,88.89,none,none,120,6,stop,0,0,0,0,0,0,none,42,3,88.89,1,0,0,0,1,1,1,1,1
64.4.3,311.1269837220808,6,Wieniawski,end,88.89,none,none,120,6,stop,0,0,0,0,0,0,none,42,3,88.89,0,1,0,0,1,1,1,1,1
64.5.1,293.66476791740746,4,Wieniawski,begin,88.89,none,none,120,4,none,0,0,0,0,0,0,none,48,2,88.89,0,0,1,0,1,1,1,1,1
64.5.2,293.66476791740746,4,Wieniawski,end,88.89,none,none,120,4,none,0,0,0,0,0,0,none,48,2,88.89,-1,0,0,1,1,1,1,1,1
64.6.1,261.6255653005985,2,Wieniawski,entire,88.89,none,none,120,2,stop,0,0,0,0,0,0,none,52,1,88.89,0,-1,0,0,1,1,1,1,1
65.1.1,233.08188075904488,7,Wieniawski,begin,88.89,dim,none,120,24,none,0,0,0,0,0,0,down,6,4,88.89,-2,0,-1,0,1,1,1,1,1.5
65.1.2,233.08188075904488,7,Wieniawski,middle,88.89,dim,none,120,24,none,0,0,0,0,0,0,down,6,4,88.89,-2,-2,0,-1,1.5,1,1,1,1.5
65.1.3,233.08188075904488,7,Wieniawski,middle,88.89,dim,none,120,24,none,0,0,0,0,0,0,down,6,4,88.89,0,-2,-2,0,1.5,1.5,1,1,1.5
65.1.4,233.08188075904488,7,Wieniawski,middle,88.89,dim,none,120,24,none,0,0,0,0,0,0,down,6,4,88.89,0,0,-2,-2,1.5,1.5,1.5,1,1.5
65.1.5,233.08188075904488,7,Wieniawski,middle,88.89,dim,none,120,24,none,0,0,0,0,0,0,down,6,4,88.89,0,0,0,-2,1.5,1.5,1.5,1.5,1.5
65.1.6,233.08188075904488,7,Wieniawski,middle,88.89,dim,none,120,24,none,0,0,0,0,0,0,down,6,4,88.89,0,0,0,0,1.5,1.5,1.5,1.5,1.5
65.1.7,233.08188075904488,7,Wieniawski,middle,88.89,dim,none,120,24,none,0,0,0,0,0,0,down,6,4,88.89,0,0,0,0,1.5,1.5,1.5,1.5,1.5
65.1.8,233.08188075904488,7,Wieniawski,middle,88.89,dim,none,120,24,none,0,0,0,0,0,0,down,6,4,88.89,0,0,0,0,1.5,1.5,1.5,1.5,1.5
65.1.9,233.08188075904488,7,Wieniawski,middle,88.89,dim,none,120,24,none,0,0,0,0,0,0,down,6,4,88.89,0,0,0,0,1.5,1.5,1.5,1.5,1.5
65.1.10,233.08188075904488,7,Wieniawski,middle,88.89,dim,none,120,24,none,0,0,0,0,0,0,down,6,4,88.89,0,0,0,0,1.5,1.5,1.5,1.5,1.5
65.1.11,233.08188075904488,7,Wieniawski,middle,88.89,dim,none,120,24,none,0,0,0,0,0,0,down,6,4,88.89,0,0,0,0,1.5,1.5,1.5,1.5,1.5
65.1.12,233.08188075904488,7,Wieniawski,end,88.89,dim,none,120,24,none,0,0,0,0,0,0,down,6,4,88.89,0,0,0,0,1.5,1.5,1.5,1.5,1.5
66.1.1,233.08188075904488,7,Wieniawski,begin,88.89,none,none,120,24,none,0,0,0,0,0,0,none,6,4,88.89,0,0,0,0,1.5,1.5,1.5,1.5,1.5
66.1.2,233.08188075904488,7,Wieniawski,middle,88.89,none,none,120,24,none,0,0,0,0,0,0,none,6,4,88.89,0,0,0,0,1.5,1.5,1.5,1.5,1.5
66.1.3,233.08188075904488,7,Wieniawski,middle,88.89,none,none,120,24,none,0,0,0,0,0,0,none,6,4,88.89,0,0,0,0,1.5,1.5,1.5,1.5,1.5
66.1.4,233.08188075904488,7,Wieniawski,middle,88.89,none,none,120,24,none,0,0,0,0,0,0,none,6,4,88.89,0,0,0,0,1.5,1.5,1.5,1.5,1.5
66.1.5,233.08188075904488,7,Wieniawski,middle,88.89,none,none,120,24,none,0,0,0,0,0,0,none,6,4,88.89,0,0,0,0,1.5,1.5,1.5,1.5,1.5
66.1.6,233.08188075904488,7,Wieniawski,middle,88.89,none,none,120,24,none,0,0,0,0,0,0,none,6,4,88.89,0,0,0,0,1.5,1.5,1.5,1.5,1.5
66.1.7,233.08188075904488,7,Wieniawski,middle,88.89,none,none,120,24,none,0,0,0,0,0,0,none,6,4,88.89,0,0,0,0,1.5,1.5,1.5,1.5,1.5
66.1.8,233.08188075904488,7,Wieniawski,middle,88.89,none,none,120,24,none,0,0,0,0,0,0,none,6,4,88.89,0,0,0,0,1.5,1.5,1.5,1.5,1.5
66.1.9,233.08188075904488,7,Wieniawski,middle,88.89,none,none,120,24,none,0,0,0,0,0,0,none,6,4,88.89,0,0,0,0,1.5,1.5,1.5,1.5,1.5
66.1.10,233.08188075904488,7,Wieniawski,middle,88.89,none,none,120,24,none,0,0,0,0,0,0,none,6,4,88.89,0,0,0,0,1.5,1.5,1.5,1.5,1.5
66.1.11,233.08188075904488,7,Wieniawski,middle,88.89,none,none,120,24,none,0,0,0,0,0,0,none,6,4,88.89,0,0,0,0,1.5,1.5,1.5,1.5,1.5
66.1.12,233.08188075904488,7,Wieniawski,end,88.89,none,none,120,24,none,0,0,0,0,0,0,none,6,4,88.89,0,0,0,0,1.5,1.5,1.5,1.5,1.5
67.1.1,233.08188075904488,7,Wieniawski,entire,88.89,none,none,120,2,none,0,0,0,0,0,0,none,6,4,88.89,0,0,0,0,1.5,1.5,1.5,1.5,1.5
67.2.1,219.9999999999999,5,Wieniawski,entire,88.89,none,none,120,2,start,0,0,0,0,0,0,up,8,1,88.89,0,0,0,0,1.5,1.5,1.5,1.5,1.5
67.3.1,233.08188075904488,7,Wieniawski,entire,88.89,none,none,120,2,middle,0,0,0,0,0,0,none,10,1,88.89,-1,0,0,0,1.5,1.5,1.5,1.5,1.5
67.4.1,277.182630976872,2,Wieniawski,entire,88.89,none,none,120,2,middle,0,0,0,0,0,0,none,12,2,88.89,1,-1,0,0,1.5,1.5,1.5,1.5,1.5
67.5.1,293.66476791740746,4,Wieniawski,entire,88.89,none,none,120,2,middle,0,0,0,0,0,0,none,14,1,88.89,3,1,-1,0,1.5,1.5,1.5,1.5,1.5
67.6.1,329.62755691286986,6,Wieniawski,entire,88.89,none,none,120,2,middle,0,0,0,0,0,0,none,16,1,88.89,1,3,1,-1,1.5,1.5,1.5,1.5,1.5
67.7.1,349.2282314330038,1,Wieniawski,entire,88.89,none,none,120,2,stop,0,0,0,0,0,0,none,18,3,88.89,2,1,3,1,1.5,1.5,1.5,1.5,1.5
67.8.1,440.0,5,Wieniawski,entire,88.89,none,none,120,2,start,0,0,0,0,0,0,none,20,1,88.89,1,2,1,3,1.5,1.5,1.5,1.5,1.5
67.9.1,466.1637615180899,7,Wieniawski,entire,88.89,none,none,120,2,middle,0,0,0,0,0,0,none,22,1,88.89,4,1,2,1,1.5,1.5,1.5,1.5,1.5
67.10.1,554.3652619537443,2,Wieniawski,entire,88.89,none,none,120,2,middle,0,0,0,0,0,0,none,24,2,88.89,1,4,1,2,1.5,1.5,1.5,1.5,1.5
67.11.1,587.3295358348153,4,Wieniawski,entire,88.89,none,none,120,2,middle,0,0,0,0,0,0,none,26,1,88.89,3,1,4,1,1.5,1.5,1.5,1.5,1.5
67.12.1,659.2551138257401,6,Wieniawski,entire,88.89,none,none,120,2,middle,0,0,0,0,0,0,none,28,1,88.89,1,3,1,4,1.5,1.5,1.5,1.5,1.5
68.1.1,698.456462866008,1,Wieniawski,entire,88.89,none,none,120,2,stop,0,0,0,0,0,0,none,6,4,88.89,2,1,3,1,1.5,1.5,1.5,1.5,1.5
68.2.1,440.0,5,Wieniawski,entire,88.89,none,none,120,2,start,0,0,0,0,0,0,up,8,1,88.89,1,2,1,3,1.5,1.5,1.5,1.5,1.5
68.3.1,466.1637615180899,7,Wieniawski,entire,88.89,none,none,120,2,middle,0,0,0,0,0,0,none,10,1,88.89,-8,1,2,1,1.5,1.5,1.5,1.5,1.5
68.4.1,554.3652619537443,2,Wieniawski,entire,88.89,none,none,120,2,middle,0,0,0,0,0,0,none,12,2,88.89,1,-8,1,2,1.5,1.5,1.5,1.5,1.5
68.5.1,587.3295358348153,4,Wieniawski,entire,88.89,none,none,120,2,middle,0,0,0,0,0,0,none,14,1,88.89,3,1,-8,1,1.5,1.5,1.5,1.5,1.5
68.6.1,659.2551138257401,6,Wieniawski,entire,88.89,none,none,120,2,middle,0,0,0,0,0,0,none,16,1,88.89,1,3,1,-8,1.5,1.5,1.5,1.5,1.5
68.7.1,698.456462866008,1,Wieniawski,entire,88.89,none,none,120,2,stop,0,0,0,0,0,0,none,18,3,88.89,2,1,3,1,1.5,1.5,1.5,1.5,1.5
68.8.1,880.0000000000003,5,Wieniawski,entire,88.89,none,none,120,2,start,0,0,0,0,0,0,none,20,1,88.89,1,2,1,3,1.5,1.5,1.5,1.5,1.5
68.9.1,932.3275230361803,7,Wieniawski,entire,88.89,none,none,120,2,middle,0,0,0,0,0,0,none,22,1,88.89,4,1,2,1,1.5,1.5,1.5,1.5,1.5
68.10.1,1108.7305239074892,2,Wieniawski,entire,88.89,none,none,120,2,middle,0,0,0,0,0,0,none,24,2,88.89,1,4,1,2,1.5,1.5,1.5,1.5,1.5
68.11.1,1174.659071669631,4,Wieniawski,entire,88.89,none,none,120,2,middle,0,0,0,0,0,0,none,26,1,88.89,3,1,4,1,1.5,1.5,1.5,1.5,1.5
68.12.1,1396.912925732017,1,Wieniawski,entire,88.89,none,none,120,2,stop,0,0,0,0,0,0,none,28,1,88.89,1,3,1,4,1.5,1.5,1.5,1.5,1.5
69.2.1,1864.6550460723618,7,Wieniawski,begin,54.44,none,none,120,24,none,0,0,0,0,0,0,none,6,4,88.89,3,1,3,1,1.5,1.5,1.5,1.5,1.5
69.2.2,1864.6550460723618,7,Wieniawski,middle,54.44,none,none,120,24,none,0,0,0,0,0,0,none,6,4,54.44,5,3,1,3,1.5,1.5,1.5,1.5,1.5
69.2.3,1864.6550460723618,7,Wieniawski,middle,54.44,none,none,120,24,none,0,0,0,0,0,0,none,6,4,54.44,0,5,3,1,1.5,1.5,1.5,1.5,1.5
69.2.4,1864.6550460723618,7,Wieniawski,middle,54.44,none,none,120,24,none,0,0,0,0,0,0,none,6,4,54.44,0,0,5,3,1.5,1.5,1.5,1.5,1.5
69.2.5,1864.6550460723618,7,Wieniawski,middle,54.44,none,none,120,24,none,0,0,0,0,0,0,none,6,4,54.44,0,0,0,5,1.5,1.5,1.5,1.5,1.5
69.2.6,1864.6550460723618,7,Wieniawski,middle,54.44,none,none,120,24,none,0,0,0,0,0,0,none,6,4,54.44,0,0,0,0,1.5,1.5,1.5,1.5,1.5
69.2.7,1864.6550460723618,7,Wieniawski,middle,54.44,none,none,120,24,none,0,0,0,0,0,0,none,6,4,54.44,0,0,0,0,1.5,1.5,1.5,1.5,1.5
69.2.8,1864.6550460723618,7,Wieniawski,middle,54.44,none,none,120,24,none,0,0,0,0,0,0,none,6,4,54.44,0,0,0,0,1.5,1.5,1.5,1.5,1.5
69.2.9,1864.6550460723618,7,Wieniawski,middle,54.44,none,none,120,24,none,0,0,0,0,0,0,none,6,4,54.44,0,0,0,0,1.5,1.5,1.5,1.5,1.5
69.2.10,1864.6550460723618,7,Wieniawski,middle,54.44,none,none,120,24,none,0,0,0,0,0,0,none,6,4,54.44,0,0,0,0,1.5,1.5,1.5,1.5,1.5
69.2.11,1864.6550460723618,7,Wieniawski,middle,54.44,none,none,120,24,none,0,0,0,0,0,0,none,6,4,54.44,0,0,0,0,1.5,1.5,1.5,1.5,1.5
69.2.12,1864.6550460723618,7,Wieniawski,end,54.44,none,none,120,24,none,0,0,0,0,0,0,none,6,4,54.44,0,0,0,0,1.5,1.5,1.5,1.5,1.5
70.1.1,1864.6550460723618,7,Wieniawski,begin,54.44,none,none,120,24,none,0,0,0,0,0,0,down,6,4,54.44,0,0,0,0,1.5,1.5,1.5,1.5,1.5
70.1.2,1864.6550460723618,7,Wieniawski,middle,54.44,none,none,120,24,none,0,0,0,0,0,0,down,6,4,54.44,0,0,0,0,1.5,1.5,1.5,1.5,1.5
70.1.3,1864.6550460723618,7,Wieniawski,middle,54.44,none,none,120,24,none,0,0,0,0,0,0,down,6,4,54.44,0,0,0,0,1.5,1.5,1.5,1.5,1.5
70.1.4,1864.6550460723618,7,Wieniawski,middle,54.44,none,none,120,24,none,0,0,0,0,0,0,down,6,4,54.44,0,0,0,0,1.5,1.5,1.5,1.5,1.5
70.1.5,1864.6550460723618,7,Wieniawski,middle,54.44,none,none,120,24,none,0,0,0,0,0,0,down,6,4,54.44,0,0,0,0,1.5,1.5,1.5,1.5,1.5
70.1.6,1864.6550460723618,7,Wieniawski,middle,54.44,none,none,120,24,none,0,0,0,0,0,0,down,6,4,54.44,0,0,0,0,1.5,1.5,1.5,1.5,1.5
70.1.7,1864.6550460723618,7,Wieniawski,middle,54.44,none,none,120,24,none,0,0,0,0,0,0,down,6,4,54.44,0,0,0,0,1.5,1.5,1.5,1.5,1.5
70.1.8,1864.6550460723618,7,Wieniawski,middle,54.44,none,none,120,24,none,0,0,0,0,0,0,down,6,4,54.44,0,0,0,0,1.5,1.5,1.5,1.5,1.5
70.1.9,1864.6550460723618,7,Wieniawski,middle,54.44,none,none,120,24,none,0,0,0,0,0,0,down,6,4,54.44,0,0,0,0,1.5,1.5,1.5,1.5,1.5
70.1.10,1864.6550460723618,7,Wieniawski,middle,54.44,none,none,120,24,none,0,0,0,0,0,0,down,6,4,54.44,0,0,0,0,1.5,1.5,1.5,1.5,1.5
70.1.11,1864.6550460723618,7,Wieniawski,middle,54.44,none,none,120,24,none,0,0,0,0,0,0,down,6,4,54.44,0,0,0,0,1.5,1.5,1.5,1.5,1.5
70.1.12,1864.6550460723618,7,Wieniawski,end,54.44,none,none,120,24,none,0,0,0,0,0,0,down,6,4,54.44,0,0,0,0,1.5,1.5,1.5,1.5,1.5
71.0.1,1864.6550460723618,7,Wieniawski,begin,54.44,none,none,120,4,none,0,0,0,0,0,0,none,6,4,54.44,0,0,0,0,1.5,1.5,1.5,1.5,1.5
71.0.2,1864.6550460723618,7,Wieniawski,end,54.44,none,none,120,4,none,0,0,0,0,0,0,none,6,4,54.44,0,0,0,0,1.5,1.5,1.5,1.5,1.5
