

=== Predictions on test data ===

 inst#     actual  predicted      error
     1      1.6        1.695      0.095
     2      1.6        1.556     -0.044
     3      1.5        1.585      0.085
     4      1.5        1.461     -0.039
     5      1.4        1.476      0.076
     6      1.4        1.422      0.022
     7      1.2        1.386      0.186
     8      1.3        1.255     -0.045
     9      1.4        1.332     -0.068
    10      1.4        1.422      0.022
    11      1.5        1.4       -0.1  
    12      1.5        1.476     -0.024
    13      1.3        1.426      0.126
    14      1.3        1.309      0.009
    15      1.3        1.332      0.032
    16      1.3        1.332      0.032
    17      1.4        1.322     -0.078
    18      1.4        1.394     -0.006
    19      1.7        1.395     -0.305
    20      1.7        1.676     -0.024
    21      1.7        1.712      0.012
    22      1.7        1.712      0.012
    23      1.8        1.703     -0.097
    24      1.8        1.806      0.006
    25      1.8        1.79      -0.01 
    26      1.8        1.79      -0.01 
    27      1.8        1.791     -0.009
    28      1.8        1.791     -0.009
    29      1.8        1.806      0.006
    30      1.8        1.806      0.006
    31      1.7        1.772      0.072
    32      1.7        1.712      0.012
    33      1.8        1.696     -0.104
    34      1.8        1.783     -0.017
    35      1.8        1.84       0.04 
    36      1.8        1.84       0.04 
    37      1.8        1.772     -0.028
    38      1.8        1.79      -0.01 
    39      1.8        1.791     -0.009
    40      1.8        1.791     -0.009
    41      1.6        1.84       0.24 
    42      1.6        1.535     -0.065
    43      1.3        1.564      0.264
    44      1.3        1.314      0.014
    45      1.3        1.324      0.024
    46      1.3        1.332      0.032
    47      1.7        1.322     -0.378
    48      1.7        1.743      0.043
    49      1.5        1.687      0.187
    50      1.5        1.418     -0.082
    51      1.5        1.461     -0.039
    52      1.5        1.461     -0.039
    53      1.7        1.476     -0.224
    54      1.7        1.713      0.013
    55      1.9        1.683     -0.217
    56      1.9        1.79      -0.11 
    57      1.9        1.791     -0.109
    58      1.9        1.791     -0.109
    59      1.7        1.83       0.13 
    60      1.7        1.709      0.009
    61      1.6        1.66       0.06 
    62      1.6        1.556     -0.044
    63      1.6        1.602      0.002
    64      1.6        1.602      0.002
    65      1.7        1.583     -0.117
    66      1.7        1.748      0.048
    67      1.7        1.651     -0.049
    68      1.6        1.668      0.068
    69      1.5        1.607      0.107
    70      1.5        1.461     -0.039
    71      1.5        1.489     -0.011
    72      1.5        1.489     -0.011
    73      1.3        1.433      0.133
    74      1.4        1.322     -0.078
    75      1.5        1.422     -0.078
    76      1.5        1.461     -0.039
    77      1.4        1.476      0.076
    78      1.3        1.4        0.1  
    79      1.4        1.332     -0.068
    80      1.4        1.383     -0.017
    81      1.4        1.422      0.022
    82      1.4        1.422      0.022
    83      1.4        1.394     -0.006
    84      1.3        1.394      0.094
    85      1.3        1.314      0.014
    86      1.3        1.322      0.022
    87      1.3        1.332      0.032
    88      1.4        1.332     -0.068
    89      1.6        1.4       -0.2  
    90      1.7        1.55      -0.15 
    91      1.5        1.676      0.176
    92      1.5        1.418     -0.082
    93      1.6        1.461     -0.139
    94      1.6        1.617      0.017
    95      1.7        1.552     -0.148
    96      1.6        1.713      0.113
    97      1.5        1.612      0.112
    98      1.5        1.433     -0.067
    99      1.5        1.461     -0.039
   100      1.5        1.461     -0.039
   101      1.7        1.476     -0.224
   102      1.7        1.713      0.013
   103      1.7        1.705      0.005
   104      1.7        1.705      0.005
   105      1.7        1.704      0.004
   106      1.7        1.726      0.026
   107      1.7        1.671     -0.029
   108      1.7        1.704      0.004
   109      1.3        1.704      0.404
   110      1.3        1.314      0.014
   111      1.5        1.324     -0.176
   112      1.6        1.461     -0.139
   113      1.6        1.568     -0.032
   114      1.6        1.523     -0.077
   115      1.6        1.595     -0.005
   116      1.6        1.605      0.005
   117      1.6        1.611      0.011
   118      1.6        1.617      0.017
   119      1.7        1.583     -0.117
   120      1.8        1.712     -0.088
   121      1.6        1.735      0.135
   122      1.6        1.6        0    
   123      1.6        1.607      0.007
   124      1.6        1.607      0.007
   125      1.7        1.578     -0.122
   126      1.7        1.715      0.015
   127      1.5        1.704      0.204
   128      1.5        1.476     -0.024
   129      1.2        1.441      0.241
   130      1.2        1.246      0.046
   131      1.2        1.245      0.045
   132      1.2        1.193     -0.007
   133      1.2        1.218      0.018
   134      1.2        1.218      0.018
   135      1.2        1.2        0    
   136      1.2        1.2        0    
   137      1.1        1.2        0.1  
   138      1.1        1.098     -0.002
   139      1.1        1.1        0    
   140      1.2        1.107     -0.093
   141      1.4        1.216     -0.184
   142      1.5        1.442     -0.058
   143      1.7        1.476     -0.224
   144      1.7        1.713      0.013
   145      1.1        1.683      0.583
   146      1.2        1.106     -0.094
   147      1.3        1.2       -0.1  
   148      1.3        1.314      0.014
   149      1.5        1.32      -0.18 
   150      1.7        1.476     -0.224
   151      1.4        1.692      0.292
   152      1.4        1.415      0.015
   153      1.4        1.349     -0.051
   154      1.4        1.371     -0.029
   155      1.3        1.404      0.104
   156      1.3        1.322      0.022
   157      1.3        1.332      0.032
   158      1.3        1.332      0.032
   159      1.2        1.332      0.132
   160      1.2        1.208      0.008
   161      1.1        1.2        0.1  
   162      1.1        1.106      0.006
   163      1          1.087      0.087
   164      1          1.017      0.017
   165      1          1.019      0.019
   166      1.1        1.012     -0.088
   167      1.1        1.109      0.009
   168      1.1        1.098     -0.002
   169      1.2        1.105     -0.095
   170      1.2        1.224      0.024
   171      1.2        1.221      0.021
   172      1.2        1.209      0.009
   173      1.2        1.225      0.025
   174      1.2        1.2        0    
   175      1.1        1.23       0.13 
   176      1.1        1.107      0.007
   177      1.1        1.098     -0.002
   178      1.1        1.098     -0.002
   179      1.1        1.098     -0.002
   180      1.1        1.098     -0.002
   181      1.1        1.098     -0.002
   182      1.1        1.098     -0.002
   183      1.1        1.176      0.076
   184      1.1        1.098     -0.002
   185      1.1        1.098     -0.002
   186      1.1        1.098     -0.002
   187      1.1        1.1        0    
   188      1.2        1.107     -0.093
   189      1.3        1.216     -0.084
   190      1.3        1.357      0.057
   191      1.5        1.347     -0.153
   192      1.5        1.476     -0.024
   193      1.2        1.418      0.218
   194      1.2        1.208      0.008
   195      1.3        1.188     -0.112
   196      1.3        1.332      0.032
   197      1.5        1.322     -0.178
   198      1.5        1.476     -0.024
   199      1.4        1.463      0.063
   200      1.4        1.415      0.015
   201      1.6        1.345     -0.255
   202      1.6        1.605      0.005
   203      1.6        1.622      0.022
   204      1.6        1.622      0.022
   205      1.6        1.617      0.017
   206      1.6        1.605      0.005
   207      1.6        1.62       0.02 
   208      1.6        1.62       0.02 
   209      1.6        1.607      0.007
   210      1.6        1.607      0.007
   211      1.7        1.593     -0.107
   212      1.7        1.676     -0.024
   213      1.7        1.712      0.012
   214      1.8        1.712     -0.088
   215      1.8        1.741     -0.059
   216      1.8        1.741     -0.059
   217      1.8        1.725     -0.075
   218      1.8        1.735     -0.065
   219      1.8        1.737     -0.063
   220      1.8        1.737     -0.063
   221      1.9        1.741     -0.159
   222      1.9        1.741     -0.159
   223      1.8        1.731     -0.069
   224      1.8        1.741     -0.059
   225      1.7        1.735      0.035
   226      1.7        1.716      0.016
   227      1.6        1.674      0.074
   228      1.6        1.589     -0.011
   229      1.5        1.591      0.091
   230      1.5        1.456     -0.044
   231      1.5        1.46      -0.04 
   232      1.5        1.46      -0.04 
   233      1.5        1.461     -0.039
   234      1.5        1.461     -0.039
   235      1.5        1.489     -0.011
   236      1.5        1.489     -0.011
   237      1.3        1.41       0.11 
   238      1.3        1.332      0.032
   239      1.3        1.322      0.022
   240      1.3        1.322      0.022
   241      1.3        1.332      0.032
   242      1.3        1.332      0.032
   243      1.1        1.322      0.222
   244      1.1        1.106      0.006
   245      1.1        1.098     -0.002
   246      1.1        1.106      0.006
   247      1.1        1.107      0.007
   248      1.1        1.107      0.007
   249      1.1        1.094     -0.006
   250      1.1        1.098     -0.002
   251      1.2        1.109     -0.091
   252      1.2        1.213      0.013
   253      1.3        1.2       -0.1  
   254      1.3        1.357      0.057
   255      1.5        1.351     -0.149
   256      1.5        1.463     -0.037
   257      1.5        1.463     -0.037
   258      1.5        1.463     -0.037
   259      1.5        1.408     -0.092
   260      1.5        1.43      -0.07 
   261      1.5        1.46      -0.04 
   262      1.5        1.46      -0.04 
   263      1.5        1.461     -0.039
   264      1.5        1.461     -0.039
   265      1.6        1.422     -0.178
   266      1.6        1.606      0.006
   267      1.6        1.613      0.013
   268      1.6        1.613      0.013
   269      1.6        1.617      0.017
   270      1.6        1.611      0.011
   271      1.7        1.605     -0.095
   272      1.7        1.705      0.005
   273      1.7        1.704      0.004
   274      1.7        1.704      0.004
   275      1.7        1.691     -0.009
   276      1.7        1.704      0.004
   277      1.8        1.691     -0.109
   278      1.8        1.735     -0.065
   279      1.8        1.738     -0.062
   280      1.8        1.738     -0.062
   281      1.8        1.737     -0.063
   282      1.8        1.737     -0.063
   283      1.5        1.567      0.067
   284      1.5        1.433     -0.067
   285      1.5        1.47      -0.03 
   286      1.5        1.46      -0.04 
   287      1.4        1.449      0.049
   288      1.4        1.422      0.022
   289      1.3        1.36       0.06 
   290      1.3        1.319      0.019
   291      1.3        1.322      0.022
   292      1.3        1.322      0.022
   293      1.3        1.322      0.022
   294      1.3        1.322      0.022
   295      1.3        1.322      0.022
   296      1.3        1.322      0.022
   297      1.2        1.332      0.132
   298      1.2        1.208      0.008
   299      1.1        1.203      0.103
   300      1.1        1.106      0.006
   301      1.1        1.098     -0.002
   302      1.1        1.098     -0.002
   303      1.1        1.098     -0.002
   304      1.1        1.098     -0.002
   305      1.1        1.098     -0.002
   306      1.1        1.098     -0.002
   307      1.2        1.087     -0.113
   308      1.2        1.213      0.013
   309      1.3        1.198     -0.102
   310      1.3        1.347      0.047
   311      1.3        1.333      0.033
   312      1.3        1.341      0.041
   313      1.5        1.324     -0.176
   314      1.5        1.418     -0.082
   315      1.5        1.46      -0.04 
   316      1.5        1.46      -0.04 
   317      1.5        1.461     -0.039
   318      1.5        1.461     -0.039
   319      1.5        1.433     -0.067
   320      1.5        1.433     -0.067
   321      1.5        1.46      -0.04 
   322      1.5        1.46      -0.04 
   323      1.6        1.461     -0.139
   324      1.6        1.613      0.013
   325      1.6        1.593     -0.007
   326      1.6        1.593     -0.007
   327      1.6        1.633      0.033
   328      1.6        1.621      0.021
   329      1.6        1.611      0.011
   330      1.6        1.611      0.011
   331      1.6        1.593     -0.007
   332      1.6        1.599     -0.001
   333      1.7        1.612     -0.088
   334      1.7        1.713      0.013
   335      1.8        1.703     -0.097
   336      1.8        1.806      0.006
   337      1.6        1.79       0.19 
   338      1.6        1.605      0.005
   339      1.7        1.6       -0.1  
   340      1.7        1.703      0.003
   341      1.8        1.714     -0.086
   342      1.8        1.806      0.006
   343      1.7        1.79       0.09 
   344      1.7        1.715      0.015
   345      1.7        1.674     -0.026
   346      1.7        1.722      0.022
   347      1.7        1.705      0.005
   348      1.7        1.712      0.012
   349      1.7        1.691     -0.009
   350      1.7        1.707      0.007
   351      1.7        1.722      0.022
   352      1.7        1.722      0.022
   353      1.7        1.718      0.018
   354      1.7        1.718      0.018
   355      1.7        1.597     -0.103
   356      1.7        1.597     -0.103
   357      1.7        1.732      0.032
   358      1.7        1.725      0.025
   359      1.7        1.728      0.028
   360      1.7        1.736      0.036
   361      1.7        1.693     -0.007
   362      1.7        1.725      0.025
   363      1.7        1.683     -0.017
   364      1.7        1.718      0.018
   365      1.7        1.728      0.028
   366      1.7        1.736      0.036
   367      1.7        1.693     -0.007
   368      1.7        1.725      0.025
   369      1.7        1.683     -0.017
   370      1.7        1.722      0.022
   371      1.7        1.705      0.005
   372      1.7        1.718      0.018
   373      1.7        1.704      0.004
   374      1.7        1.716      0.016
   375      1.7        1.722      0.022
   376      1.7        1.722      0.022
   377      1.7        1.718      0.018
   378      1.7        1.718      0.018
   379      1.5        1.603      0.103
   380      1.4        1.441      0.041
   381      1.3        1.434      0.134
   382      1.3        1.373      0.073
   383      1.2        1.44       0.24 
   384      1.2        1.228      0.028
   385      1.2        1.238      0.038
   386      1.3        1.228     -0.072
   387      1.4        1.405      0.005
   388      1.5        1.434     -0.066
   389      1.6        1.461     -0.139
   390      1.6        1.61       0.01 
   391      1.6        1.604      0.004
   392      1.6        1.61       0.01 
   393      1.6        1.637      0.037
   394      1.5        1.625      0.125
   395      1.5        1.461     -0.039
   396      1.4        1.461      0.061
   397      1.6        1.407     -0.193
   398      1.6        1.605      0.005
   399      1.6        1.624      0.024
   400      1.6        1.604      0.004
   401      1.6        1.618      0.018
   402      1.6        1.617      0.017
   403      1.5        1.613      0.113
   404      1.5        1.433     -0.067
   405      1.5        1.46      -0.04 
   406      1.5        1.46      -0.04 
   407      1.5        1.461     -0.039
   408      1.6        1.461     -0.139
   409      1.7        1.617     -0.083
   410      1.6        1.718      0.118
   411      1.5        1.619      0.119
   412      1.5        1.46      -0.04 
   413      1.5        1.457     -0.043
   414      1.5        1.457     -0.043
   415      1.5        1.433     -0.067
   416      1.5        1.433     -0.067
   417      1.5        1.46      -0.04 
   418      1.5        1.46      -0.04 
   419      1.5        1.461     -0.039
   420      1.6        1.461     -0.139
   421      1.6        1.612      0.012
   422      1.6        1.612      0.012
   423      1.6        1.629      0.029
   424      1.6        1.639      0.039
   425      1.6        1.617      0.017
   426      1.6        1.599     -0.001
   427      1.6        1.603      0.003
   428      1.6        1.599     -0.001
   429      1.7        1.599     -0.101
   430      1.7        1.713      0.013
   431      1.7        1.703      0.003
   432      1.7        1.703      0.003
   433      1.5        1.703      0.203
   434      1.5        1.433     -0.067
   435      1.5        1.46      -0.04 
   436      1.5        1.46      -0.04 
   437      1.5        1.461     -0.039
   438      1.5        1.461     -0.039
   439      1.6        1.433     -0.167
   440      1.6        1.597     -0.003
   441      1.6        1.629      0.029
   442      1.6        1.629      0.029
   443      1.7        1.623     -0.077
   444      1.7        1.714      0.014
   445      1.7        1.673     -0.027
   446      1.7        1.703      0.003
   447      1.6        1.703      0.103
   448      1.6        1.622      0.022
   449      1.6        1.622      0.022
   450      1.6        1.594     -0.006
   451      1.5        1.599      0.099
   452      1.5        1.433     -0.067
   453      1.5        1.46      -0.04 
   454      1.5        1.46      -0.04 
   455      1.6        1.461     -0.139
   456      1.6        1.614      0.014
   457      1.6        1.617      0.017
   458      1.6        1.607      0.007
   459      1.5        1.629      0.129
   460      1.4        1.46       0.06 
   461      1.3        1.425      0.125
   462      1.3        1.309      0.009
   463      1.2        1.332      0.132
   464      1.2        1.211      0.011
   465      1.2        1.211      0.011
   466      1.2        1.211      0.011
   467      1.2        1.213      0.013
   468      1.3        1.211     -0.089
   469      1.3        1.314      0.014
   470      1.4        1.322     -0.078
   471      1.4        1.404      0.004
   472      1.4        1.404      0.004
   473      1.5        1.425     -0.075
   474      1.5        1.461     -0.039
   475      1.7        1.396     -0.304
   476      1.7        1.607     -0.093
   477      1.7        1.712      0.012
   478      1.7        1.712      0.012
   479      1.7        1.673     -0.027
   480      1.8        1.703     -0.097
   481      1.8        1.775     -0.025
   482      1.7        1.79       0.09 
   483      1.7        1.703      0.003
   484      1.7        1.703      0.003
   485      1.7        1.66      -0.04 
   486      1.7        1.708      0.008
   487      1.6        1.716      0.116
   488      1.6        1.596     -0.004
   489      1.6        1.622      0.022
   490      1.6        1.612      0.012
   491      1.6        1.602      0.002
   492      1.6        1.602      0.002
   493      1.7        1.605     -0.095
   494      1.7        1.733      0.033
   495      1.7        1.696     -0.004
   496      1.7        1.731      0.031
   497      1.7        1.693     -0.007
   498      1.7        1.712      0.012
   499      1.6        1.59      -0.01 
   500      1.6        1.599     -0.001
   501      1.6        1.605      0.005
   502      1.6        1.605      0.005
   503      1.6        1.602      0.002
   504      1.6        1.602      0.002
   505      1.6        1.605      0.005
   506      1.6        1.596     -0.004
   507      1.7        1.612     -0.088
   508      1.6        1.73       0.13 
   509      1.6        1.612      0.012
   510      1.6        1.612      0.012
   511      1.6        1.605      0.005
   512      1.6        1.605      0.005
   513      1.6        1.632      0.032
   514      1.6        1.622      0.022
   515      1.6        1.602      0.002
   516      1.6        1.612      0.012
   517      1.6        1.615      0.015
   518      1.7        1.587     -0.113
   519      1.7        1.685     -0.015
   520      1.7        1.704      0.004
   521      1.7        1.674     -0.026
   522      1.7        1.704      0.004
   523      1.8        1.606     -0.194
   524      1.8        1.622     -0.178
   525      1.8        1.792     -0.008
   526      1.8        1.792     -0.008
   527      1.8        1.781     -0.019
   528      1.8        1.764     -0.036
   529      1.7        1.784      0.084
   530      1.7        1.707      0.007
   531      1.7        1.713      0.013
   532      1.7        1.731      0.031
   533      1.7        1.693     -0.007
   534      1.7        1.718      0.018
   535      1.7        1.716      0.016
   536      1.7        1.716      0.016
   537      1.6        1.71       0.11 
   538      1.6        1.612      0.012
   539      1.6        1.602      0.002
   540      1.6        1.602      0.002
   541      1.6        1.605      0.005
   542      1.6        1.577     -0.023
   543      1.6        1.612      0.012
   544      1.7        1.612     -0.088
   545      1.7        1.726      0.026
   546      1.7        1.718      0.018
   547      1.6        1.59      -0.01 
   548      1.6        1.599     -0.001
   549      1.5        1.605      0.105
   550      1.4        1.46       0.06 
   551      1.3        1.422      0.122
   552      1.3        1.322      0.022
   553      1.3        1.322      0.022
   554      1.3        1.322      0.022
   555      1.4        1.332     -0.068
   556      1.4        1.391     -0.009
   557      1.4        1.422      0.022
   558      1.4        1.422      0.022
   559      1.5        1.349     -0.151
   560      1.5        1.418     -0.082
   561      1.5        1.46      -0.04 
   562      1.5        1.46      -0.04 
   563      1.5        1.461     -0.039
   564      1.5        1.461     -0.039
   565      1.4        1.433      0.033
   566      1.4        1.386     -0.014
   567      1.3        1.401      0.101
   568      1.2        1.332      0.132
   569      1.1        1.211      0.111
   570      1.1        1.118      0.018
   571      1.3        1.114     -0.186
   572      1.3        1.322      0.022
   573      1.3        1.339      0.039
   574      1.3        1.339      0.039
   575      1.4        1.341     -0.059
   576      1.4        1.425      0.025
   577      1.5        1.371     -0.129
   578      1.5        1.418     -0.082
   579      1.6        1.46      -0.14 
   580      1.6        1.617      0.017
   581      1.7        1.611     -0.089
   582      1.7        1.706      0.006
   583      1.6        1.704      0.104
   584      1.6        1.609      0.009
   585      1.6        1.636      0.036
   586      1.6        1.627      0.027
   587      1.6        1.612      0.012
   588      1.6        1.612      0.012
   589      1.6        1.605      0.005
   590      1.6        1.577     -0.023
   591      1.6        1.622      0.022
   592      1.6        1.622      0.022
   593      1.6        1.612      0.012
   594      1.6        1.612      0.012
   595      1.5        1.599      0.099
   596      1.5        1.433     -0.067
   597      1.5        1.457     -0.043
   598      1.5        1.457     -0.043
   599      1.5        1.459     -0.041
   600      1.4        1.459      0.059
   601      1.3        1.386      0.086
   602      1.3        1.322      0.022
   603      1.3        1.332      0.032
   604      1.3        1.332      0.032
   605      1.3        1.324      0.024
   606      1.3        1.332      0.032
   607      1.3        1.322      0.022
   608      1.3        1.322      0.022
   609      1.5        1.322     -0.178
   610      1.5        1.457     -0.043
   611      1.6        1.446     -0.154
   612      1.6        1.535     -0.065
   613      1.6        1.604      0.004
   614      1.6        1.61       0.01 
   615      1.6        1.631      0.031
   616      1.7        1.621     -0.079
   617      1.7        1.685     -0.015
   618      1.7        1.704      0.004
   619      1.7        1.667     -0.033
   620      1.7        1.667     -0.033
   621      1.7        1.699     -0.001
   622      1.7        1.711      0.011
   623      1.7        1.703      0.003
   624      1.7        1.703      0.003
   625      1.7        1.691     -0.009
   626      1.7        1.703      0.003
   627      1.7        1.696     -0.004
   628      1.7        1.735      0.035
   629      1.8        1.693     -0.107
   630      1.8        1.806      0.006
   631      1.7        1.79       0.09 
   632      1.7        1.707      0.007
   633      1.7        1.696     -0.004
   634      1.7        1.735      0.035
   635      1.8        1.683     -0.117
   636      1.8        1.83       0.03 
   637      1.7        1.775      0.075
   638      1.6        1.689      0.089
   639      1.6        1.582     -0.018
   640      1.6        1.573     -0.027
   641      1.6        1.583     -0.017
   642      1.6        1.547     -0.053
   643      1          1.585      0.585
   644      1          1.02       0.02 
   645      1          1.017      0.017
   646      1          1.017      0.017
   647      1.2        1.026     -0.174
   648      1.2        1.236      0.036
   649      1          1.336      0.336
   650      1          1.02       0.02 
   651      1          1.02       0.02 
   652      1          1.02       0.02 
   653      1.1        1.021     -0.079
   654      1.1        1.098     -0.002
   655      1          1.173      0.173
   656      1          1.02       0.02 
   657      1          1.02       0.02 
   658      1          1.02       0.02 
   659      1.3        1.017     -0.283
   660      1.3        1.365      0.065
   661      1          1.352      0.352
   662      1          1.02       0.02 
   663      1          1.02       0.02 
   664      1          1.02       0.02 
   665      1.1        1.053     -0.047
   666      1.1        1.098     -0.002
   667      1.2        1.172     -0.028
   668      1.2        1.209      0.009
   669      1.2        1.213      0.013
   670      1.2        1.211      0.011
   671      1.3        1.29      -0.01 
   672      1.3        1.428      0.128
   673      1.1        1.38       0.28 
   674      1.1        1.109      0.009
   675      1.1        1.109      0.009
   676      1.1        1.109      0.009
   677      1.4        1.109     -0.291
   678      1.4        1.45       0.05 
   679      1.3        1.395      0.095
   680      1.3        1.375      0.075
   681      1.3        1.415      0.115
   682      1.3        1.415      0.115
   683      1.5        1.412     -0.088
   684      1.5        1.459     -0.041
   685      1.2        1.426      0.226
   686      1.2        1.211      0.011
   687      1.2        1.213      0.013
   688      1.2        1.211      0.011
   689      1.3        1.211     -0.089
   690      1.3        1.428      0.128
   691      1.3        1.382      0.082
   692      1.3        1.319      0.019
   693      1.3        1.322      0.022
   694      1.3        1.322      0.022
   695      1.3        1.322      0.022
   696      1.3        1.322      0.022
   697      1.2        1.358      0.158
   698      1.2        1.208      0.008
   699      1          1.215      0.215
   700      1          1.033      0.033
   701      1          1.045      0.045
   702      1          1.045      0.045
   703      1          1.008      0.008
   704      1          1.008      0.008
   705      1.2        1.02      -0.18 
   706      1.1        1.224      0.124
   707      1          1.12       0.12 
   708      1          1.014      0.014
   709      1.2        1.008     -0.192
   710      1.2        1.224      0.024
   711      1.1        1.2        0.1  
   712      1.1        1.098     -0.002
   713      1.2        1.105     -0.095
   714      1.3        1.234     -0.066
   715      1.3        1.412      0.112
   716      1.4        1.412      0.012
   717      1.5        1.373     -0.127
   718      1.5        1.426     -0.074
   719      1.5        1.461     -0.039
   720      1.5        1.461     -0.039
   721      1.6        1.418     -0.182
   722      1.6        1.61       0.01 
   723      1.6        1.617      0.017
   724      1.6        1.597     -0.003
   725      1.6        1.605      0.005
   726      1.6        1.599     -0.001
   727      1.6        1.562     -0.038
   728      1.6        1.562     -0.038
   729      1.6        1.592     -0.008
   730      1.6        1.592     -0.008
   731      1.6        1.622      0.022
   732      1.6        1.612      0.012
   733      1.7        1.615     -0.085
   734      1.7        1.712      0.012
   735      1.7        1.683     -0.017
   736      1.7        1.703      0.003
   737      1.7        1.66      -0.04 
   738      1.7        1.703      0.003
   739      1.6        1.638      0.038
   740      1.6        1.599     -0.001
   741      1.6        1.605      0.005
   742      1.6        1.605      0.005
   743      1.6        1.612      0.012
   744      1.6        1.602      0.002
   745      1.6        1.605      0.005
   746      1.6        1.596     -0.004
   747      1.6        1.612      0.012
   748      1.6        1.612      0.012
   749      1.6        1.594     -0.006
   750      1.5        1.594      0.094
   751      1.3        1.433      0.133
   752      1.4        1.322     -0.078
   753      1.5        1.401     -0.099
   754      1.5        1.46      -0.04 
   755      1.5        1.461     -0.039
   756      1.5        1.461     -0.039
   757      1.6        1.408     -0.192
   758      1.6        1.612      0.012
   759      1.6        1.627      0.027
   760      1.6        1.627      0.027
   761      1.5        1.623      0.123
   762      1.5        1.461     -0.039
   763      1.3        1.433      0.133
   764      1.3        1.332      0.032
   765      1.3        1.322      0.022
   766      1.3        1.322      0.022
   767      1.3        1.324      0.024
   768      1.3        1.319      0.019
   769      1.3        1.314      0.014
   770      1.3        1.322      0.022
   771      1.3        1.324      0.024
   772      1.3        1.332      0.032
   773      1.3        1.322      0.022
   774      1.3        1.322      0.022
   775      1.2        1.324      0.124
   776      1.2        1.211      0.011
   777      1.3        1.215     -0.085
   778      1.3        1.322      0.022
   779      1.5        1.332     -0.168
   780      1.5        1.461     -0.039
   781      1.6        1.418     -0.182
   782      1.6        1.604      0.004
   783      1.6        1.624      0.024
   784      1.6        1.621      0.021
   785      1.6        1.625      0.025
   786      1.6        1.609      0.009
   787      1.5        1.591      0.091
   788      1.5        1.459     -0.041
   789      1.5        1.441     -0.059
   790      1.5        1.441     -0.059
   791      1.5        1.461     -0.039
   792      1.5        1.461     -0.039
   793      1.5        1.433     -0.067
   794      1.5        1.433     -0.067
   795      1.5        1.461     -0.039
   796      1.5        1.461     -0.039
   797      1.6        1.459     -0.141
   798      1.6        1.563     -0.037
   799      1.5        1.612      0.112
   800      1.5        1.433     -0.067
   801      1.5        1.457     -0.043
   802      1.5        1.457     -0.043
   803      1.6        1.459     -0.141
   804      1.6        1.563     -0.037
   805      1.6        1.617      0.017
   806      1.6        1.607      0.007
   807      1.7        1.605     -0.095
   808      1.7        1.704      0.004
   809      1.7        1.673     -0.027
   810      1.7        1.703      0.003
   811      1.7        1.606     -0.094
   812      1.7        1.606     -0.094
   813      1.7        1.699     -0.001
   814      1.7        1.712      0.012
   815      1.7        1.703      0.003
   816      1.7        1.703      0.003
   817      1.7        1.691     -0.009
   818      1.7        1.707      0.007
   819      1.7        1.705      0.005
   820      1.7        1.735      0.035
   821      1.7        1.693     -0.007
   822      1.7        1.728      0.028
   823      1.7        1.716      0.016
   824      1.7        1.716      0.016
   825      1.7        1.705      0.005
   826      1.7        1.718      0.018
   827      1.7        1.728      0.028
   828      1.7        1.728      0.028
   829      1.7        1.704      0.004
   830      1.7        1.716      0.016
   831      1.7        1.705      0.005
   832      1.7        1.735      0.035
   833      1.7        1.683     -0.017
   834      1.7        1.728      0.028
   835      1.6        1.615      0.015
   836      1.6        1.599     -0.001
   837      1.6        1.615      0.015
   838      1.6        1.605      0.005
   839      1.6        1.612      0.012
   840      1.6        1.602      0.002
   841      1.6        1.605      0.005
   842      1.6        1.596     -0.004
   843      1.6        1.612      0.012
   844      1.6        1.612      0.012
   845      1.6        1.612      0.012
   846      1.6        1.612      0.012
   847      1.6        1.592     -0.008
   848      1.6        1.592     -0.008
   849      1.6        1.622      0.022
   850      1.6        1.622      0.022
   851      1.6        1.612      0.012
   852      1.6        1.612      0.012
   853      1.6        1.615      0.015
   854      1.6        1.605      0.005
   855      1.6        1.622      0.022
   856      1.6        1.622      0.022
   857      1.6        1.612      0.012
   858      1.6        1.612      0.012
   859      1.6        1.599     -0.001
   860      1.6        1.599     -0.001
   861      1.6        1.615      0.015
   862      1.6        1.605      0.005
   863      1.6        1.612      0.012
   864      1.6        1.612      0.012
   865      1.5        1.615      0.115
   866      1.5        1.445     -0.055
   867      1.5        1.46      -0.04 
   868      1.5        1.46      -0.04 
   869      1.5        1.461     -0.039
   870      1.5        1.461     -0.039
   871      1.3        1.418      0.118
   872      1.3        1.357      0.057
   873      1.3        1.392      0.092
   874      1.3        1.392      0.092
   875      1.3        1.397      0.097
   876      1.3        1.397      0.097
   877      1.4        1.357     -0.043
   878      1.4        1.395     -0.005
   879      1.5        1.441     -0.059
   880      1.5        1.46      -0.04 
   881      1.6        1.461     -0.139
   882      1.6        1.617      0.017
   883      1.6        1.557     -0.043
   884      1.6        1.557     -0.043
   885      1.6        1.615      0.015
   886      1.6        1.616      0.016
   887      1.6        1.626      0.026
   888      1.6        1.617      0.017
   889      1.6        1.615      0.015
   890      1.6        1.605      0.005
   891      1.6        1.612      0.012
   892      1.6        1.612      0.012
   893      1.6        1.557     -0.043
   894      1.6        1.557     -0.043
   895      1.6        1.605      0.005
   896      1.6        1.605      0.005
   897      1.6        1.622      0.022
   898      1.6        1.612      0.012
   899      1.6        1.557     -0.043
   900      1.6        1.557     -0.043
   901      1.6        1.615      0.015
   902      1.6        1.605      0.005
   903      1.6        1.612      0.012
   904      1.6        1.612      0.012
   905      1.6        1.557     -0.043
   906      1.6        1.539     -0.061
   907      1.8        1.55      -0.25 
   908      1.8        1.633     -0.167
   909      1.8        1.789     -0.011
   910      1.8        1.789     -0.011
   911      1.8        1.791     -0.009
   912      1.8        1.791     -0.009
   913      1.8        1.79      -0.01 
   914      1.8        1.79      -0.01 
   915      1.8        1.791     -0.009
   916      1.8        1.783     -0.017
   917      1.8        1.806      0.006
   918      1.8        1.816      0.016
   919      1.8        1.79      -0.01 
   920      1.8        1.79      -0.01 
   921      1.8        1.791     -0.009
   922      1.8        1.783     -0.017
   923      1.8        1.84       0.04 
   924      1.8        1.84       0.04 
   925      1.8        1.79      -0.01 
   926      1.8        1.79      -0.01 
   927      1.8        1.791     -0.009
   928      1.8        1.783     -0.017
   929      1.8        1.831      0.031
   930      1.8        1.84       0.04 
   931      1.6        1.588     -0.012
   932      1.6        1.554     -0.046
   933      1.6        1.593     -0.007
   934      1.6        1.595     -0.005
   935      1.6        1.612      0.012
   936      1.6        1.602      0.002
   937      1.6        1.592     -0.008
   938      1.6        1.582     -0.018
   939      1.6        1.612      0.012
   940      1.6        1.612      0.012
   941      1.6        1.612      0.012
   942      1.6        1.612      0.012
   943      1.6        1.605      0.005
   944      1.6        1.605      0.005
   945      1.6        1.622      0.022
   946      1.6        1.622      0.022
   947      1.6        1.612      0.012
   948      1.6        1.612      0.012
   949      1.8        1.602     -0.198
   950      1.8        1.79      -0.01 
   951      1.8        1.794     -0.006
   952      1.8        1.794     -0.006
   953      1.8        1.781     -0.019
   954      1.8        1.764     -0.036
   955      1.6        1.622      0.022
   956      1.6        1.554     -0.046
   957      1.6        1.593     -0.007
   958      1.6        1.595     -0.005
   959      1.6        1.602      0.002
   960      1.6        1.602      0.002
   961      1.5        1.592      0.092
   962      1.5        1.441     -0.059
   963      1.5        1.46      -0.04 
   964      1.5        1.46      -0.04 
   965      1.5        1.461     -0.039
   966      1.5        1.461     -0.039
   967      1.4        1.41       0.01 
   968      1.4        1.407      0.007
   969      1.4        1.441      0.041
   970      1.4        1.441      0.041
   971      1.4        1.469      0.069
   972      1.4        1.469      0.069
   973      1.3        1.388      0.088
   974      1.3        1.357      0.057
   975      1.3        1.392      0.092
   976      1.3        1.392      0.092
   977      1.3        1.397      0.097
   978      1.3        1.397      0.097
   979      1.4        1.322     -0.078
   980      1.4        1.371     -0.029
   981      1.4        1.391     -0.009
   982      1.4        1.391     -0.009
   983      1.4        1.425      0.025
   984      1.4        1.425      0.025
   985      1.4        1.386     -0.014
   986      1.4        1.386     -0.014
   987      1.4        1.391     -0.009
   988      1.4        1.391     -0.009
   989      1.4        1.425      0.025
   990      1.4        1.425      0.025
   991      1.5        1.364     -0.136
   992      1.5        1.441     -0.059
   993      1.5        1.46      -0.04 
   994      1.5        1.46      -0.04 
   995      1.5        1.461     -0.039
   996      1.5        1.461     -0.039
   997      1.5        1.445     -0.055
   998      1.5        1.445     -0.055
   999      1.5        1.46      -0.04 
  1000      1.5        1.46      -0.04 
  1001      1.5        1.461     -0.039
  1002      1.5        1.461     -0.039
  1003      1.6        1.422     -0.178
  1004      1.6        1.605      0.005
  1005      1.6        1.621      0.021
  1006      1.6        1.612      0.012
  1007      1.6        1.623      0.023
  1008      1.6        1.617      0.017
  1009      1.8        1.62      -0.18 
  1010      1.8        1.79      -0.01 
  1011      1.8        1.794     -0.006
  1012      1.8        1.794     -0.006
  1013      1.8        1.781     -0.019
  1014      1.7        1.764      0.064
  1015      1.6        1.684      0.084
  1016      1.6        1.571     -0.029
  1017      1.6        1.6        0    
  1018      1.6        1.612      0.012
  1019      1.6        1.602      0.002
  1020      1.6        1.602      0.002
  1021      1.5        1.596      0.096
  1022      1.5        1.445     -0.055
  1023      1.4        1.46       0.06 
  1024      1.4        1.441      0.041
  1025      1.2        1.465      0.265
  1026      1.2        1.211      0.011
  1027      1.5        1.205     -0.295
  1028      1.5        1.433     -0.067
  1029      1.5        1.461     -0.039
  1030      1.5        1.461     -0.039
  1031      1.6        1.446     -0.154
  1032      1.6        1.562     -0.038
  1033      1.3        1.61       0.31 
  1034      1.3        1.309      0.009
  1035      1.1        1.332      0.232
  1036      1.1        1.118      0.018
  1037      0.9        1.118      0.218
  1038      1          1.013      0.013
  1039      1          1.013      0.013
  1040      1          1.013      0.013
  1041      1.3        1.013     -0.287
  1042      1.4        1.357     -0.043
  1043      1.5        1.383     -0.117
  1044      1.5        1.446     -0.054
  1045      1.3        1.396      0.096
  1046      1.3        1.341      0.041
  1047      1.4        1.366     -0.034
  1048      1.5        1.412     -0.088
  1049      1.6        1.459     -0.141
  1050      1.6        1.535     -0.065
  1051      1.3        1.598      0.298
  1052      1.3        1.332      0.032
  1053      1.1        1.322      0.222
  1054      1.1        1.118      0.018
  1055      1.2        1.181     -0.019
  1056      1.2        1.222      0.022
  1057      1          1.256      0.256
  1058      1          1.025      0.025
  1059      1.1        1.013     -0.087
  1060      1.2        1.109     -0.091
  1061      1.4        1.209     -0.191
  1062      1.4        1.377     -0.023
  1063      1.3        1.371      0.071
  1064      1.3        1.341      0.041
  1065      1.3        1.351      0.051
  1066      1.3        1.332      0.032
  1067      1.3        1.338      0.038
  1068      1.3        1.309      0.009
  1069      1.1        1.322      0.222
  1070      1.1        1.109      0.009
  1071      1.1        1.109      0.009
  1072      1.1        1.109      0.009
  1073      1.3        1.172     -0.128
  1074      1.3        1.319      0.019
  1075      1          1.357      0.357
  1076      1.1        1.009     -0.091
  1077      1.1        1.109      0.009
  1078      1.1        1.109      0.009
  1079      1.2        1.172     -0.028
  1080      1.2        1.222      0.022
  1081      1.1        1.256      0.156
  1082      1.1        1.109      0.009
  1083      1.1        1.109      0.009
  1084      1.1        1.109      0.009
  1085      1.2        1.109     -0.091
  1086      1.2        1.207      0.007
  1087      1.2        1.205      0.005
  1088      1.2        1.211      0.011
  1089      1.2        1.211      0.011
  1090      1.2        1.211      0.011
  1091      1.4        1.256     -0.144
  1092      1.4        1.392     -0.008
  1093      1.3        1.345      0.045
  1094      1.3        1.332      0.032
  1095      1.3        1.322      0.022
  1096      1.3        1.322      0.022
  1097      1.2        1.338      0.138
  1098      1.2        1.209      0.009
  1099      1.1        1.219      0.119
  1100      1.1        1.117      0.017
  1101      1.1        1.109      0.009
  1102      1.1        1.109      0.009
  1103      1.3        1.172     -0.128
  1104      1.3        1.309      0.009
  1105      1.2        1.352      0.152
  1106      1.2        1.241      0.041
  1107      1.2        1.213      0.013
  1108      1.2        1.211      0.011
  1109      1.2        1.211      0.011
  1110      1.2        1.209      0.009
  1111      1.1        1.234      0.134
  1112      1.1        1.117      0.017
  1113      1.1        1.104      0.004
  1114      1.1        1.109      0.009
  1115      1.3        1.172     -0.128
  1116      1.3        1.319      0.019
  1117      1.5        1.347     -0.153
  1118      1.5        1.418     -0.082
  1119      1.4        1.457      0.057
  1120      1.4        1.425      0.025
  1121      1.3        1.377      0.077
  1122      1.2        1.309      0.109
  1123      1.5        1.219     -0.281
  1124      1.5        1.433     -0.067
  1125      1.5        1.461     -0.039
  1126      1.5        1.461     -0.039
  1127      1.7        1.442     -0.258
  1128      1.7        1.713      0.013
  1129      1.3        1.683      0.383
  1130      1.3        1.309      0.009
  1131      1.2        1.332      0.132
  1132      1.2        1.22       0.02 
  1133      1.1        1.221      0.121
  1134      1          1.118      0.118
  1135      1          1.017      0.017
  1136      0.9        1.017      0.117
  1137      1.2        1.017     -0.183
  1138      1.2        1.239      0.039
  1139      1.2        1.221      0.021
  1140      1.1        1.211      0.111
  1141      1.1        1.119      0.019
  1142      1.1        1.119      0.019
  1143      1.1        1.109      0.009
  1144      1.1        1.109      0.009
  1145      1.1        1.109      0.009
  1146      1.1        1.109      0.009
  1147      0.8        1.1        0.3  
  1148      0.8        0.954      0.154
  1149      1          0.954     -0.046
  1150      1          1.037      0.037
  1151      1          1.097      0.097
  1152      1          1.037      0.037
  1153      1          1.037      0.037
  1154      1          1.037      0.037
  1155      1          1.033      0.033
  1156      1          1.033      0.033
  1157      1          1.05       0.05 
  1158      1          1.041      0.041
  1159      1          1.049      0.049
  1160      1          1.053      0.053
  1161      1.2        1.045     -0.155
  1162      1.2        1.254      0.054
  1163      1.2        1.266      0.066
  1164      1.2        1.221      0.021
  1165      1.2        1.212      0.012
  1166      1.2        1.212      0.012
  1167      1.1        1.194      0.094
  1168      1.1        1.098     -0.002
  1169      1.1        1.098     -0.002
  1170      1.1        1.098     -0.002
  1171      1.1        1.1        0    
  1172      1.1        1.107      0.007
  1173      1.1        1.087     -0.013
  1174      1.1        1.098     -0.002
  1175      1.1        1.176      0.076
  1176      1.1        1.098     -0.002
  1177      1.1        1.098     -0.002
  1178      1.1        1.098     -0.002
  1179      1          1.098      0.098
  1180      1          1.023      0.023
  1181      1          1.017      0.017
  1182      1          1.008      0.008
  1183      1          1.013      0.013
  1184      1.1        1.023     -0.077
  1185      1.2        1.105     -0.095
  1186      1.2        1.254      0.054
  1187      1.2        1.266      0.066
  1188      1.2        1.221      0.021
  1189      1.2        1.212      0.012
  1190      1.2        1.2        0    
  1191      1.2        1.199     -0.001
  1192      1.2        1.199     -0.001
  1193      1.2        1.2        0    
  1194      1.2        1.199     -0.001
  1195      1.2        1.194     -0.006
  1196      1.2        1.199     -0.001
  1197      1.3        1.232     -0.068
  1198      1.3        1.322      0.022
  1199      1.3        1.348      0.048
  1200      1.3        1.319      0.019
  1201      1.3        1.322      0.022
  1202      1.3        1.322      0.022
  1203      1.4        1.322     -0.078
  1204      1.4        1.409      0.009
  1205      1.4        1.4        0    
  1206      1.4        1.4        0    
  1207      1.4        1.394     -0.006
  1208      1.4        1.394     -0.006
  1209      1.4        1.383     -0.017
  1210      1.4        1.383     -0.017
  1211      1.4        1.404      0.004
  1212      1.4        1.404      0.004
  1213      1.4        1.412      0.012
  1214      1.4        1.412      0.012
  1215      1.5        1.394     -0.106
  1216      1.5        1.476     -0.024
  1217      1.5        1.476     -0.024
  1218      1.5        1.476     -0.024
  1219      1.5        1.489     -0.011
  1220      1.5        1.489     -0.011
  1221      1.6        1.441     -0.159
  1222      1.6        1.586     -0.014
  1223      1.6        1.613      0.013
  1224      1.6        1.613      0.013
  1225      1.6        1.6        0    
  1226      1.6        1.594     -0.006
  1227      1.7        1.556     -0.144
  1228      1.7        1.712      0.012
  1229      1.7        1.704      0.004
  1230      1.7        1.704      0.004
  1231      1.6        1.704      0.104
  1232      1.6        1.551     -0.049
  1233      1.6        1.578     -0.022
  1234      1.5        1.6        0.1  
  1235      1.5        1.46      -0.04 
  1236      1.6        1.46      -0.14 
  1237      1.7        1.579     -0.121
  1238      1.7        1.721      0.021
  1239      1.7        1.697     -0.003
  1240      1.7        1.719      0.019
  1241      1.7        1.719      0.019
  1242      1.7        1.704      0.004
  1243      1.7        1.607     -0.093
  1244      1.7        1.607     -0.093
  1245      1.7        1.712      0.012
  1246      1.7        1.712      0.012
  1247      1.7        1.674     -0.026
  1248      1.7        1.713      0.013
  1249      1.7        1.709      0.009
  1250      1.7        1.717      0.017
  1251      1.6        1.707      0.107
  1252      1.6        1.542     -0.058
  1253      1.6        1.542     -0.058
  1254      1.6        1.542     -0.058
  1255      1.6        1.566     -0.034
  1256      1.6        1.551     -0.049
  1257      1.6        1.578     -0.022
  1258      1.6        1.602      0.002
  1259      1.6        1.617      0.017
  1260      1.6        1.617      0.017
  1261      1.6        1.607      0.007
  1262      1.6        1.588     -0.012
  1263      1.6        1.551     -0.049
  1264      1.6        1.551     -0.049
  1265      1.6        1.551     -0.049
  1266      1.6        1.551     -0.049
  1267      1.6        1.571     -0.029
  1268      1.6        1.545     -0.055
  1269      1.6        1.593     -0.007
  1270      1.6        1.593     -0.007
  1271      1.6        1.607      0.007
  1272      1.6        1.608      0.008
  1273      1.6        1.607      0.007
  1274      1.6        1.607      0.007
  1275      1.6        1.551     -0.049
  1276      1.6        1.551     -0.049
  1277      1.7        1.549     -0.151
  1278      1.7        1.705      0.005
  1279      1.7        1.704      0.004
  1280      1.7        1.705      0.005
  1281      1.7        1.704      0.004
  1282      1.7        1.704      0.004
  1283      1.7        1.704      0.004
  1284      1.7        1.691     -0.009
  1285      1.7        1.671     -0.029
  1286      1.7        1.691     -0.009
  1287      1.7        1.691     -0.009
  1288      1.6        1.719      0.119
  1289      1.6        1.542     -0.058
  1290      1.6        1.542     -0.058
  1291      1.5        1.571      0.071
  1292      1.5        1.489     -0.011
  1293      1.5        1.433     -0.067
  1294      1.5        1.433     -0.067
  1295      1.5        1.457     -0.043
  1296      1.5        1.457     -0.043
  1297      1.5        1.41      -0.09 
  1298      1.5        1.433     -0.067
  1299      1.5        1.461     -0.039
  1300      1.5        1.461     -0.039
  1301      1.5        1.476     -0.024
  1302      1.5        1.476     -0.024
  1303      1.5        1.476     -0.024
  1304      1.5        1.476     -0.024
  1305      1.5        1.418     -0.082
  1306      1.5        1.441     -0.059
  1307      1.5        1.461     -0.039
  1308      1.5        1.461     -0.039
  1309      1.5        1.422     -0.078
  1310      1.5        1.445     -0.055
  1311      1.5        1.461     -0.039
  1312      1.5        1.461     -0.039
  1313      1.5        1.476     -0.024
  1314      1.5        1.476     -0.024
  1315      1.5        1.472     -0.028
  1316      1.5        1.472     -0.028
  1317      1.5        1.41      -0.09 
  1318      1.5        1.433     -0.067
  1319      1.5        1.461     -0.039
  1320      1.5        1.461     -0.039
  1321      1.5        1.489     -0.011
  1322      1.5        1.489     -0.011
  1323      1.5        1.433     -0.067
  1324      1.5        1.433     -0.067
  1325      1.5        1.461     -0.039
  1326      1.5        1.461     -0.039
  1327      1.5        1.476     -0.024
  1328      1.5        1.476     -0.024
  1329      1.5        1.441     -0.059
  1330      1.5        1.441     -0.059
  1331      1.6        1.46      -0.14 
  1332      1.6        1.626      0.026
  1333      1.6        1.623      0.023
  1334      1.6        1.623      0.023
  1335      1.6        1.633      0.033
  1336      1.6        1.603      0.003
  1337      1.6        1.611      0.011
  1338      1.6        1.611      0.011
  1339      1.7        1.58      -0.12 
  1340      1.7        1.608     -0.092
  1341      1.7        1.712      0.012
  1342      1.7        1.712      0.012
  1343      1.7        1.704      0.004
  1344      1.7        1.704      0.004
  1345      1.7        1.661     -0.039
  1346      1.7        1.704      0.004
  1347      1.7        1.671     -0.029
  1348      1.7        1.704      0.004
  1349      1.7        1.671     -0.029
  1350      1.7        1.717      0.017
  1351      1.2        1.707      0.507
  1352      1.1        1.232      0.132
  1353      1          1.118      0.118
  1354      1          1.017      0.017
  1355      0.9        1.017      0.117
  1356      0.8        1.017      0.217
  1357      0.8        0.934      0.134
  1358      1          0.954     -0.046
  1359      1.1        1.037     -0.063
  1360      1.3        1.12      -0.18 
  1361      1.5        1.347     -0.153
  1362      1.7        1.461     -0.239
  1363      1.7        1.676     -0.024
  1364      1.7        1.713      0.013
  1365      1.7        1.703      0.003
  1366      1.6        1.704      0.104
  1367      1.6        1.61       0.01 
  1368      1.6        1.61       0.01 
  1369      1.6        1.605      0.005
  1370      1.6        1.597     -0.003
  1371      1.6        1.597     -0.003
  1372      1.6        1.579     -0.021
  1373      1.5        1.597      0.097
  1374      1.5        1.461     -0.039
  1375      1.5        1.433     -0.067
  1376      1.5        1.46      -0.04 
  1377      1.5        1.46      -0.04 
  1378      1.5        1.46      -0.04 
  1379      1.4        1.456      0.056
  1380      1.4        1.425      0.025
  1381      1.6        1.386     -0.214
  1382      1.6        1.623      0.023
  1383      1.6        1.607      0.007
  1384      1.6        1.603      0.003
  1385      1.6        1.633      0.033
  1386      1.6        1.611      0.011
  1387      1.6        1.598     -0.002
  1388      1.6        1.604      0.004
  1389      1.6        1.6        0    
  1390      1.6        1.607      0.007
  1391      1.6        1.607      0.007
  1392      1.6        1.608      0.008
  1393      1.6        1.602      0.002
  1394      1.6        1.607      0.007
  1395      1.6        1.588     -0.012
  1396      1.6        1.607      0.007
  1397      1.6        1.607      0.007
  1398      1.6        1.607      0.007
  1399      1.6        1.6        0    
  1400      1.6        1.617      0.017
  1401      1.6        1.617      0.017
  1402      1.6        1.598     -0.002
  1403      1.6        1.617      0.017
  1404      1.6        1.588     -0.012
  1405      1.6        1.582     -0.018
  1406      1.6        1.617      0.017
  1407      1.6        1.598     -0.002
  1408      1.6        1.617      0.017
  1409      1.6        1.617      0.017
  1410      1.6        1.607      0.007
  1411      1.6        1.58      -0.02 
  1412      1.6        1.6        0    
  1413      1.6        1.6        0    
  1414      1.6        1.607      0.007
  1415      1.6        1.608      0.008
  1416      1.6        1.608      0.008
  1417      1.6        1.602      0.002
  1418      1.6        1.607      0.007
  1419      1.6        1.588     -0.012
  1420      1.6        1.607      0.007
  1421      1.6        1.607      0.007
  1422      1.6        1.607      0.007
  1423      1.6        1.587     -0.013
  1424      1.6        1.617      0.017
  1425      1.6        1.617      0.017
  1426      1.6        1.617      0.017
  1427      1.6        1.598     -0.002
  1428      1.6        1.588     -0.012
  1429      1.6        1.582     -0.018
  1430      1.6        1.617      0.017
  1431      1.6        1.598     -0.002
  1432      1.6        1.617      0.017
  1433      1.6        1.617      0.017
  1434      1.6        1.607      0.007
  1435      1.5        1.571      0.071
  1436      1.2        1.433      0.233
  1437      1.2        1.245      0.045
  1438      1.2        1.202      0.002
  1439      1.2        1.187     -0.013
  1440      1.2        1.202      0.002
  1441      1.1        1.2        0.1  
  1442      1.1        1.1        0    
  1443      1.1        1.1        0    
  1444      1.1        1.109      0.009
  1445      1.1        1.096     -0.004
  1446      1.2        1.1       -0.1  
  1447      1.4        1.212     -0.188
  1448      1.5        1.345     -0.155
  1449      1.5        1.46      -0.04 
  1450      1.5        1.46      -0.04 
  1451      1.5        1.46      -0.04 
  1452      1.5        1.461     -0.039
  1453      1.7        1.476     -0.224
  1454      1.6        1.706      0.106
  1455      1.6        1.622      0.022
  1456      1.6        1.603      0.003
  1457      1.6        1.636      0.036
  1458      1.6        1.611      0.011
  1459      1.6        1.598     -0.002
  1460      1.6        1.604      0.004
  1461      1.6        1.6        0    
  1462      1.6        1.607      0.007
  1463      1.6        1.607      0.007
  1464      1.6        1.589     -0.011
  1465      1.6        1.6        0    
  1466      1.6        1.607      0.007
  1467      1.6        1.591     -0.009
  1468      1.6        1.588     -0.012
  1469      1.6        1.607      0.007
  1470      1.6        1.607      0.007
  1471      1.6        1.6        0    
  1472      1.6        1.601      0.001
  1473      1.6        1.617      0.017
  1474      1.6        1.617      0.017
  1475      1.6        1.617      0.017
  1476      1.6        1.607      0.007
  1477      1.6        1.6        0    
  1478      1.6        1.617      0.017
  1479      1.6        1.617      0.017
  1480      1.6        1.598     -0.002
  1481      1.6        1.617      0.017
  1482      1.6        1.607      0.007
  1483      1.6        1.593     -0.007
  1484      1.6        1.6        0    
  1485      1.6        1.6        0    
  1486      1.6        1.608      0.008
  1487      1.6        1.607      0.007
  1488      1.6        1.551     -0.049
  1489      1.6        1.576     -0.024
  1490      1.6        1.6        0    
  1491      1.6        1.607      0.007
  1492      1.6        1.607      0.007
  1493      1.6        1.588     -0.012
  1494      1.6        1.607      0.007
  1495      1.6        1.551     -0.049
  1496      1.6        1.6        0    
  1497      1.6        1.617      0.017
  1498      1.6        1.598     -0.002
  1499      1.6        1.617      0.017
  1500      1.6        1.607      0.007
  1501      1.6        1.551     -0.049
  1502      1.6        1.6        0    
  1503      1.6        1.617      0.017
  1504      1.6        1.598     -0.002
  1505      1.6        1.617      0.017
  1506      1.6        1.607      0.007
  1507      1.1        1.593      0.493
  1508      1.1        1.124      0.024
  1509      1.1        1.118      0.018
  1510      1.1        1.115      0.015
  1511      1.4        1.101     -0.299
  1512      1.4        1.404      0.004
  1513      1.2        1.368      0.168
  1514      1.2        1.2        0    
  1515      1.2        1.2        0    
  1516      1.2        1.208      0.008
  1517      1.3        1.199     -0.101
  1518      1.3        1.322      0.022
  1519      1.3        1.324      0.024
  1520      1.3        1.319      0.019
  1521      1.3        1.332      0.032
  1522      1.3        1.332      0.032
  1523      1.3        1.332      0.032
  1524      1.3        1.332      0.032
  1525      1.3        1.348      0.048
  1526      1.3        1.319      0.019
  1527      1.3        1.332      0.032
  1528      1.3        1.332      0.032
  1529      1.5        1.366     -0.134
  1530      1.5        1.463     -0.037
  1531      1.6        1.418     -0.182
  1532      1.6        1.598     -0.002
  1533      1.6        1.612      0.012
  1534      1.6        1.631      0.031
  1535      1.6        1.608      0.008
  1536      1.6        1.56      -0.04 
  1537      1.6        1.61       0.01 
  1538      1.6        1.61       0.01 
  1539      1.6        1.612      0.012
  1540      1.6        1.612      0.012
  1541      1.7        1.557     -0.143
  1542      1.7        1.712      0.012
  1543      1.6        1.673      0.073
  1544      1.6        1.587     -0.013
  1545      1.6        1.612      0.012
  1546      1.6        1.612      0.012
  1547      1.7        1.593     -0.107
  1548      1.7        1.712      0.012
  1549      1.6        1.673      0.073
  1550      1.6        1.577     -0.023
  1551      1.6        1.612      0.012
  1552      1.6        1.612      0.012
  1553      1.7        1.593     -0.107
  1554      1.7        1.732      0.032
  1555      1          1.59       0.59 
  1556      1          0.989     -0.011
  1557      1          0.998     -0.002
  1558      1          0.989     -0.011
  1559      1.2        0.981     -0.219
  1560      1.2        1.211      0.011
  1561      1          1.229      0.229
  1562      1          0.991     -0.009
  1563      1          1.008      0.008
  1564      1          1.008      0.008
  1565      1.2        1.012     -0.188
  1566      1.2        1.211      0.011
  1567      1.1        1.206      0.106
  1568      1.1        1.12       0.02 
  1569      1.1        1.12       0.02 
  1570      1.1        1.12       0.02 
  1571      1.4        1.098     -0.302
  1572      1.4        1.392     -0.008
  1573      1.1        1.368      0.268
  1574      1.1        1.098     -0.002
  1575      1.1        1.098     -0.002
  1576      1.1        1.106      0.006
  1577      1.4        1.107     -0.293
  1578      1.4        1.4        0    
  1579      1.5        1.392     -0.108
  1580      1.5        1.418     -0.082
  1581      1.5        1.461     -0.039
  1582      1.5        1.461     -0.039
  1583      1.5        1.459     -0.041
  1584      1.5        1.459     -0.041
  1585      1.5        1.433     -0.067
  1586      1.5        1.433     -0.067
  1587      1.5        1.461     -0.039
  1588      1.5        1.461     -0.039
  1589      1.5        1.459     -0.041
  1590      1.5        1.459     -0.041
  1591      1.5        1.433     -0.067
  1592      1.5        1.433     -0.067
  1593      1.5        1.461     -0.039
  1594      1.5        1.461     -0.039
  1595      1.7        1.459     -0.241
  1596      1.7        1.705      0.005
  1597      1.5        1.683      0.183
  1598      1.5        1.433     -0.067
  1599      1.5        1.461     -0.039
  1600      1.5        1.461     -0.039
  1601      1.6        1.459     -0.141
  1602      1.6        1.563     -0.037
  1603      1.7        1.587     -0.113
  1604      1.7        1.713      0.013
  1605      1.7        1.712      0.012
  1606      1.7        1.713      0.013
  1607      1.7        1.71       0.01 
  1608      1.7        1.7        0    
  1609      1.7        1.691     -0.009
  1610      1.7        1.691     -0.009
  1611      1.7        1.703      0.003
  1612      1.7        1.691     -0.009
  1613      1.7        1.703      0.003
  1614      1.7        1.684     -0.016
  1615      1.7        1.716      0.016
  1616      1.7        1.705      0.005
  1617      1.7        1.716      0.016
  1618      1.7        1.705      0.005
  1619      1.7        1.725      0.025
  1620      1.7        1.693     -0.007
  1621      1.7        1.716      0.016
  1622      1.7        1.705      0.005
  1623      1.7        1.716      0.016
  1624      1.7        1.705      0.005
  1625      1.7        1.725      0.025
  1626      1.7        1.693     -0.007
  1627      1.7        1.615     -0.085
  1628      1.7        1.71       0.01 
  1629      1.7        1.725      0.025
  1630      1.7        1.731      0.031
  1631      1.7        1.683     -0.017
  1632      1.7        1.714      0.014
  1633      1.7        1.704      0.004
  1634      1.7        1.718      0.018
  1635      1.7        1.725      0.025
  1636      1.7        1.693     -0.007
  1637      1.7        1.725      0.025
  1638      1.7        1.683     -0.017
  1639      1.7        1.725      0.025
  1640      1.7        1.693     -0.007
  1641      1.7        1.725      0.025
  1642      1.7        1.693     -0.007
  1643      1.7        1.725      0.025
  1644      1.7        1.683     -0.017
  1645      1.7        1.725      0.025
  1646      1.7        1.693     -0.007
  1647      1.7        1.725      0.025
  1648      1.7        1.693     -0.007
  1649      1.7        1.725      0.025
  1650      1.7        1.683     -0.017
  1651      1.5        1.597      0.097
  1652      1.5        1.459     -0.041
  1653      1.6        1.433     -0.167
  1654      1.6        1.608      0.008
  1655      1.6        1.612      0.012
  1656      1.6        1.604      0.004
  1657      1.4        1.607      0.207
  1658      1.4        1.407      0.007
  1659      1.4        1.434      0.034
  1660      1.4        1.434      0.034
  1661      1.4        1.469      0.069
  1662      1.4        1.469      0.069
  1663      1.6        1.449     -0.151
  1664      1.6        1.559     -0.041
  1665      1.6        1.61       0.01 
  1666      1.6        1.61       0.01 
  1667      1.6        1.613      0.013
  1668      1.6        1.58      -0.02 
  1669      1.5        1.609      0.109
  1670      1.5        1.445     -0.055
  1671      1.5        1.46      -0.04 
  1672      1.5        1.46      -0.04 
  1673      1.5        1.461     -0.039
  1674      1.5        1.461     -0.039
  1675      1.5        1.433     -0.067
  1676      1.5        1.433     -0.067
  1677      1.5        1.46      -0.04 
  1678      1.5        1.46      -0.04 
  1679      1.5        1.461     -0.039
  1680      1.5        1.461     -0.039
  1681      1.6        1.41      -0.19 
  1682      1.6        1.612      0.012
  1683      1.6        1.603      0.003
  1684      1.6        1.583     -0.017
  1685      1.5        1.623      0.123
  1686      1.5        1.461     -0.039
  1687      1.3        1.433      0.133
  1688      1.3        1.367      0.067
  1689      1.3        1.382      0.082
  1690      1.3        1.382      0.082
  1691      1.3        1.397      0.097
  1692      1.3        1.397      0.097
  1693      1.3        1.357      0.057
  1694      1.3        1.357      0.057
  1695      1.3        1.392      0.092
  1696      1.3        1.392      0.092
  1697      1.4        1.397     -0.003
  1698      1.4        1.469      0.069
  1699      1.2        1.395      0.195
  1700      1.2        1.211      0.011
  1701      1.2        1.211      0.011
  1702      1.2        1.211      0.011
  1703      1.2        1.213      0.013
  1704      1.2        1.211      0.011
  1705      1.2        1.205      0.005
  1706      1.2        1.211      0.011
  1707      1.2        1.211      0.011
  1708      1.2        1.211      0.011
  1709      1.2        1.211      0.011
  1710      1.2        1.211      0.011
  1711      1          1.209      0.209
  1712      1          1.008      0.008
  1713      1          0.928     -0.072
  1714      1          1.008      0.008
  1715      1          0.912     -0.088
  1716      1          0.989     -0.011
  1717      1          0.912     -0.088
  1718      1          0.991     -0.009
  1719      1          0.928     -0.072
  1720      1          1.008      0.008
  1721      1          0.932     -0.068
  1722      1          1.012      0.012
  1723      1.1        0.912     -0.188
  1724      1.1        1.128      0.028
  1725      1.1        1.114      0.014
  1726      1.1        1.12       0.02 
  1727      1.1        1.105      0.005
  1728      1.1        1.128      0.028
  1729      1.1        1.102      0.002
  1730      1.1        1.098     -0.002
  1731      1.1        1.109      0.009
  1732      1          1.107      0.107
  1733      1          1.012      0.012
  1734      1          1.012      0.012
  1735      1          1.008      0.008
  1736      1          1.008      0.008
  1737      1          1.012      0.012
  1738      1          1.014      0.014
  1739      1          1.012      0.012
  1740      1.2        1.014     -0.186
  1741      1.2        1.218      0.018
  1742      1.2        1.212      0.012
  1743      1.2        1.212      0.012
  1744      1.1        1.212      0.112
  1745      1.1        1.12       0.02 
  1746      1.1        1.098     -0.002
  1747      1.2        1.1       -0.1  
  1748      1.2        1.213      0.013
  1749      1.2        1.198     -0.002
  1750      1.2        1.2        0    
  1751      1.2        1.225      0.025
  1752      1.2        1.2        0    
  1753      1.2        1.209      0.009
  1754      1.2        1.2        0    
  1755      1.2        1.2        0    
  1756      1.2        1.2        0    
  1757      1.2        1.203      0.003
  1758      1.2        1.2        0    
  1759      1.2        1.194     -0.006
  1760      1.2        1.2        0    
  1761      1.2        1.225      0.025
  1762      1.2        1.2        0    
  1763      1.2        1.203      0.003
  1764      1.2        1.2        0    
  1765      1.2        1.255      0.055
  1766      1.2        1.23       0.03 
  1767      1.2        1.215      0.015
  1768      1.2        1.2        0    
  1769      1.2        1.203      0.003
  1770      1.2        1.2        0    
  1771      1.2        1.202      0.002
  1772      1.2        1.2        0    
  1773      1.2        1.198     -0.002
  1774      1.2        1.2        0    
  1775      1.2        1.194     -0.006
  1776      1.2        1.2        0    
  1777      1.2        1.2        0    
  1778      1.2        1.2        0    
  1779      1.2        1.2        0    
  1780      1.2        1.2        0    
  1781      1.2        1.2        0    
  1782      1.2        1.2        0    
  1783      1          1.2        0.2  
  1784      1          1.045      0.045
  1785      1          1.037      0.037
  1786      1          1.039      0.039
  1787      1          1.037      0.037
  1788      1          1.037      0.037
  1789      1.1        1.037     -0.063
  1790      1.1        1.12       0.02 
  1791      1.1        1.105      0.005
  1792      1.1        1.12       0.02 
  1793      1.1        1.105      0.005
  1794      1.1        1.12       0.02 
  1795      0.9        1.1        0.2  
  1796      1          1.014      0.014
  1797      1          1.034      0.034
  1798      1          1.034      0.034
  1799      1          1.033      0.033
  1800      1          1.033      0.033
  1801      1          1.037      0.037
  1802      1.1        1.039     -0.061
  1803      1.2        1.105     -0.095
  1804      1.2        1.224      0.024
  1805      1.2        1.214      0.014
  1806      1.2        1.212      0.012
  1807      1.2        1.22       0.02 
  1808      1.2        1.2        0    
  1809      1.2        1.215      0.015
  1810      1.2        1.2        0    
  1811      1.2        1.203      0.003
  1812      1.2        1.2        0    
  1813      1.2        1.209      0.009
  1814      1.2        1.2        0    
  1815      1.2        1.225      0.025
  1816      1.2        1.2        0    
  1817      1.2        1.203      0.003
  1818      1.2        1.2        0    
  1819      1.2        1.202      0.002
  1820      1.3        1.2       -0.1  
  1821      1.3        1.314      0.014
  1822      1.3        1.322      0.022
  1823      1.3        1.332      0.032
  1824      1.3        1.332      0.032
  1825      1.4        1.322     -0.078
  1826      1.4        1.371     -0.029
  1827      1.4        1.391     -0.009
  1828      1.5        1.391     -0.109
  1829      1.5        1.461     -0.039
  1830      1.5        1.461     -0.039
  1831      1.6        1.433     -0.167
  1832      1.6        1.599     -0.001
  1833      1.6        1.612      0.012
  1834      1.5        1.592      0.092
  1835      1.4        1.476      0.076
  1836      1.3        1.409      0.109
  1837      1.1        1.348      0.248
  1838      1          1.109      0.109
  1839      0.9        1.093      0.193
  1840      0.8        1.013      0.213
  1841      0.6        0.93       0.33 
  1842      0.5        0.93       0.43 
