

=== Predictions on test data ===

 inst#     actual  predicted error prediction
     1        1:0        1:0       0.991
     2        1:0        1:0       0.991
     3        1:0        1:0       0.991
     4        1:0        1:0       0.991
     5        1:0        1:0       0.991
     6        1:0        1:0       0.991
     7        1:0        1:0       0.991
     8        1:0        1:0       0.991
     9        1:0        1:0       0.991
    10        1:0        1:0       0.991
    11        2:1        1:0   +   0.991
    12        1:0        1:0       0.991
    13        1:0        1:0       0.991
    14        1:0        1:0       0.991
    15        1:0        1:0       0.991
    16        1:0        1:0       0.991
    17        1:0        1:0       0.991
    18        1:0        1:0       0.991
    19        1:0        1:0       0.991
    20        1:0        1:0       0.991
    21        1:0        1:0       0.991
    22        1:0        1:0       0.991
    23        1:0        1:0       0.991
    24        1:0        1:0       0.991
    25        1:0        1:0       0.991
    26        1:0        1:0       0.991
    27        1:0        1:0       0.991
    28        1:0        1:0       0.991
    29        1:0        1:0       0.991
    30        1:0        1:0       0.991
    31        1:0        1:0       0.991
    32        1:0        1:0       0.991
    33        1:0        1:0       0.991
    34        1:0        1:0       0.991
    35        1:0        1:0       0.991
    36        1:0        1:0       0.991
    37        1:0        1:0       0.991
    38        1:0        1:0       0.991
    39        1:0        1:0       0.991
    40        1:0        1:0       0.991
    41        1:0        1:0       0.991
    42        1:0        1:0       0.991
    43        1:0        1:0       0.991
    44        1:0        1:0       0.991
    45        1:0        1:0       0.991
    46        1:0        1:0       0.991
    47        1:0        1:0       0.991
    48        1:0        1:0       0.991
    49        1:0        1:0       0.991
    50        1:0        1:0       0.991
    51        1:0        1:0       0.991
    52        1:0        1:0       0.991
    53        1:0        1:0       0.991
    54        1:0        1:0       0.991
    55        1:0        1:0       0.991
    56        1:0        1:0       0.991
    57        1:0        1:0       0.991
    58        1:0        1:0       0.991
    59        1:0        1:0       0.991
    60        1:0        1:0       0.991
    61        1:0        1:0       0.991
    62        1:0        1:0       0.991
    63        1:0        1:0       0.991
    64        1:0        1:0       0.991
    65        1:0        1:0       0.991
    66        1:0        1:0       0.991
    67        1:0        1:0       0.991
    68        1:0        1:0       0.991
    69        1:0        1:0       0.991
    70        1:0        1:0       0.991
    71        1:0        1:0       0.991
    72        1:0        1:0       0.991
    73        1:0        1:0       0.991
    74        1:0        1:0       0.991
    75        1:0        1:0       0.991
    76        1:0        1:0       0.991
    77        1:0        1:0       0.991
    78        1:0        1:0       0.991
    79        1:0        1:0       0.991
    80        1:0        1:0       0.991
    81        1:0        1:0       0.991
    82        1:0        1:0       0.991
    83        1:0        1:0       0.991
    84        1:0        1:0       0.991
    85        1:0        1:0       0.991
    86        1:0        1:0       0.991
    87        1:0        1:0       0.991
    88        1:0        1:0       0.991
    89        1:0        1:0       0.991
    90        1:0        1:0       0.991
    91        1:0        1:0       0.991
    92        1:0        1:0       0.991
    93        1:0        1:0       0.991
    94        1:0        1:0       0.991
    95        1:0        1:0       0.991
    96        1:0        1:0       0.991
    97        1:0        1:0       0.991
    98        1:0        1:0       0.991
    99        1:0        1:0       0.991
   100        1:0        1:0       0.991
   101        1:0        1:0       0.991
   102        1:0        1:0       0.991
   103        1:0        1:0       0.991
   104        1:0        1:0       0.991
   105        1:0        1:0       0.991
   106        1:0        1:0       0.991
   107        1:0        1:0       0.991
   108        1:0        1:0       0.991
   109        1:0        1:0       0.991
   110        1:0        1:0       0.991
   111        1:0        1:0       0.991
   112        1:0        1:0       0.991
   113        1:0        1:0       0.991
   114        1:0        1:0       0.991
   115        1:0        1:0       0.991
   116        1:0        1:0       0.991
   117        1:0        1:0       0.991
   118        1:0        1:0       0.991
   119        1:0        1:0       0.991
   120        1:0        1:0       0.991
   121        1:0        1:0       0.991
   122        1:0        1:0       0.991
   123        1:0        1:0       0.991
   124        1:0        1:0       0.991
   125        1:0        1:0       0.991
   126        1:0        1:0       0.991
   127        1:0        1:0       0.991
   128        1:0        1:0       0.991
   129        1:0        1:0       0.991
   130        1:0        1:0       0.991
   131        1:0        1:0       0.991
   132        1:0        1:0       0.991
   133        1:0        1:0       0.991
   134        1:0        1:0       0.991
   135        1:0        1:0       0.991
   136        1:0        1:0       0.991
   137        1:0        1:0       0.991
   138        1:0        1:0       0.991
   139        1:0        1:0       0.991
   140        1:0        1:0       0.991
   141        1:0        1:0       0.991
   142        1:0        1:0       0.991
   143        1:0        1:0       0.991
   144        1:0        1:0       0.991
   145        1:0        1:0       0.991
   146        1:0        1:0       0.991
   147        1:0        1:0       0.991
   148        2:1        1:0   +   0.991
   149        1:0        1:0       0.991
   150        1:0        1:0       0.991
   151        1:0        1:0       0.991
   152        1:0        1:0       0.991
   153        1:0        1:0       0.991
   154        2:1        1:0   +   0.991
   155        1:0        1:0       0.991
   156        1:0        1:0       0.991
   157        1:0        1:0       0.991
   158        1:0        1:0       0.991
   159        1:0        1:0       0.991
   160        1:0        1:0       0.991
   161        1:0        1:0       0.991
   162        1:0        1:0       0.991
   163        1:0        1:0       0.991
   164        1:0        1:0       0.991
   165        1:0        1:0       0.991
   166        1:0        1:0       0.991
   167        1:0        1:0       0.991
   168        1:0        1:0       0.991
   169        1:0        1:0       0.991
   170        1:0        1:0       0.991
   171        1:0        1:0       0.991
   172        1:0        1:0       0.991
   173        1:0        1:0       0.991
   174        1:0        1:0       0.991
   175        1:0        1:0       0.991
   176        1:0        1:0       0.991
   177        1:0        1:0       0.991
   178        1:0        1:0       0.991
   179        1:0        1:0       0.991
   180        1:0        1:0       0.991
   181        1:0        1:0       0.991
   182        1:0        1:0       0.991
   183        1:0        1:0       0.991
   184        1:0        1:0       0.991
   185        1:0        1:0       0.991
   186        1:0        1:0       0.991
   187        1:0        1:0       0.991
   188        1:0        1:0       0.991
   189        1:0        1:0       0.991
   190        1:0        1:0       0.991
   191        1:0        1:0       0.991
   192        1:0        1:0       0.991
   193        1:0        1:0       0.991
   194        1:0        1:0       0.991
   195        1:0        1:0       0.991
   196        1:0        1:0       0.991
   197        1:0        1:0       0.991
   198        1:0        1:0       0.991
   199        1:0        1:0       0.991
   200        1:0        1:0       0.991
   201        1:0        1:0       0.991
   202        1:0        1:0       0.991
   203        1:0        1:0       0.991
   204        1:0        1:0       0.991
   205        1:0        1:0       0.991
   206        1:0        1:0       0.991
   207        1:0        1:0       0.991
   208        1:0        1:0       0.991
   209        1:0        1:0       0.991
   210        1:0        1:0       0.991
   211        1:0        1:0       0.991
   212        1:0        1:0       0.991
   213        1:0        1:0       0.991
   214        1:0        1:0       0.991
   215        1:0        1:0       0.991
   216        1:0        1:0       0.991
   217        1:0        1:0       0.991
   218        1:0        1:0       0.991
   219        1:0        1:0       0.991
   220        1:0        1:0       0.991
   221        1:0        1:0       0.991
   222        1:0        1:0       0.991
   223        1:0        1:0       0.991
   224        1:0        1:0       0.991
   225        1:0        1:0       0.991
   226        1:0        1:0       0.991
   227        1:0        1:0       0.991
   228        1:0        1:0       0.991
   229        1:0        1:0       0.991
   230        1:0        1:0       0.991
   231        1:0        1:0       0.991
   232        1:0        1:0       0.991
   233        1:0        1:0       0.991
   234        1:0        1:0       0.991
   235        1:0        1:0       0.991
   236        1:0        1:0       0.991
   237        1:0        1:0       0.991
   238        1:0        1:0       0.991
   239        1:0        1:0       0.991
   240        1:0        1:0       0.991
   241        1:0        1:0       0.991
   242        1:0        1:0       0.991
   243        1:0        1:0       0.991
   244        1:0        1:0       0.991
   245        1:0        1:0       0.991
   246        1:0        1:0       0.991
   247        1:0        1:0       0.991
   248        1:0        1:0       0.991
   249        1:0        1:0       0.991
   250        1:0        1:0       0.991
   251        1:0        1:0       0.991
   252        1:0        1:0       0.991
   253        1:0        1:0       0.991
   254        1:0        1:0       0.991
   255        1:0        1:0       0.991
   256        1:0        1:0       0.991
   257        1:0        1:0       0.991
   258        1:0        1:0       0.991
   259        1:0        1:0       0.991
   260        1:0        1:0       0.991
   261        1:0        1:0       0.991
   262        1:0        1:0       0.991
   263        1:0        1:0       0.991
   264        1:0        1:0       0.991
   265        1:0        1:0       0.991
   266        1:0        1:0       0.991
   267        1:0        1:0       0.991
   268        1:0        1:0       0.991
   269        1:0        1:0       0.991
   270        1:0        1:0       0.991
   271        1:0        1:0       0.991
   272        1:0        1:0       0.991
   273        2:1        1:0   +   0.991
   274        1:0        1:0       0.991
   275        1:0        1:0       0.991
   276        2:1        1:0   +   0.991
   277        1:0        1:0       0.991
   278        1:0        1:0       0.991
   279        2:1        1:0   +   0.991
   280        1:0        1:0       0.991
   281        1:0        1:0       0.991
   282        2:1        1:0   +   0.991
   283        1:0        1:0       0.991
   284        1:0        1:0       0.991
   285        1:0        1:0       0.991
   286        1:0        1:0       0.991
   287        1:0        1:0       0.991
   288        1:0        1:0       0.991
   289        1:0        1:0       0.991
   290        1:0        1:0       0.991
   291        1:0        1:0       0.991
   292        1:0        1:0       0.991
   293        1:0        1:0       0.991
   294        1:0        1:0       0.991
   295        1:0        1:0       0.991
   296        1:0        1:0       0.991
   297        1:0        1:0       0.991
   298        1:0        1:0       0.991
   299        1:0        1:0       0.991
   300        1:0        1:0       0.991
   301        1:0        1:0       0.991
   302        1:0        1:0       0.991
   303        1:0        1:0       0.991
   304        1:0        1:0       0.991
   305        1:0        1:0       0.991
   306        1:0        1:0       0.991
   307        1:0        1:0       0.991
   308        1:0        1:0       0.991
   309        1:0        1:0       0.991
   310        1:0        1:0       0.991
   311        1:0        1:0       0.991
   312        1:0        1:0       0.991
   313        1:0        1:0       0.991
   314        1:0        1:0       0.991
   315        1:0        1:0       0.991
   316        1:0        1:0       0.991
   317        1:0        1:0       0.991
   318        1:0        1:0       0.991
   319        1:0        1:0       0.991
   320        1:0        1:0       0.991
   321        1:0        1:0       0.991
   322        1:0        1:0       0.991
   323        1:0        1:0       0.991
   324        1:0        1:0       0.991
   325        1:0        1:0       0.991
   326        1:0        1:0       0.991
   327        1:0        1:0       0.991
   328        1:0        1:0       0.991
   329        1:0        1:0       0.991
   330        1:0        1:0       0.991
   331        1:0        1:0       0.991
   332        1:0        1:0       0.991
   333        1:0        1:0       0.991
   334        1:0        1:0       0.991
   335        1:0        1:0       0.991
   336        1:0        1:0       0.991
   337        1:0        1:0       0.991
   338        2:1        1:0   +   0.991
   339        1:0        1:0       0.991
   340        1:0        1:0       0.991
   341        2:1        1:0   +   0.991
   342        1:0        1:0       0.991
   343        1:0        1:0       0.991
   344        2:1        1:0   +   0.991
   345        1:0        1:0       0.991
   346        1:0        1:0       0.991
   347        1:0        1:0       0.991
   348        1:0        1:0       0.991
   349        1:0        1:0       0.991
   350        1:0        1:0       0.991
   351        1:0        1:0       0.991
   352        1:0        1:0       0.991
   353        1:0        1:0       0.991
   354        1:0        1:0       0.991
   355        1:0        1:0       0.991
   356        1:0        1:0       0.991
   357        1:0        1:0       0.991
   358        1:0        1:0       0.991
   359        1:0        1:0       0.991
   360        1:0        1:0       0.991
   361        1:0        1:0       0.991
   362        1:0        1:0       0.991
   363        1:0        1:0       0.991
   364        1:0        1:0       0.991
   365        1:0        1:0       0.991
   366        1:0        1:0       0.991
   367        1:0        1:0       0.991
   368        1:0        1:0       0.991
   369        1:0        1:0       0.991
   370        1:0        1:0       0.991
   371        1:0        1:0       0.991
   372        1:0        1:0       0.991
   373        1:0        1:0       0.991
   374        1:0        1:0       0.991
   375        1:0        1:0       0.991
   376        1:0        1:0       0.991
   377        1:0        1:0       0.991
   378        1:0        1:0       0.991
   379        1:0        1:0       0.991
   380        1:0        1:0       0.991
   381        1:0        1:0       0.991
   382        1:0        1:0       0.991
   383        1:0        1:0       0.991
   384        1:0        1:0       0.991
   385        1:0        1:0       0.991
   386        1:0        1:0       0.991
   387        1:0        1:0       0.991
   388        1:0        1:0       0.991
   389        1:0        1:0       0.991
   390        1:0        1:0       0.991
   391        1:0        1:0       0.991
   392        1:0        1:0       0.991
   393        1:0        1:0       0.991
   394        1:0        1:0       0.991
   395        1:0        1:0       0.991
   396        1:0        1:0       0.991
   397        1:0        1:0       0.991
   398        1:0        1:0       0.991
   399        1:0        1:0       0.991
   400        1:0        1:0       0.991
   401        1:0        1:0       0.991
   402        1:0        1:0       0.991
   403        1:0        1:0       0.991
   404        1:0        1:0       0.991
   405        1:0        1:0       0.991
   406        1:0        1:0       0.991
   407        1:0        1:0       0.991
   408        1:0        1:0       0.991
   409        1:0        1:0       0.991
   410        1:0        1:0       0.991
   411        1:0        1:0       0.991
   412        1:0        1:0       0.991
   413        1:0        1:0       0.991
   414        1:0        1:0       0.991
   415        1:0        1:0       0.991
   416        1:0        1:0       0.991
   417        1:0        1:0       0.991
   418        1:0        1:0       0.991
   419        1:0        1:0       0.991
   420        1:0        1:0       0.991
   421        1:0        1:0       0.991
   422        1:0        1:0       0.991
   423        1:0        1:0       0.991
   424        1:0        1:0       0.991
   425        1:0        1:0       0.991
   426        1:0        1:0       0.991
   427        1:0        1:0       0.991
   428        1:0        1:0       0.991
   429        1:0        1:0       0.991
   430        1:0        1:0       0.991
   431        1:0        1:0       0.991
   432        1:0        1:0       0.991
   433        1:0        1:0       0.991
   434        1:0        1:0       0.991
   435        2:1        1:0   +   0.991
   436        1:0        1:0       0.991
   437        1:0        1:0       0.991
   438        1:0        1:0       0.991
   439        1:0        1:0       0.991
   440        1:0        1:0       0.991
   441        2:1        1:0   +   0.991
   442        1:0        1:0       0.991
   443        1:0        1:0       0.991
   444        1:0        1:0       0.991
   445        1:0        1:0       0.991
   446        1:0        1:0       0.991
   447        2:1        1:0   +   0.991
   448        1:0        1:0       0.991
   449        1:0        1:0       0.991
   450        1:0        1:0       0.991
   451        1:0        1:0       0.991
   452        1:0        1:0       0.991
   453        2:1        1:0   +   0.991
   454        1:0        1:0       0.991
   455        1:0        1:0       0.991
   456        1:0        1:0       0.991
   457        1:0        1:0       0.991
   458        1:0        1:0       0.991
   459        2:1        1:0   +   0.991
   460        1:0        1:0       0.991
   461        1:0        1:0       0.991
   462        1:0        1:0       0.991
   463        1:0        1:0       0.991
   464        1:0        1:0       0.991
   465        1:0        1:0       0.991
   466        1:0        1:0       0.991
   467        1:0        1:0       0.991
   468        1:0        1:0       0.991
   469        1:0        1:0       0.991
   470        1:0        1:0       0.991
   471        1:0        1:0       0.991
   472        1:0        1:0       0.991
   473        1:0        1:0       0.991
   474        1:0        1:0       0.991
   475        1:0        1:0       0.991
   476        1:0        1:0       0.991
   477        1:0        1:0       0.991
   478        1:0        1:0       0.991
   479        1:0        1:0       0.991
   480        1:0        1:0       0.991
   481        1:0        1:0       0.991
   482        1:0        1:0       0.991
   483        1:0        1:0       0.991
   484        1:0        1:0       0.991
   485        1:0        1:0       0.991
   486        2:1        1:0   +   0.991
   487        1:0        1:0       0.991
   488        1:0        1:0       0.991
   489        1:0        1:0       0.991
   490        1:0        1:0       0.991
   491        1:0        1:0       0.991
   492        1:0        1:0       0.991
   493        1:0        1:0       0.991
   494        1:0        1:0       0.991
   495        1:0        1:0       0.991
   496        1:0        1:0       0.991
   497        1:0        1:0       0.991
   498        1:0        1:0       0.991
   499        1:0        1:0       0.991
   500        1:0        1:0       0.991
   501        1:0        1:0       0.991
   502        1:0        1:0       0.991
   503        1:0        1:0       0.991
   504        1:0        1:0       0.991
   505        1:0        1:0       0.991
   506        1:0        1:0       0.991
   507        1:0        1:0       0.991
   508        1:0        1:0       0.991
   509        1:0        1:0       0.991
   510        1:0        1:0       0.991
   511        1:0        1:0       0.991
   512        1:0        1:0       0.991
   513        1:0        1:0       0.991
   514        1:0        1:0       0.991
   515        1:0        1:0       0.991
   516        1:0        1:0       0.991
   517        1:0        1:0       0.991
   518        1:0        1:0       0.991
   519        1:0        1:0       0.991
   520        1:0        1:0       0.991
   521        1:0        1:0       0.991
   522        1:0        1:0       0.991
   523        1:0        1:0       0.991
   524        1:0        1:0       0.991
   525        1:0        1:0       0.991
   526        1:0        1:0       0.991
   527        1:0        1:0       0.991
   528        1:0        1:0       0.991
   529        1:0        1:0       0.991
   530        1:0        1:0       0.991
   531        1:0        1:0       0.991
   532        1:0        1:0       0.991
   533        1:0        1:0       0.991
   534        1:0        1:0       0.991
   535        1:0        1:0       0.991
   536        1:0        1:0       0.991
   537        1:0        1:0       0.991
   538        1:0        1:0       0.991
   539        1:0        1:0       0.991
   540        1:0        1:0       0.991
   541        1:0        1:0       0.991
   542        1:0        1:0       0.991
   543        1:0        1:0       0.991
   544        1:0        1:0       0.991
   545        1:0        1:0       0.991
   546        1:0        1:0       0.991
   547        1:0        1:0       0.991
   548        1:0        1:0       0.991
   549        1:0        1:0       0.991
   550        1:0        1:0       0.991
   551        1:0        1:0       0.991
   552        1:0        1:0       0.991
   553        1:0        1:0       0.991
   554        1:0        1:0       0.991
   555        1:0        1:0       0.991
   556        1:0        1:0       0.991
   557        1:0        1:0       0.991
   558        1:0        1:0       0.991
   559        1:0        1:0       0.991
   560        1:0        1:0       0.991
   561        1:0        1:0       0.991
   562        1:0        1:0       0.991
   563        1:0        1:0       0.991
   564        1:0        1:0       0.991
   565        1:0        1:0       0.991
   566        1:0        1:0       0.991
   567        1:0        1:0       0.991
   568        1:0        1:0       0.991
   569        1:0        1:0       0.991
   570        1:0        1:0       0.991
   571        1:0        1:0       0.991
   572        1:0        1:0       0.991
   573        1:0        1:0       0.991
   574        1:0        1:0       0.991
   575        1:0        1:0       0.991
   576        1:0        1:0       0.991
   577        1:0        1:0       0.991
   578        1:0        1:0       0.991
   579        1:0        1:0       0.991
   580        1:0        1:0       0.991
   581        1:0        1:0       0.991
   582        1:0        1:0       0.991
   583        1:0        1:0       0.991
   584        1:0        1:0       0.991
   585        1:0        1:0       0.991
   586        1:0        1:0       0.991
   587        1:0        1:0       0.991
   588        1:0        1:0       0.991
   589        1:0        1:0       0.991
   590        1:0        1:0       0.991
   591        1:0        1:0       0.991
   592        1:0        1:0       0.991
   593        1:0        1:0       0.991
   594        1:0        1:0       0.991
   595        2:1        1:0   +   0.991
   596        1:0        1:0       0.991
   597        1:0        1:0       0.991
   598        1:0        1:0       0.991
   599        1:0        1:0       0.991
   600        1:0        1:0       0.991
   601        1:0        1:0       0.991
   602        1:0        1:0       0.991
   603        1:0        1:0       0.991
   604        1:0        1:0       0.991
   605        1:0        1:0       0.991
   606        1:0        1:0       0.991
   607        1:0        1:0       0.991
   608        1:0        1:0       0.991
   609        1:0        1:0       0.991
   610        1:0        1:0       0.991
   611        1:0        1:0       0.991
   612        1:0        1:0       0.991
   613        1:0        1:0       0.991
   614        1:0        1:0       0.991
   615        1:0        1:0       0.991
   616        1:0        1:0       0.991
   617        1:0        1:0       0.991
   618        1:0        1:0       0.991
   619        1:0        1:0       0.991
   620        1:0        1:0       0.991
   621        1:0        1:0       0.991
   622        1:0        1:0       0.991
   623        1:0        1:0       0.991
   624        1:0        1:0       0.991
   625        1:0        1:0       0.991
   626        1:0        1:0       0.991
   627        1:0        1:0       0.991
   628        1:0        1:0       0.991
   629        1:0        1:0       0.991
   630        1:0        1:0       0.991
   631        1:0        1:0       0.991
   632        1:0        1:0       0.991
   633        1:0        1:0       0.991
   634        1:0        1:0       0.991
   635        1:0        1:0       0.991
   636        1:0        1:0       0.991
   637        1:0        1:0       0.991
   638        1:0        1:0       0.991
   639        1:0        1:0       0.991
   640        1:0        1:0       0.991
   641        1:0        1:0       0.991
   642        1:0        1:0       0.991
   643        1:0        1:0       0.991
   644        1:0        1:0       0.991
   645        1:0        1:0       0.991
   646        1:0        1:0       0.991
   647        1:0        1:0       0.991
   648        1:0        1:0       0.991
   649        1:0        1:0       0.991
   650        1:0        1:0       0.991
   651        1:0        1:0       0.991
   652        1:0        1:0       0.991
   653        1:0        1:0       0.991
   654        1:0        1:0       0.991
   655        1:0        1:0       0.991
   656        1:0        1:0       0.991
   657        1:0        1:0       0.991
   658        1:0        1:0       0.991
   659        1:0        1:0       0.991
   660        1:0        1:0       0.991
   661        1:0        1:0       0.991
   662        1:0        1:0       0.991
   663        1:0        1:0       0.991
