

=== Predictions on test data ===

 inst#     actual  predicted      error
     1      1          0.991     -0.009
     2      0.5        0.991      0.491
     3      0.5        0.505      0.005
     4      0.5        0.505      0.005
     5      0.5        0.505      0.005
     6      0.5        0.505      0.005
     7      0.5        0.505      0.005
     8      0.5        0.505      0.005
     9      0.5        0.571      0.071
    10      1          0.505     -0.495
    11      1          1.044      0.044
    12      1          0.991     -0.009
    13      1          0.991     -0.009
    14      1          0.991     -0.009
    15      1          0.991     -0.009
    16      1          0.991     -0.009
    17      1          0.991     -0.009
    18      1          0.991     -0.009
    19      1          0.991     -0.009
    20      1          0.991     -0.009
    21      1          0.991     -0.009
    22      1          0.991     -0.009
    23      1          0.991     -0.009
    24      1          0.991     -0.009
    25      1          0.991     -0.009
    26      2          0.5       -1.5  
    27      1.5        1.03      -0.47 
    28      1.5        1.03      -0.47 
    29      1.5        1.03      -0.47 
    30      1.5        1.03      -0.47 
    31      1.5        0.683     -0.817
    32      1.5        1.03      -0.47 
    33      1.5        1.03      -0.47 
    34      1.5        1.03      -0.47 
    35      1.5        1.03      -0.47 
    36      1          0.632     -0.368
    37      1          0.991     -0.009
    38      1          0.991     -0.009
    39      1          0.991     -0.009
    40      1          0.991     -0.009
    41      1          0.991     -0.009
    42      1          0.991     -0.009
    43      1          0.991     -0.009
    44      0.5        0.991      0.491
    45      0.5        0.505      0.005
    46      0.5        0.505      0.005
    47      0.5        0.505      0.005
    48      0.5        0.505      0.005
    49      0.5        0.505      0.005
    50      0.5        0.505      0.005
    51      0.5        0.505      0.005
    52      0.5        0.53       0.03 
    53      0.5        0.571      0.071
    54      0.5        0.514      0.014
    55      0.5        0.514      0.014
    56      0.5        0.514      0.014
    57      0.5        0.514      0.014
    58      0.5        0.514      0.014
    59      0.5        0.514      0.014
    60      0.5        0.514      0.014
    61      0.5        0.514      0.014
    62      0.5        0.514      0.014
    63      0.5        0.514      0.014
    64      0.5        0.53       0.03 
    65      0.5        0.53       0.03 
    66      0.5        0.53       0.03 
    67      0.5        0.53       0.03 
    68      1          0.53      -0.47 
    69      1          0.991     -0.009
    70      1          1.044      0.044
    71      1          1.044      0.044
    72      1          1.044      0.044
    73      1          1.044      0.044
    74      1          1.044      0.044
    75      1          1.044      0.044
    76      1          0.467     -0.533
    77      1          0.991     -0.009
    78      1          0.991     -0.009
    79      1          0.991     -0.009
    80      1          0.942     -0.058
    81      1          0.991     -0.009
    82      1          0.991     -0.009
    83      1          0.991     -0.009
    84      1          0.991     -0.009
    85      1          0.991     -0.009
    86      1          1.044      0.044
    87      1          1.044      0.044
    88      1          1.044      0.044
    89      1          1.044      0.044
    90      1          0.942     -0.058
    91      1          0.991     -0.009
    92      1          0.991     -0.009
    93      1          0.991     -0.009
    94      1          0.991     -0.009
    95      1          0.991     -0.009
    96      1          0.991     -0.009
    97      1          0.991     -0.009
    98      1          0.991     -0.009
    99      1          0.991     -0.009
   100      1          0.991     -0.009
   101      1          0.991     -0.009
   102      1          0.991     -0.009
   103      1          0.942     -0.058
   104      1          0.991     -0.009
   105      1          0.991     -0.009
   106      1          0.991     -0.009
   107      1          0.991     -0.009
   108      1          0.991     -0.009
   109      1          0.991     -0.009
   110      1          0.991     -0.009
   111      1          0.991     -0.009
   112      1          0.991     -0.009
   113      1          0.991     -0.009
   114      1          0.991     -0.009
   115      1          0.991     -0.009
   116      1          0.991     -0.009
   117      1          0.991     -0.009
   118      1          1.044      0.044
   119      1          1.044      0.044
   120      1          1.044      0.044
   121      1          1.044      0.044
   122      1          0.942     -0.058
   123      1          0.991     -0.009
   124      1          0.991     -0.009
   125      1          0.991     -0.009
   126      1          0.991     -0.009
   127      1          0.991     -0.009
   128      1          0.991     -0.009
   129      1          0.991     -0.009
   130      1          0.991     -0.009
   131      1          0.991     -0.009
   132      1          0.991     -0.009
   133      1          0.991     -0.009
   134      1          0.991     -0.009
   135      1          0.991     -0.009
   136      1          0.995     -0.005
   137      1          1.044      0.044
   138      1          0.991     -0.009
   139      1          0.991     -0.009
   140      1          0.991     -0.009
   141      1          0.991     -0.009
   142      1          0.991     -0.009
   143      1          0.991     -0.009
   144      1          0.991     -0.009
   145      1          0.991     -0.009
   146      1          0.991     -0.009
   147      1          0.991     -0.009
   148      1.5        1.044     -0.456
   149      1.5        0.467     -1.033
   150      1          1.03       0.03 
   151      1          0.991     -0.009
   152      1          0.991     -0.009
   153      1          0.942     -0.058
   154      1          0.991     -0.009
   155      1.5        0.516     -0.984
   156      1.5        1.083     -0.417
   157      1.5        1.03      -0.47 
   158      1.5        1.03      -0.47 
   159      1.5        1.083     -0.417
   160      1.5        1.03      -0.47 
   161      1.5        1.083     -0.417
   162      1.5        1.083     -0.417
   163      1.5        1.03      -0.47 
   164      1.5        1.03      -0.47 
   165      1.5        0.981     -0.519
   166      1.5        1.03      -0.47 
   167      1.5        1.083     -0.417
   168      1.5        1.03      -0.47 
   169      1.5        1.03      -0.47 
   170      1.5        1.03      -0.47 
   171      1.5        1.03      -0.47 
   172      1.5        1.03      -0.47 
   173      1.5        1.03      -0.47 
   174      1.5        1.03      -0.47 
   175      1.5        1.03      -0.47 
   176      1.5        1.03      -0.47 
   177      1.5        1.03      -0.47 
   178      1.5        1.03      -0.47 
   179      1.5        1.03      -0.47 
   180      1.5        1.083     -0.417
   181      1.5        1.03      -0.47 
   182      1.5        1.03      -0.47 
   183      1.5        1.083     -0.417
   184      1.25       1.03      -0.22 
   185      1.25       1.083     -0.167
   186      1.25       1.083     -0.167
   187      1.25       1.03      -0.22 
   188      1.25       1.03      -0.22 
   189      1.25       0.981     -0.269
   190      1.25       1.03      -0.22 
   191      1.25       1.083     -0.167
   192      1.25       1.03      -0.22 
   193      1.25       1.03      -0.22 
   194      1.25       1.03      -0.22 
   195      1.25       1.03      -0.22 
   196      1          1.03       0.03 
   197      1          1.044      0.044
   198      1          0.991     -0.009
   199      1          0.991     -0.009
   200      1          0.991     -0.009
   201      1          1.044      0.044
   202      1          0.991     -0.009
   203      1          0.991     -0.009
   204      1          0.991     -0.009
   205      1          1.044      0.044
   206      1          0.991     -0.009
   207      1          0.991     -0.009
   208      1          0.991     -0.009
   209      1          0.991     -0.009
   210      1          0.991     -0.009
   211      1          0.991     -0.009
   212      1          0.991     -0.009
   213      1          0.991     -0.009
   214      1.5        0.995     -0.505
   215      1.5        1.03      -0.47 
   216      1.5        1.03      -0.47 
   217      1.5        1.03      -0.47 
   218      1.5        1.03      -0.47 
   219      1.5        1.03      -0.47 
   220      1.5        1.03      -0.47 
   221      1.5        1.083     -0.417
   222      1.5        1.03      -0.47 
   223      1.5        1.03      -0.47 
   224      1.5        1.03      -0.47 
   225      1.5        1.083     -0.417
   226      1          1.03       0.03 
   227      1.25       0.991     -0.259
   228      1.25       1.03      -0.22 
   229      1.25       1.03      -0.22 
   230      1.25       1.03      -0.22 
   231      1.25       1.03      -0.22 
   232      1.25       1.03      -0.22 
   233      1.25       1.03      -0.22 
   234      1.25       1.03      -0.22 
   235      1.25       1.03      -0.22 
   236      1.25       1.083     -0.167
   237      1.25       1.03      -0.22 
   238      1          1.03       0.03 
   239      1          0.991     -0.009
   240      1          0.991     -0.009
   241      1          0.991     -0.009
   242      1          0.991     -0.009
   243      1          0.991     -0.009
   244      1          0.991     -0.009
   245      1          0.991     -0.009
   246      1          0.991     -0.009
   247      1          1.044      0.044
   248      1          0.991     -0.009
   249      1          0.991     -0.009
   250      1          0.991     -0.009
   251      1          0.991     -0.009
   252      1          0.991     -0.009
   253      1          0.991     -0.009
   254      1          0.991     -0.009
   255      1          0.991     -0.009
   256      1          0.991     -0.009
   257      1          0.991     -0.009
   258      1          0.991     -0.009
   259      1          0.942     -0.058
   260      1          0.991     -0.009
   261      1          0.991     -0.009
   262      1          0.991     -0.009
   263      1          0.991     -0.009
   264      1          0.991     -0.009
   265      1          0.942     -0.058
   266      1          0.991     -0.009
   267      1          0.991     -0.009
   268      1          0.991     -0.009
   269      1          0.991     -0.009
   270      1          0.991     -0.009
   271      1          0.942     -0.058
   272      1          0.991     -0.009
   273      0.5        0.991      0.491
   274      0.75       0.516     -0.234
   275      0.75       0.782      0.032
   276      0.75       0.782      0.032
   277      0.75       0.491     -0.259
   278      0.75       0.782      0.032
   279      0.75       0.782      0.032
   280      0.75       0.516     -0.234
   281      0.75       0.782      0.032
   282      0.75       0.782      0.032
   283      0.75       0.516     -0.234
   284      0.75       0.782      0.032
   285      0.75       0.782      0.032
   286      0.75       0.782      0.032
   287      0.75       0.733     -0.017
   288      0.75       0.733     -0.017
   289      0.5        0.782      0.282
   290      0.5        0.505      0.005
   291      0.5        0.505      0.005
   292      0.5        0.505      0.005
   293      0.5        0.505      0.005
   294      0.5        0.505      0.005
   295      0.5        0.505      0.005
   296      0.5        0.505      0.005
   297      0.5        0.505      0.005
   298      0.5        0.505      0.005
   299      0.5        0.505      0.005
   300      0.5        0.505      0.005
   301      0.5        0.505      0.005
   302      0.5        0.505      0.005
   303      0.5        0.505      0.005
   304      0.5        0.505      0.005
   305      0.5        0.505      0.005
   306      0.5        0.505      0.005
   307      0.5        0.505      0.005
   308      0.5        0.505      0.005
   309      0.5        0.505      0.005
   310      0.5        0.505      0.005
   311      0.5        0.505      0.005
   312      0.5        0.505      0.005
   313      0.5        0.505      0.005
   314      0.25       0.505      0.255
   315      0.25       0.467      0.217
   316      0.25       0.467      0.217
   317      0.25       0.467      0.217
   318      0.5        0.466     -0.034
   319      1          0.521     -0.479
   320      1          0.991     -0.009
   321      1          0.991     -0.009
   322      0.75       0.991      0.241
   323      0.75       0.732     -0.018
   324      1          0.732     -0.268
   325      1          1.044      0.044
   326      1          0.991     -0.009
   327      1          0.991     -0.009
   328      1          0.991     -0.009
   329      1          0.991     -0.009
   330      1          0.991     -0.009
   331      1          1.044      0.044
   332      1          0.991     -0.009
   333      1          0.991     -0.009
   334      1.25       0.942     -0.308
   335      1.25       1.03      -0.22 
   336      1          0.466     -0.534
   337      1          0.991     -0.009
   338      1          0.991     -0.009
   339      1          0.582     -0.418
   340      1          1.044      0.044
   341      1          0.942     -0.058
   342      1          0.582     -0.418
   343      1          0.991     -0.009
   344      1          0.942     -0.058
   345      1          0.583     -0.417
   346      1          0.991     -0.009
   347      1          0.942     -0.058
   348      1          0.608     -0.392
   349      1          0.991     -0.009
   350      1          0.942     -0.058
   351      1          0.633     -0.367
   352      1          0.991     -0.009
   353      1          0.995     -0.005
   354      1          0.633     -0.367
   355      1          0.991     -0.009
   356      1          0.942     -0.058
   357      1          0.633     -0.367
   358      1          0.991     -0.009
   359      1          0.942     -0.058
   360      1          0.633     -0.367
   361      1          0.991     -0.009
   362      1          0.942     -0.058
   363      1          1.044      0.044
   364      1          1.044      0.044
   365      1          1.044      0.044
   366      1          1.044      0.044
   367      1          0.991     -0.009
   368      1          0.991     -0.009
   369      1          0.991     -0.009
   370      1          0.991     -0.009
   371      1          0.991     -0.009
   372      1.75       0.991     -0.759
   373      1.75       1.03      -0.72 
   374      1.75       1.03      -0.72 
   375      1.75       1.03      -0.72 
   376      1.75       1.03      -0.72 
   377      1.75       1.083     -0.667
   378      1.75       1.03      -0.72 
   379      1.5        1.03      -0.47 
   380      1.5        1.03      -0.47 
   381      1.5        1.03      -0.47 
   382      1.5        1.03      -0.47 
   383      1.5        1.03      -0.47 
   384      1.5        1.083     -0.417
   385      1.5        1.03      -0.47 
   386      1.5        1.03      -0.47 
   387      1.25       1.03      -0.22 
   388      1.25       1.03      -0.22 
   389      1.5        1.03      -0.47 
   390      1.5        1.03      -0.47 
   391      1.5        1.03      -0.47 
   392      1.5        1.083     -0.417
   393      1.5        1.03      -0.47 
   394      1.5        1.03      -0.47 
   395      1.5        1.03      -0.47 
   396      1.25       1.03      -0.22 
   397      1.25       1.03      -0.22 
   398      1.25       1.03      -0.22 
   399      1.25       1.083     -0.167
   400      1.25       1.03      -0.22 
   401      1.25       1.03      -0.22 
   402      1.25       1.03      -0.22 
   403      1.25       1.03      -0.22 
   404      1.25       1.03      -0.22 
   405      1.75       1.03      -0.72 
   406      1.75       1.03      -0.72 
   407      1.75       1.03      -0.72 
   408      1.75       1.083     -0.667
   409      1.75       1.03      -0.72 
   410      1.75       1.03      -0.72 
   411      1.5        1.03      -0.47 
   412      1.5        1.03      -0.47 
   413      1.5        1.03      -0.47 
   414      1.5        1.03      -0.47 
   415      1.5        1.083     -0.417
   416      1.5        1.03      -0.47 
   417      1.5        1.03      -0.47 
   418      1          1.03       0.03 
   419      1          0.991     -0.009
   420      1          0.991     -0.009
   421      1.5        1.044     -0.456
   422      1.5        1.03      -0.47 
   423      1.5        1.083     -0.417
   424      1.5        1.03      -0.47 
   425      1.5        1.03      -0.47 
   426      1.5        1.03      -0.47 
   427      1.5        1.03      -0.47 
   428      1          1.03       0.03 
   429      1          0.991     -0.009
   430      1          1.044      0.044
   431      1          0.991     -0.009
   432      1          0.991     -0.009
   433      1          0.991     -0.009
   434      1          0.991     -0.009
   435      0.75       0.991      0.241
   436      1          0.441     -0.559
   437      1          0.991     -0.009
   438      1          0.991     -0.009
   439      1          0.583     -0.417
   440      1          0.991     -0.009
   441      1          0.995     -0.005
   442      1          0.583     -0.417
   443      1          1.044      0.044
   444      1          0.942     -0.058
   445      1          0.583     -0.417
   446      1          0.991     -0.009
   447      1          0.942     -0.058
   448      1          0.583     -0.417
   449      1          0.991     -0.009
   450      1          0.995     -0.005
   451      0.75       0.583     -0.167
   452      0.75       0.732     -0.018
   453      0.75       0.705     -0.045
   454      0.5        0.583      0.083
   455      0.5        0.505      0.005
   456      0.5        0.521      0.021
   457      0.5        0.583      0.083
   458      0.5        0.505      0.005
   459      0.5        0.521      0.021
   460      0.5        0.633      0.133
   461      0.5        0.555      0.055
   462      0.5        0.571      0.071
   463      1          0.632     -0.368
   464      1          0.991     -0.009
   465      1          0.942     -0.058
   466      1          0.991     -0.009
   467      1          0.991     -0.009
   468      1          0.991     -0.009
   469      1          0.991     -0.009
   470      1          0.991     -0.009
   471      1          0.991     -0.009
   472      1          0.991     -0.009
   473      1          0.991     -0.009
   474      1          0.991     -0.009
   475      1          0.991     -0.009
   476      1          0.991     -0.009
   477      1          0.991     -0.009
   478      1          0.991     -0.009
   479      1          0.991     -0.009
   480      1          0.991     -0.009
   481      1          0.991     -0.009
   482      1          0.991     -0.009
   483      0.5        0.991      0.491
   484      0.5        0.505      0.005
   485      0.5        0.505      0.005
   486      0.5        0.505      0.005
   487      0.5        0.505      0.005
   488      0.5        0.505      0.005
   489      1          0.505     -0.495
   490      1          1.044      0.044
   491      1          1.044      0.044
   492      1          1.044      0.044
   493      1          1.044      0.044
   494      1          1.044      0.044
   495      1          1.044      0.044
   496      1          1.044      0.044
   497      1          1.044      0.044
   498      1          1.044      0.044
   499      1          1.044      0.044
   500      1          1.044      0.044
   501      1          0.5       -0.5  
   502      1          0.991     -0.009
   503      1          0.991     -0.009
   504      1          0.991     -0.009
   505      1          0.991     -0.009
   506      1.5        0.683     -0.817
   507      1.5        1.03      -0.47 
   508      1.55       1.03      -0.52 
   509      1.5        1.03      -0.47 
   510      1.5        1.03      -0.47 
   511      1          0.632     -0.368
   512      1          0.991     -0.009
   513      1          0.991     -0.009
   514      1          0.991     -0.009
   515      1          0.991     -0.009
   516      1          0.991     -0.009
   517      0.5        0.991      0.491
   518      0.5        0.505      0.005
   519      0.5        0.505      0.005
   520      0.5        0.505      0.005
   521      0.5        0.505      0.005
   522      0.5        0.505      0.005
   523      0.5        0.505      0.005
   524      0.5        0.505      0.005
   525      0.5        0.505      0.005
   526      0.5        0.505      0.005
   527      0.5        0.53       0.03 
   528      0.5        0.571      0.071
   529      0.5        0.514      0.014
   530      0.5        0.514      0.014
   531      0.5        0.514      0.014
   532      0.5        0.514      0.014
   533      0.5        0.514      0.014
   534      0.5        0.514      0.014
   535      0.5        0.514      0.014
   536      0.5        0.514      0.014
   537      0.5        0.514      0.014
   538      0.5        0.514      0.014
   539      0.5        0.53       0.03 
   540      0.5        0.53       0.03 
   541      0.5        0.53       0.03 
   542      0.5        0.53       0.03 
   543      0.5        0.53       0.03 
   544      1          0.571     -0.429
   545      1          1.044      0.044
   546      1          1.044      0.044
   547      1          1.044      0.044
   548      1          1.044      0.044
   549      1          1.044      0.044
   550      1          1.044      0.044
   551      1          1.044      0.044
   552      1          1.044      0.044
   553      1          1.044      0.044
   554      1          1.044      0.044
   555      1          1.044      0.044
   556      1          1.044      0.044
   557      1          1.044      0.044
   558      1          1.044      0.044
   559      0.5        0.467     -0.033
   560      0.5        0.505      0.005
   561      0.5        0.609      0.109
   562      0.5        0.505      0.005
   563      0.5        0.505      0.005
   564      0.5        0.505      0.005
   565      0.5        0.505      0.005
   566      0.5        0.505      0.005
   567      0.5        0.505      0.005
   568      0.5        0.505      0.005
   569      0.5        0.505      0.005
   570      0.5        0.505      0.005
   571      0.5        0.505      0.005
   572      0.5        0.505      0.005
   573      0.5        0.505      0.005
   574      0.5        0.505      0.005
   575      0.5        0.505      0.005
   576      0.5        0.505      0.005
   577      0.5        0.505      0.005
   578      0.5        0.505      0.005
   579      0.5        0.53       0.03 
   580      0.5        0.53       0.03 
   581      0.5        0.514      0.014
   582      0.5        0.514      0.014
   583      0.5        0.514      0.014
   584      0.5        0.514      0.014
   585      0.5        0.514      0.014
   586      0.5        0.514      0.014
   587      0.5        0.514      0.014
   588      0.5        0.514      0.014
   589      0.5        0.514      0.014
   590      0.5        0.514      0.014
   591      0.5        0.514      0.014
   592      0.5        0.514      0.014
   593      0.5        0.505      0.005
   594      0.5        0.505      0.005
   595      0.5        0.505      0.005
   596      1          0.467     -0.533
   597      1          0.991     -0.009
   598      1          0.991     -0.009
   599      1          0.991     -0.009
   600      1          0.991     -0.009
   601      1          0.991     -0.009
   602      1          0.991     -0.009
   603      1          0.991     -0.009
   604      1          0.991     -0.009
   605      1          0.991     -0.009
   606      1          0.991     -0.009
   607      1          0.991     -0.009
   608      1          0.991     -0.009
   609      1          0.991     -0.009
   610      1          0.991     -0.009
   611      1          0.991     -0.009
   612      1          1.044      0.044
   613      1          1.044      0.044
   614      1          1.044      0.044
   615      1          1.044      0.044
   616      1          1.044      0.044
   617      1          1.044      0.044
   618      1          1.044      0.044
   619      1          1.044      0.044
   620      1          0.991     -0.009
   621      1          0.991     -0.009
   622      1          0.991     -0.009
   623      1          0.991     -0.009
   624      1          0.991     -0.009
   625      1          0.991     -0.009
   626      1          0.991     -0.009
   627      1          0.991     -0.009
   628      1          0.991     -0.009
   629      1          0.991     -0.009
   630      1          0.991     -0.009
   631      1          0.991     -0.009
   632      1          0.991     -0.009
   633      1          0.991     -0.009
   634      1          0.991     -0.009
   635      1          0.991     -0.009
   636      1          0.991     -0.009
   637      1          0.991     -0.009
   638      1          0.991     -0.009
   639      1          0.991     -0.009
   640      1          0.942     -0.058
   641      1          0.991     -0.009
   642      1          0.991     -0.009
   643      1          0.991     -0.009
   644      0.75       1.044      0.294
   645      0.75       0.733     -0.017
   646      0.75       0.733     -0.017
   647      0.75       0.733     -0.017
   648      0.75       0.706     -0.044
   649      0.75       0.733     -0.017
   650      0.75       0.733     -0.017
   651      0.75       0.733     -0.017
   652      0.75       0.733     -0.017
   653      0.75       0.733     -0.017
   654      0.75       0.733     -0.017
   655      0.75       0.733     -0.017
   656      0.75       0.733     -0.017
   657      0.75       0.733     -0.017
   658      0.75       0.733     -0.017
   659      0.75       0.733     -0.017
   660      0.75       0.733     -0.017
   661      0.75       0.733     -0.017
   662      0.75       0.733     -0.017
   663      0.75       0.733     -0.017
