

=== Predictions on test data ===

 inst#     actual  predicted      error
     1      1          1.003      0.003
     2      0.5        1.003      0.503
     3      0.5        0.504      0.004
     4      0.5        0.504      0.004
     5      0.5        0.504      0.004
     6      0.5        0.504      0.004
     7      0.5        0.504      0.004
     8      0.5        0.504      0.004
     9      0.5        0.504      0.004
    10      1          0.504     -0.496
    11      1          1.003      0.003
    12      1          1.003      0.003
    13      1          1.003      0.003
    14      1          1.003      0.003
    15      1          1.003      0.003
    16      1          1.003      0.003
    17      1          1.003      0.003
    18      1          1.003      0.003
    19      1          1.003      0.003
    20      1          1.003      0.003
    21      1          1.003      0.003
    22      1          1.003      0.003
    23      1          1.003      0.003
    24      1          1.003      0.003
    25      1          1.003      0.003
    26      2          0.504     -1.496
    27      1.5        1.003     -0.497
    28      1.5        1.003     -0.497
    29      1.5        1.003     -0.497
    30      1.5        1.003     -0.497
    31      1.5        0.504     -0.996
    32      1.5        1.003     -0.497
    33      1.5        0.667     -0.833
    34      1.5        1.003     -0.497
    35      1.5        1.003     -0.497
    36      1          0.504     -0.496
    37      1          1.003      0.003
    38      1          0.667     -0.333
    39      1          1.003      0.003
    40      1          1.003      0.003
    41      1          1.003      0.003
    42      1          1.003      0.003
    43      1          1.003      0.003
    44      0.5        1.003      0.503
    45      0.5        0.504      0.004
    46      0.5        0.504      0.004
    47      0.5        0.504      0.004
    48      0.5        0.504      0.004
    49      0.5        0.504      0.004
    50      0.5        0.504      0.004
    51      0.5        0.504      0.004
    52      0.5        0.504      0.004
    53      0.5        0.504      0.004
    54      0.5        0.504      0.004
    55      0.5        0.504      0.004
    56      0.5        0.504      0.004
    57      0.5        0.504      0.004
    58      0.5        0.504      0.004
    59      0.5        0.504      0.004
    60      0.5        0.504      0.004
    61      0.5        0.504      0.004
    62      0.5        0.504      0.004
    63      0.5        0.504      0.004
    64      0.5        0.504      0.004
    65      0.5        0.504      0.004
    66      0.5        0.504      0.004
    67      0.5        0.504      0.004
    68      1          0.504     -0.496
    69      1          1.003      0.003
    70      1          1.003      0.003
    71      1          1.003      0.003
    72      1          1.003      0.003
    73      1          1.003      0.003
    74      1          1.003      0.003
    75      1          1.003      0.003
    76      1          0.504     -0.496
    77      1          1.003      0.003
    78      1          1.003      0.003
    79      1          1.003      0.003
    80      1          0.667     -0.333
    81      1          1.003      0.003
    82      1          1.003      0.003
    83      1          1.003      0.003
    84      1          1.003      0.003
    85      1          1.003      0.003
    86      1          1.003      0.003
    87      1          1.003      0.003
    88      1          1.003      0.003
    89      1          1.003      0.003
    90      1          0.667     -0.333
    91      1          1.003      0.003
    92      1          1.003      0.003
    93      1          1.003      0.003
    94      1          1.003      0.003
    95      1          1.003      0.003
    96      1          1.003      0.003
    97      1          1.003      0.003
    98      1          1.003      0.003
    99      1          1.003      0.003
   100      1          1.003      0.003
   101      1          1.003      0.003
   102      1          1.003      0.003
   103      1          0.667     -0.333
   104      1          1.003      0.003
   105      1          1.003      0.003
   106      1          1.003      0.003
   107      1          1.003      0.003
   108      1          1.003      0.003
   109      1          1.003      0.003
   110      1          1.003      0.003
   111      1          1.003      0.003
   112      1          1.003      0.003
   113      1          1.003      0.003
   114      1          1.003      0.003
   115      1          1.003      0.003
   116      1          1.003      0.003
   117      1          1.003      0.003
   118      1          1.003      0.003
   119      1          1.003      0.003
   120      1          1.003      0.003
   121      1          1.003      0.003
   122      1          0.667     -0.333
   123      1          1.003      0.003
   124      1          1.003      0.003
   125      1          1.003      0.003
   126      1          1.003      0.003
   127      1          1.003      0.003
   128      1          1.003      0.003
   129      1          1.003      0.003
   130      1          1.003      0.003
   131      1          1.003      0.003
   132      1          1.003      0.003
   133      1          1.003      0.003
   134      1          1.003      0.003
   135      1          1.003      0.003
   136      1          0.667     -0.333
   137      1          1.003      0.003
   138      1          1.003      0.003
   139      1          1.003      0.003
   140      1          1.003      0.003
   141      1          1.003      0.003
   142      1          1.003      0.003
   143      1          1.003      0.003
   144      1          0.667     -0.333
   145      1          1.003      0.003
   146      1          1.003      0.003
   147      1          1.003      0.003
   148      1.5        0.667     -0.833
   149      1.5        0.504     -0.996
   150      1          1.003      0.003
   151      1          1.003      0.003
   152      1          1.003      0.003
   153      1          0.667     -0.333
   154      1          1.003      0.003
   155      1.5        0.504     -0.996
   156      1.5        1.003     -0.497
   157      1.5        1.003     -0.497
   158      1.5        1.003     -0.497
   159      1.5        1.003     -0.497
   160      1.5        1.003     -0.497
   161      1.5        0.667     -0.833
   162      1.5        0.667     -0.833
   163      1.5        1.003     -0.497
   164      1.5        0.667     -0.833
   165      1.5        0.667     -0.833
   166      1.5        1.003     -0.497
   167      1.5        0.667     -0.833
   168      1.5        1.003     -0.497
   169      1.5        0.667     -0.833
   170      1.5        1.003     -0.497
   171      1.5        1.003     -0.497
   172      1.5        0.667     -0.833
   173      1.5        0.667     -0.833
   174      1.5        1.003     -0.497
   175      1.5        1.003     -0.497
   176      1.5        1.003     -0.497
   177      1.5        1.003     -0.497
   178      1.5        1.003     -0.497
   179      1.5        1.003     -0.497
   180      1.5        1.003     -0.497
   181      1.5        1.003     -0.497
   182      1.5        1.003     -0.497
   183      1.5        1.003     -0.497
   184      1.25       1.003     -0.247
   185      1.25       0.667     -0.583
   186      1.25       0.667     -0.583
   187      1.25       1.003     -0.247
   188      1.25       0.667     -0.583
   189      1.25       0.667     -0.583
   190      1.25       1.003     -0.247
   191      1.25       0.667     -0.583
   192      1.25       1.003     -0.247
   193      1.25       0.667     -0.583
   194      1.25       1.003     -0.247
   195      1.25       1.003     -0.247
   196      1          0.667     -0.333
   197      1          1.003      0.003
   198      1          0.667     -0.333
   199      1          1.003      0.003
   200      1          1.003      0.003
   201      1          1.003      0.003
   202      1          1.003      0.003
   203      1          1.003      0.003
   204      1          1.003      0.003
   205      1          1.003      0.003
   206      1          1.003      0.003
   207      1          1.003      0.003
   208      1          1.003      0.003
   209      1          1.003      0.003
   210      1          1.003      0.003
   211      1          1.003      0.003
   212      1          1.003      0.003
   213      1          1.003      0.003
   214      1.5        0.667     -0.833
   215      1.5        0.667     -0.833
   216      1.5        1.003     -0.497
   217      1.5        0.667     -0.833
   218      1.5        1.003     -0.497
   219      1.5        1.003     -0.497
   220      1.5        1.003     -0.497
   221      1.5        1.003     -0.497
   222      1.5        1.003     -0.497
   223      1.5        1.003     -0.497
   224      1.5        1.003     -0.497
   225      1.5        1.003     -0.497
   226      1          0.667     -0.333
   227      1.25       0.667     -0.583
   228      1.25       1.003     -0.247
   229      1.25       1.003     -0.247
   230      1.25       0.667     -0.583
   231      1.25       1.003     -0.247
   232      1.25       1.003     -0.247
   233      1.25       1.003     -0.247
   234      1.25       1.003     -0.247
   235      1.25       1.003     -0.247
   236      1.25       1.003     -0.247
   237      1.25       1.003     -0.247
   238      1          0.667     -0.333
   239      1          1.003      0.003
   240      1          1.003      0.003
   241      1          0.667     -0.333
   242      1          1.003      0.003
   243      1          1.003      0.003
   244      1          1.003      0.003
   245      1          1.003      0.003
   246      1          1.003      0.003
   247      1          1.003      0.003
   248      1          1.003      0.003
   249      1          1.003      0.003
   250      1          1.003      0.003
   251      1          1.003      0.003
   252      1          0.667     -0.333
   253      1          0.667     -0.333
   254      1          1.003      0.003
   255      1          1.003      0.003
   256      1          1.003      0.003
   257      1          1.003      0.003
   258      1          1.003      0.003
   259      1          0.667     -0.333
   260      1          1.003      0.003
   261      1          1.003      0.003
   262      1          0.667     -0.333
   263      1          1.003      0.003
   264      1          1.003      0.003
   265      1          0.667     -0.333
   266      1          1.003      0.003
   267      1          1.003      0.003
   268      1          0.667     -0.333
   269      1          1.003      0.003
   270      1          1.003      0.003
   271      1          0.667     -0.333
   272      1          1.003      0.003
   273      0.5        1.003      0.503
   274      0.75       0.504     -0.246
   275      0.75       0.76       0.01 
   276      0.75       0.76       0.01 
   277      0.75       0.504     -0.246
   278      0.75       0.76       0.01 
   279      0.75       0.76       0.01 
   280      0.75       0.504     -0.246
   281      0.75       0.76       0.01 
   282      0.75       0.76       0.01 
   283      0.75       0.504     -0.246
   284      0.75       0.76       0.01 
   285      0.75       0.76       0.01 
   286      0.75       0.76       0.01 
   287      0.75       0.76       0.01 
   288      0.75       0.76       0.01 
   289      0.5        0.76       0.26 
   290      0.5        0.504      0.004
   291      0.5        0.504      0.004
   292      0.5        0.504      0.004
   293      0.5        0.504      0.004
   294      0.5        0.504      0.004
   295      0.5        0.504      0.004
   296      0.5        0.504      0.004
   297      0.5        0.504      0.004
   298      0.5        0.504      0.004
   299      0.5        0.504      0.004
   300      0.5        0.504      0.004
   301      0.5        0.504      0.004
   302      0.5        0.504      0.004
   303      0.5        0.504      0.004
   304      0.5        0.504      0.004
   305      0.5        0.504      0.004
   306      0.5        0.504      0.004
   307      0.5        0.504      0.004
   308      0.5        0.504      0.004
   309      0.5        0.504      0.004
   310      0.5        0.504      0.004
   311      0.5        0.504      0.004
   312      0.5        0.504      0.004
   313      0.5        0.504      0.004
   314      0.25       0.504      0.254
   315      0.25       0.504      0.254
   316      0.25       0.504      0.254
   317      0.25       0.504      0.254
   318      0.5        0.504      0.004
   319      1          0.504     -0.496
   320      1          1.003      0.003
   321      1          1.003      0.003
   322      0.75       1.003      0.253
   323      0.75       0.76       0.01 
   324      1          0.76      -0.24 
   325      1          1.003      0.003
   326      1          0.667     -0.333
   327      1          1.003      0.003
   328      1          1.003      0.003
   329      1          1.003      0.003
   330      1          0.667     -0.333
   331      1          1.003      0.003
   332      1          1.003      0.003
   333      1          1.003      0.003
   334      1.25       0.667     -0.583
   335      1.25       1.003     -0.247
   336      1          0.504     -0.496
   337      1          1.003      0.003
   338      1          1.003      0.003
   339      1          0.504     -0.496
   340      1          1.003      0.003
   341      1          0.667     -0.333
   342      1          0.504     -0.496
   343      1          1.003      0.003
   344      1          0.667     -0.333
   345      1          0.504     -0.496
   346      1          1.003      0.003
   347      1          0.667     -0.333
   348      1          0.504     -0.496
   349      1          1.003      0.003
   350      1          0.667     -0.333
   351      1          0.504     -0.496
   352      1          1.003      0.003
   353      1          0.667     -0.333
   354      1          0.504     -0.496
   355      1          1.003      0.003
   356      1          0.667     -0.333
   357      1          0.504     -0.496
   358      1          1.003      0.003
   359      1          0.667     -0.333
   360      1          0.504     -0.496
   361      1          1.003      0.003
   362      1          0.667     -0.333
   363      1          1.003      0.003
   364      1          1.003      0.003
   365      1          1.003      0.003
   366      1          1.003      0.003
   367      1          1.003      0.003
   368      1          1.003      0.003
   369      1          1.003      0.003
   370      1          1.003      0.003
   371      1          1.003      0.003
   372      1.75       1.003     -0.747
   373      1.75       1.003     -0.747
   374      1.75       1.003     -0.747
   375      1.75       1.003     -0.747
   376      1.75       1.003     -0.747
   377      1.75       1.003     -0.747
   378      1.75       1.003     -0.747
   379      1.5        1.003     -0.497
   380      1.5        1.003     -0.497
   381      1.5        1.003     -0.497
   382      1.5        1.003     -0.497
   383      1.5        1.003     -0.497
   384      1.5        1.003     -0.497
   385      1.5        1.003     -0.497
   386      1.5        1.003     -0.497
   387      1.25       1.003     -0.247
   388      1.25       1.003     -0.247
   389      1.5        1.003     -0.497
   390      1.5        1.003     -0.497
   391      1.5        1.003     -0.497
   392      1.5        1.003     -0.497
   393      1.5        1.003     -0.497
   394      1.5        1.003     -0.497
   395      1.5        1.003     -0.497
   396      1.25       1.003     -0.247
   397      1.25       1.003     -0.247
   398      1.25       1.003     -0.247
   399      1.25       1.003     -0.247
   400      1.25       1.003     -0.247
   401      1.25       1.003     -0.247
   402      1.25       1.003     -0.247
   403      1.25       1.003     -0.247
   404      1.25       1.003     -0.247
   405      1.75       1.003     -0.747
   406      1.75       1.003     -0.747
   407      1.75       1.003     -0.747
   408      1.75       1.003     -0.747
   409      1.75       1.003     -0.747
   410      1.75       1.003     -0.747
   411      1.5        1.003     -0.497
   412      1.5        1.003     -0.497
   413      1.5        1.003     -0.497
   414      1.5        1.003     -0.497
   415      1.5        1.003     -0.497
   416      1.5        1.003     -0.497
   417      1.5        1.003     -0.497
   418      1          1.003      0.003
   419      1          1.003      0.003
   420      1          1.003      0.003
   421      1.5        1.003     -0.497
   422      1.5        1.003     -0.497
   423      1.5        1.003     -0.497
   424      1.5        1.003     -0.497
   425      1.5        1.003     -0.497
   426      1.5        1.003     -0.497
   427      1.5        1.003     -0.497
   428      1          1.003      0.003
   429      1          1.003      0.003
   430      1          1.003      0.003
   431      1          1.003      0.003
   432      1          1.003      0.003
   433      1          1.003      0.003
   434      1          1.003      0.003
   435      0.75       1.003      0.253
   436      1          0.504     -0.496
   437      1          1.003      0.003
   438      1          1.003      0.003
   439      1          0.504     -0.496
   440      1          1.003      0.003
   441      1          0.667     -0.333
   442      1          0.504     -0.496
   443      1          1.003      0.003
   444      1          0.667     -0.333
   445      1          0.504     -0.496
   446      1          1.003      0.003
   447      1          0.667     -0.333
   448      1          0.504     -0.496
   449      1          1.003      0.003
   450      1          0.667     -0.333
   451      0.75       0.504     -0.246
   452      0.75       0.76       0.01 
   453      0.75       0.76       0.01 
   454      0.5        0.504      0.004
   455      0.5        0.504      0.004
   456      0.5        0.504      0.004
   457      0.5        0.504      0.004
   458      0.5        0.504      0.004
   459      0.5        0.504      0.004
   460      0.5        0.504      0.004
   461      0.5        0.504      0.004
   462      0.5        0.504      0.004
   463      1          0.504     -0.496
   464      1          1.003      0.003
   465      1          0.667     -0.333
   466      1          1.003      0.003
   467      1          1.003      0.003
   468      1          1.003      0.003
   469      1          1.003      0.003
   470      1          1.003      0.003
   471      1          1.003      0.003
   472      1          1.003      0.003
   473      1          1.003      0.003
   474      1          1.003      0.003
   475      1          1.003      0.003
   476      1          1.003      0.003
   477      1          1.003      0.003
   478      1          1.003      0.003
   479      1          1.003      0.003
   480      1          1.003      0.003
   481      1          1.003      0.003
   482      1          1.003      0.003
   483      0.5        1.003      0.503
   484      0.5        0.504      0.004
   485      0.5        0.504      0.004
   486      0.5        0.504      0.004
   487      0.5        0.504      0.004
   488      0.5        0.504      0.004
   489      1          0.504     -0.496
   490      1          1.003      0.003
   491      1          1.003      0.003
   492      1          1.003      0.003
   493      1          1.003      0.003
   494      1          1.003      0.003
   495      1          1.003      0.003
   496      1          1.003      0.003
   497      1          1.003      0.003
   498      1          1.003      0.003
   499      1          1.003      0.003
   500      1          1.003      0.003
   501      1          0.504     -0.496
   502      1          1.003      0.003
   503      1          1.003      0.003
   504      1          1.003      0.003
   505      1          1.003      0.003
   506      1.5        0.504     -0.996
   507      1.5        1.003     -0.497
   508      1.55       0.667     -0.883
   509      1.5        1.003     -0.497
   510      1.5        1.003     -0.497
   511      1          0.504     -0.496
   512      1          1.003      0.003
   513      1          0.667     -0.333
   514      1          1.003      0.003
   515      1          1.003      0.003
   516      1          1.003      0.003
   517      0.5        1.003      0.503
   518      0.5        0.504      0.004
   519      0.5        0.504      0.004
   520      0.5        0.504      0.004
   521      0.5        0.504      0.004
   522      0.5        0.504      0.004
   523      0.5        0.504      0.004
   524      0.5        0.504      0.004
   525      0.5        0.504      0.004
   526      0.5        0.504      0.004
   527      0.5        0.504      0.004
   528      0.5        0.504      0.004
   529      0.5        0.504      0.004
   530      0.5        0.504      0.004
   531      0.5        0.504      0.004
   532      0.5        0.504      0.004
   533      0.5        0.504      0.004
   534      0.5        0.504      0.004
   535      0.5        0.504      0.004
   536      0.5        0.504      0.004
   537      0.5        0.504      0.004
   538      0.5        0.504      0.004
   539      0.5        0.504      0.004
   540      0.5        0.504      0.004
   541      0.5        0.504      0.004
   542      0.5        0.504      0.004
   543      0.5        0.504      0.004
   544      1          0.504     -0.496
   545      1          1.003      0.003
   546      1          1.003      0.003
   547      1          1.003      0.003
   548      1          1.003      0.003
   549      1          1.003      0.003
   550      1          1.003      0.003
   551      1          1.003      0.003
   552      1          1.003      0.003
   553      1          1.003      0.003
   554      1          1.003      0.003
   555      1          1.003      0.003
   556      1          1.003      0.003
   557      1          1.003      0.003
   558      1          1.003      0.003
   559      0.5        0.504      0.004
   560      0.5        0.504      0.004
   561      0.5        0.504      0.004
   562      0.5        0.504      0.004
   563      0.5        0.504      0.004
   564      0.5        0.504      0.004
   565      0.5        0.504      0.004
   566      0.5        0.504      0.004
   567      0.5        0.504      0.004
   568      0.5        0.504      0.004
   569      0.5        0.504      0.004
   570      0.5        0.504      0.004
   571      0.5        0.504      0.004
   572      0.5        0.504      0.004
   573      0.5        0.504      0.004
   574      0.5        0.504      0.004
   575      0.5        0.504      0.004
   576      0.5        0.504      0.004
   577      0.5        0.504      0.004
   578      0.5        0.504      0.004
   579      0.5        0.504      0.004
   580      0.5        0.504      0.004
   581      0.5        0.504      0.004
   582      0.5        0.504      0.004
   583      0.5        0.504      0.004
   584      0.5        0.504      0.004
   585      0.5        0.504      0.004
   586      0.5        0.504      0.004
   587      0.5        0.504      0.004
   588      0.5        0.504      0.004
   589      0.5        0.504      0.004
   590      0.5        0.504      0.004
   591      0.5        0.504      0.004
   592      0.5        0.504      0.004
   593      0.5        0.504      0.004
   594      0.5        0.504      0.004
   595      0.5        0.504      0.004
   596      1          0.504     -0.496
   597      1          1.003      0.003
   598      1          1.003      0.003
   599      1          1.003      0.003
   600      1          1.003      0.003
   601      1          1.003      0.003
   602      1          1.003      0.003
   603      1          1.003      0.003
   604      1          1.003      0.003
   605      1          1.003      0.003
   606      1          1.003      0.003
   607      1          1.003      0.003
   608      1          1.003      0.003
   609      1          1.003      0.003
   610      1          1.003      0.003
   611      1          1.003      0.003
   612      1          1.003      0.003
   613      1          1.003      0.003
   614      1          1.003      0.003
   615      1          1.003      0.003
   616      1          1.003      0.003
   617      1          1.003      0.003
   618      1          1.003      0.003
   619      1          1.003      0.003
   620      1          1.003      0.003
   621      1          1.003      0.003
   622      1          1.003      0.003
   623      1          1.003      0.003
   624      1          0.667     -0.333
   625      1          1.003      0.003
   626      1          1.003      0.003
   627      1          1.003      0.003
   628      1          1.003      0.003
   629      1          1.003      0.003
   630      1          1.003      0.003
   631      1          1.003      0.003
   632      1          1.003      0.003
   633      1          1.003      0.003
   634      1          1.003      0.003
   635      1          1.003      0.003
   636      1          1.003      0.003
   637      1          1.003      0.003
   638      1          1.003      0.003
   639      1          1.003      0.003
   640      1          0.667     -0.333
   641      1          1.003      0.003
   642      1          1.003      0.003
   643      1          1.003      0.003
   644      0.75       1.003      0.253
   645      0.75       0.76       0.01 
   646      0.75       0.76       0.01 
   647      0.75       0.76       0.01 
   648      0.75       0.76       0.01 
   649      0.75       0.76       0.01 
   650      0.75       0.76       0.01 
   651      0.75       0.76       0.01 
   652      0.75       0.76       0.01 
   653      0.75       0.76       0.01 
   654      0.75       0.76       0.01 
   655      0.75       0.76       0.01 
   656      0.75       0.76       0.01 
   657      0.75       0.76       0.01 
   658      0.75       0.76       0.01 
   659      0.75       0.76       0.01 
   660      0.75       0.76       0.01 
   661      0.75       0.76       0.01 
   662      0.75       0.76       0.01 
   663      0.75       0.76       0.01 
