

=== Predictions on test data ===

 inst#     actual  predicted      error
     1      0          0.952      0.952
     2      0          0.936      0.936
     3      0          0.919      0.919
     4      0          0.901      0.901
     5      0          0.982      0.982
     6      0          0.982      0.982
     7      0          0.982      0.982
     8      0          0.982      0.982
     9      0          0.982      0.982
    10      0          0.982      0.982
    11      0          1.002      1.002
    12      0          1.002      1.002
    13      0          0.993      0.993
    14      0          0.977      0.977
    15      0          0.942      0.942
    16      0          0.982      0.982
    17      0          0.982      0.982
    18      0          0.982      0.982
    19      0          0.982      0.982
    20      0          1.002      1.002
    21      0          0.982      0.982
    22      0          1.002      1.002
    23      0          1.002      1.002
    24      0          0.999      0.999
    25      0          0.977      0.977
    26      0          0.942      0.942
    27      0          0.977      0.977
    28      0          0.962      0.962
    29      0          0.996      0.996
    30      0          0.942      0.942
    31      0          0.996      0.996
    32      0          0.942      0.942
    33      0          1.002      1.002
    34      0          0.999      0.999
    35      0          0.999      0.999
    36      0          0.999      0.999
    37      0          0.993      0.993
    38      0          0.977      0.977
    39      0          0.942      0.942
    40      0          0.982      0.982
    41      2          0.982     -1.018
    42      2          1.699     -0.301
    43      2          1.837     -0.163
    44      2          1.823     -0.177
    45      2          1.633     -0.367
    46      2          1.769     -0.231
    47      2          1.735     -0.265
    48      2          1.68      -0.32 
    49      2          1.705     -0.295
    50      2          1.652     -0.348
    51      2          1.697     -0.303
    52      2          1.714     -0.286
    53      2          1.701     -0.299
    54      2          1.65      -0.35 
    55      2          1.788     -0.212
    56      2          1.573     -0.427
    57      2          1.71      -0.29 
    58      2          1.65      -0.35 
    59      2          1.693     -0.307
    60      2          1.691     -0.309
    61      2          1.705     -0.295
    62      2          1.715     -0.285
    63      2          1.697     -0.303
    64      2          1.628     -0.372
    65      2          1.72      -0.28 
    66      2          1.788     -0.212
    67      2          1.774     -0.226
    68      2          1.573     -0.427
    69      2          1.72      -0.28 
    70      2          1.65      -0.35 
    71      2          1.693     -0.307
    72      2          1.687     -0.313
    73      2          1.705     -0.295
    74      2          1.662     -0.338
    75      2          1.714     -0.286
    76      2          1.639     -0.361
    77      2          1.72      -0.28 
    78      2          1.788     -0.212
    79      2          1.774     -0.226
    80      2          1.614     -0.386
    81      2          1.685     -0.315
    82      2          1.65      -0.35 
    83      2          1.693     -0.307
    84      2          1.674     -0.326
    85      2          1.687     -0.313
    86      2          1.697     -0.303
    87      2          1.662     -0.338
    88      2          1.69      -0.31 
    89      2          1.703     -0.297
    90      2          1.788     -0.212
    91      2          1.788     -0.212
    92      2          1.573     -0.427
    93      2          1.71      -0.29 
    94      2          1.65      -0.35 
    95      2          1.693     -0.307
    96      2          1.705     -0.295
    97      2          1.652     -0.348
    98      2          1.642     -0.358
    99      2          1.731     -0.269
   100      2          1.69      -0.31 
   101      2          1.641     -0.359
   102      2          1.774     -0.226
   103      2          1.779     -0.221
   104      2          1.573     -0.427
   105      2          1.65      -0.35 
   106      2          1.685     -0.315
   107      2          1.662     -0.338
   108      2          1.714     -0.286
   109      2          1.687     -0.313
   110      2          1.642     -0.358
   111      2          1.721     -0.279
   112      2          1.697     -0.303
   113      2          1.681     -0.319
   114      2          1.788     -0.212
   115      2          1.788     -0.212
   116      2          1.553     -0.447
   117      2          1.685     -0.315
   118      2          1.703     -0.297
   119      2          1.662     -0.338
   120      2          1.714     -0.286
   121      2          1.652     -0.348
   122      2          1.652     -0.348
   123      2          1.714     -0.286
   124      2          1.697     -0.303
   125      2          1.691     -0.309
   126      2          1.788     -0.212
   127      2          1.774     -0.226
   128      2          1.594     -0.406
   129      1          1.685      0.685
   130      1          1.033      0.033
   131      1          1.032      0.032
   132      1          0.972     -0.028
   133      1          0.956     -0.044
   134      1          0.956     -0.044
   135      1          0.968     -0.032
   136      1          1.023      0.023
   137      1          1.023      0.023
   138      1          1.023      0.023
   139      1          1.023      0.023
   140      1          1.023      0.023
   141      1          1.023      0.023
   142      1          1.023      0.023
   143      1          1.023      0.023
   144      1          1.023      0.023
   145      1          1.023      0.023
   146      1          1.023      0.023
   147      2          1.023     -0.977
   148      2          1.77      -0.23 
   149      2          1.698     -0.302
   150      2          1.793     -0.207
   151      2          1.829     -0.171
   152      2          1.657     -0.343
   153      2          1.699     -0.301
   154      2          1.752     -0.248
   155      2          1.697     -0.303
   156      1          1.648      0.648
   157      1          0.983     -0.017
   158      1          0.983     -0.017
   159      1          0.968     -0.032
   160      1          1.039      0.039
   161      1          1.019      0.019
   162      1          1.019      0.019
   163      1          1.023      0.023
   164      2          1.023     -0.977
   165      2          1.734     -0.266
   166      2          1.752     -0.248
   167      2          1.68      -0.32 
   168      2          1.701     -0.299
   169      2          1.678     -0.322
   170      2          1.752     -0.248
   171      2          1.705     -0.295
   172      2          1.714     -0.286
   173      2          1.69      -0.31 
   174      2          1.765     -0.235
   175      2          1.78      -0.22 
   176      2          1.624     -0.376
   177      2          1.685     -0.315
   178      2          1.65      -0.35 
   179      2          1.731     -0.269
   180      2          1.714     -0.286
   181      2          1.629     -0.371
   182      1          1.71       0.71 
   183      1          1.029      0.029
   184      1          1.039      0.039
   185      1          1.019      0.019
   186      1          1.026      0.026
   187      1          1.019      0.019
   188      1          1.019      0.019
   189      1          1.023      0.023
   190      1          1.023      0.023
   191      1          1.023      0.023
   192      2          1.017     -0.983
   193      2          1.682     -0.318
   194      2          1.702     -0.298
   195      2          1.754     -0.246
   196      2          1.733     -0.267
   197      2          1.699     -0.301
   198      2          1.837     -0.163
   199      2          1.823     -0.177
   200      1          1.635      0.635
   201      1          1.026      0.026
   202      1          1.026      0.026
   203      1          1.029      0.029
   204      1          1.042      0.042
   205      2          0.997     -1.003
   206      2          1.652     -0.348
   207      2          1.695     -0.305
   208      2          1.723     -0.277
   209      1          1.699      0.699
   210      1          1.029      0.029
   211      1          1.033      0.033
   212      1          1.019      0.019
   213      1          1.026      0.026
   214      1          1.019      0.019
   215      1          1.019      0.019
   216      2          1.026     -0.974
   217      2          1.731     -0.269
   218      2          1.764     -0.236
   219      2          1.701     -0.299
   220      2          1.689     -0.311
   221      2          1.752     -0.248
   222      2          1.837     -0.163
   223      2          1.823     -0.177
   224      2          1.596     -0.404
   225      2          1.629     -0.371
   226      2          1.72      -0.28 
   227      2          1.646     -0.354
   228      2          1.662     -0.338
   229      2          1.701     -0.299
   230      2          1.685     -0.315
   231      2          1.64      -0.36 
   232      2          1.662     -0.338
   233      2          1.663     -0.337
   234      2          1.788     -0.212
   235      2          1.735     -0.265
   236      2          1.648     -0.352
   237      2          1.628     -0.372
   238      2          1.72      -0.28 
   239      2          1.663     -0.337
   240      1          1.714      0.714
   241      1          1.019      0.019
   242      1          1.026      0.026
   243      1          1.029      0.029
   244      1          1.039      0.039
   245      1          1.019      0.019
   246      1          1.019      0.019
   247      1          1.023      0.023
   248      1          1.023      0.023
   249      1          1.023      0.023
   250      1          1.023      0.023
   251      1          1.023      0.023
   252      1          1.031      0.031
   253      1          1.023      0.023
   254      1          1.023      0.023
   255      1          1.023      0.023
   256      1          1.023      0.023
   257      1          1.031      0.031
   258      1          1.023      0.023
   259      1          1.023      0.023
   260      1          1.031      0.031
   261      1          1.023      0.023
   262      1          1.023      0.023
   263      1          1.023      0.023
   264      1          1.023      0.023
   265      1          1.023      0.023
   266      1          1.023      0.023
   267      1          1.023      0.023
   268      1          1.023      0.023
   269      1          1.023      0.023
   270      1          1.023      0.023
   271      1          1.023      0.023
   272      1          1.023      0.023
   273      1          1.023      0.023
   274      1          1.023      0.023
   275      1          1.023      0.023
   276      2          1.017     -0.983
   277      2          1.698     -0.302
   278      2          1.718     -0.282
   279      2          1.69      -0.31 
   280      1          1.75       0.75 
   281      1          1.029      0.029
   282      1          1.033      0.033
   283      1          1.022      0.022
   284      1          1.019      0.019
   285      1          1.019      0.019
   286      1          1.029      0.029
   287      1          1.023      0.023
   288      2          1.032     -0.968
   289      2          1.689     -0.311
   290      2          1.752     -0.248
   291      2          1.722     -0.278
   292      2          1.701     -0.299
   293      2          1.739     -0.261
   294      2          1.837     -0.163
   295      2          1.808     -0.192
   296      2          1.573     -0.427
   297      2          1.72      -0.28 
   298      2          1.65      -0.35 
   299      2          1.731     -0.269
   300      2          1.697     -0.303
   301      2          1.692     -0.308
   302      2          1.65      -0.35 
   303      2          1.676     -0.324
   304      2          1.714     -0.286
   305      2          1.663     -0.337
   306      2          1.788     -0.212
   307      2          1.779     -0.221
   308      1          1.625      0.625
   309      1          1.026      0.026
   310      1          1.029      0.029
   311      1          1.039      0.039
   312      1          1.039      0.039
   313      1          1.019      0.019
   314      1          1.019      0.019
   315      1          1.023      0.023
   316      1          1.032      0.032
   317      1          1.023      0.023
   318      1          1.023      0.023
   319      1          1.023      0.023
   320      1          1.042      0.042
   321      1          1.023      0.023
   322      1          1.023      0.023
   323      1          1.023      0.023
   324      1          1.023      0.023
   325      1          1.023      0.023
   326      2          1.023     -0.977
   327      2          1.739     -0.261
   328      1          1.754      0.754
   329      1          1.023      0.023
   330      1          1.023      0.023
   331      1          1.033      0.033
   332      1          1.045      0.045
   333      1          1.019      0.019
   334      1          1.019      0.019
   335      1          1.023      0.023
   336      1          1.023      0.023
   337      1          1.031      0.031
   338      1          1.023      0.023
   339      1          1.023      0.023
   340      1          1.042      0.042
   341      1          1.023      0.023
   342      1          1.023      0.023
   343      1          1.023      0.023
   344      1          1.023      0.023
   345      1          1.023      0.023
   346      1          1.023      0.023
   347      1          1.023      0.023
   348      2          1.023     -0.977
   349      1          1.688      0.688
   350      1          1.023      0.023
   351      1          1.023      0.023
   352      1          1.023      0.023
   353      1          1.043      0.043
   354      1          1.023      0.023
   355      1          1.019      0.019
   356      1          1.023      0.023
   357      1          1.023      0.023
   358      1          1.023      0.023
   359      1          1.023      0.023
   360      1          1.023      0.023
   361      1          1.031      0.031
   362      1          1.023      0.023
   363      1          1.023      0.023
   364      1          1.042      0.042
   365      1          1.023      0.023
   366      1          1.023      0.023
   367      1          1.023      0.023
   368      1          1.023      0.023
   369      1          1.023      0.023
   370      1          1.023      0.023
   371      1          1.023      0.023
   372      1          1.023      0.023
   373      1          1.023      0.023
   374      1          1.023      0.023
   375      1          1.023      0.023
   376      1          1.023      0.023
   377      2          1.023     -0.977
   378      1          1.823      0.823
   379      1          1.023      0.023
   380      1          1.042      0.042
   381      1          1.023      0.023
   382      1          1.033      0.033
   383      2          1.023     -0.977
   384      2          1.692     -0.308
   385      2          1.632     -0.368
   386      2          1.761     -0.239
   387      2          1.701     -0.299
   388      2          1.702     -0.298
   389      2          1.73      -0.27 
   390      2          1.823     -0.177
   391      2          1.779     -0.221
   392      2          1.625     -0.375
   393      2          1.72      -0.28 
   394      2          1.703     -0.297
   395      2          1.714     -0.286
   396      2          1.662     -0.338
   397      2          1.695     -0.305
   398      2          1.705     -0.295
   399      2          1.714     -0.286
   400      2          1.662     -0.338
   401      2          1.693     -0.307
   402      2          1.774     -0.226
   403      2          1.779     -0.221
   404      2          1.562     -0.438
   405      1          1.65       0.65 
   406      2          1.029     -0.971
   407      2          1.612     -0.388
   408      2          1.681     -0.319
   409      1          1.662      0.662
   410      1          1.019      0.019
   411      1          1.039      0.039
   412      1          1.043      0.043
   413      1          1.019      0.019
   414      1          1.019      0.019
   415      1          1.019      0.019
   416      1          1.023      0.023
   417      1          1.023      0.023
   418      1          1.023      0.023
   419      1          1.023      0.023
   420      1          1.023      0.023
   421      1          1.023      0.023
   422      1          1.023      0.023
   423      1          1.042      0.042
   424      1          1.023      0.023
   425      1          1.023      0.023
   426      1          1.023      0.023
   427      1          1.023      0.023
   428      1          1.023      0.023
   429      1          1.023      0.023
   430      1          1.023      0.023
   431      1          1.042      0.042
   432      1          1.023      0.023
   433      1          1.023      0.023
   434      1          1.023      0.023
   435      1          1.042      0.042
   436      1          1.023      0.023
   437      1          1.023      0.023
   438      1          1.023      0.023
   439      1          1.023      0.023
   440      1          1.023      0.023
   441      1          1.023      0.023
   442      1          1.023      0.023
   443      1          1.042      0.042
   444      1          1.023      0.023
   445      1          1.023      0.023
   446      1          1.023      0.023
   447      1          1.042      0.042
   448      1          1.023      0.023
   449      1          1.023      0.023
   450      1          1.023      0.023
   451      1          1.023      0.023
   452      1          1.017      0.017
   453      1          1.021      0.021
   454      1          1.017      0.017
   455      1          1.037      0.037
   456      1          0.995     -0.005
   457      1          0.96      -0.04 
   458      1          0.96      -0.04 
   459      1          0.972     -0.028
   460      1          1.023      0.023
   461      1          1.023      0.023
   462      1          1.023      0.023
   463      1          1.023      0.023
   464      1          1.023      0.023
   465      1          1.023      0.023
   466      1          1.023      0.023
   467      1          1.023      0.023
   468      1          1.023      0.023
   469      1          1.023      0.023
   470      1          1.023      0.023
   471      1          1.023      0.023
   472      1          1.023      0.023
   473      1          1.023      0.023
   474      1          1.043      0.043
   475      1          1.042      0.042
   476      1          1.017      0.017
   477      1          1.013      0.013
   478      1          1.017      0.017
   479      1          1.018      0.018
   480      1          0.994     -0.006
   481      1          0.96      -0.04 
   482      1          0.96      -0.04 
   483      0          0.972      0.972
   484      0          0.982      0.982
   485      1          0.982     -0.018
   486      1          1.023      0.023
   487      1          1.023      0.023
   488      1          1.023      0.023
   489      1          1.023      0.023
   490      1          1.023      0.023
   491      1          1.023      0.023
   492      1          1.023      0.023
   493      1          1.023      0.023
   494      1          1.023      0.023
   495      1          1.023      0.023
   496      1          1.023      0.023
   497      1          1.023      0.023
   498      1          1.023      0.023
   499      1          1.023      0.023
   500      1          1.023      0.023
   501      1          1.052      0.052
   502      1          1.023      0.023
   503      1          1.052      0.052
   504      1          1.023      0.023
   505      1          1.023      0.023
   506      1          1.023      0.023
   507      1          1.023      0.023
   508      1          1.052      0.052
   509      1          1.023      0.023
   510      1          1.023      0.023
   511      1          1.023      0.023
   512      1          1.023      0.023
   513      1          1.023      0.023
   514      1          1.023      0.023
   515      1          1.023      0.023
   516      1          1.023      0.023
   517      1          1.023      0.023
   518      1          1.023      0.023
   519      1          1.023      0.023
   520      1          1.023      0.023
   521      1          1.023      0.023
   522      1          1.023      0.023
   523      1          1.023      0.023
   524      1          1.023      0.023
   525      1          1.023      0.023
   526      1          1.023      0.023
   527      1          1.023      0.023
   528      1          1.023      0.023
   529      1          1.023      0.023
   530      1          1.023      0.023
   531      1          1.023      0.023
   532      1          1.023      0.023
   533      1          1.023      0.023
   534      1          1.023      0.023
   535      1          1.023      0.023
   536      1          1.023      0.023
   537      1          1.023      0.023
   538      1          1.023      0.023
   539      1          1.023      0.023
   540      1          1.023      0.023
   541      1          1.023      0.023
   542      2          1.023     -0.977
   543      1          1.761      0.761
   544      1          1.041      0.041
   545      1          1.023      0.023
   546      1          1.023      0.023
   547      1          1.026      0.026
   548      2          0.976     -1.024
   549      2          1.705     -0.295
   550      2          1.639     -0.361
   551      2          1.725     -0.275
   552      2          1.018     -0.982
   553      2          1.778     -0.222
   554      2          1.693     -0.307
   555      2          1.705     -0.295
   556      2          1.642     -0.358
   557      2          1.721     -0.279
   558      2          1.702     -0.298
   559      2          1.754     -0.246
   560      2          1.65      -0.35 
   561      2          1.71      -0.29 
   562      2          1.766     -0.234
   563      2          1.802     -0.198
   564      2          1.614     -0.386
   565      2          1.65      -0.35 
   566      2          1.693     -0.307
   567      2          1.634     -0.366
   568      2          1.651     -0.349
   569      2          1.663     -0.337
   570      2          1.683     -0.317
   571      1          1.65       0.65 
   572      1          1.019      0.019
   573      1          1.026      0.026
   574      1          1.029      0.029
   575      2          1.039     -0.961
   576      2          1.655     -0.345
   577      2          1.632     -0.368
   578      2          1.677     -0.323
   579      2          1.724     -0.276
   580      2          1.711     -0.289
   581      2          1.763     -0.237
   582      2          1.711     -0.289
   583      2          1.714     -0.286
   584      2          1.714     -0.286
   585      2          1.652     -0.348
   586      2          1.812     -0.188
   587      2          1.812     -0.188
   588      2          1.596     -0.404
   589      2          1.665     -0.335
   590      2          1.65      -0.35 
   591      2          1.703     -0.297
   592      2          1.701     -0.299
   593      2          1.65      -0.35 
   594      2          1.703     -0.297
   595      2          1.652     -0.348
   596      2          1.652     -0.348
   597      2          1.705     -0.295
   598      2          1.812     -0.188
   599      2          1.812     -0.188
   600      2          1.631     -0.369
   601      2          1.718     -0.282
   602      2          1.703     -0.297
   603      2          1.703     -0.297
   604      2          1.662     -0.338
   605      2          1.714     -0.286
   606      2          1.662     -0.338
   607      2          1.705     -0.295
   608      2          1.639     -0.361
   609      2          1.71      -0.29 
   610      2          1.766     -0.234
   611      2          1.802     -0.198
   612      2          1.614     -0.386
   613      2          1.685     -0.315
   614      1          1.677      0.677
   615      1          1.023      0.023
   616      1          1.046      0.046
   617      1          1.026      0.026
   618      1          1.026      0.026
   619      1          1.019      0.019
   620      1          1.019      0.019
   621      1          1.023      0.023
   622      1          1.023      0.023
   623      1          1.023      0.023
   624      1          1.023      0.023
   625      1          1.023      0.023
   626      1          1.023      0.023
   627      1          1.023      0.023
   628      1          1.023      0.023
   629      1          1.023      0.023
   630      1          1.023      0.023
   631      1          1.023      0.023
   632      1          1.023      0.023
   633      1          1.023      0.023
   634      1          1.023      0.023
   635      1          1.023      0.023
   636      1          1.023      0.023
   637      1          1.023      0.023
   638      1          1.023      0.023
   639      1          1.023      0.023
   640      1          1.023      0.023
   641      1          1.023      0.023
   642      1          1.023      0.023
   643      1          1.023      0.023
   644      1          1.023      0.023
   645      1          1.023      0.023
   646      1          1.023      0.023
   647      1          1.023      0.023
   648      1          1.023      0.023
   649      1          1.023      0.023
   650      1          1.023      0.023
   651      1          1.023      0.023
   652      1          1.023      0.023
   653      1          1.023      0.023
   654      1          1.023      0.023
   655      1          1.023      0.023
   656      1          1.023      0.023
   657      1          1.042      0.042
   658      1          1.023      0.023
   659      1          1.023      0.023
   660      1          1.023      0.023
   661      1          1.023      0.023
   662      1          1.033      0.033
   663      1          1.023      0.023
   664      1          1.042      0.042
   665      1          1.023      0.023
   666      1          1.023      0.023
   667      1          1.023      0.023
   668      1          1.023      0.023
   669      1          1.023      0.023
   670      1          1.023      0.023
   671      1          1.023      0.023
   672      2          0.976     -1.024
   673      2          1.665     -0.335
   674      1          1.648      0.648
   675      1          1.006      0.006
   676      1          1.006      0.006
   677      1          0.96      -0.04 
   678      1          0.96      -0.04 
   679      1          0.956     -0.044
   680      1          0.956     -0.044
   681      1          0.96      -0.04 
   682      1          0.96      -0.04 
   683      1          0.972     -0.028
   684      1          0.976     -0.024
   685      1          0.96      -0.04 
   686      1          0.96      -0.04 
   687      1          0.96      -0.04 
   688      1          0.96      -0.04 
   689      1          0.96      -0.04 
   690      2          0.96      -1.04 
   691      2          1.586     -0.414
   692      2          1.586     -0.414
   693      2          1.586     -0.414
   694      2          1.586     -0.414
   695      2          1.596     -0.404
   696      2          1.596     -0.404
   697      2          1.596     -0.404
   698      1          1.556      0.556
   699      1          0.983     -0.017
   700      1          0.983     -0.017
   701      1          0.956     -0.044
   702      1          0.956     -0.044
   703      1          0.956     -0.044
   704      1          0.956     -0.044
   705      1          0.96      -0.04 
   706      1          0.96      -0.04 
   707      1          0.972     -0.028
   708      1          0.976     -0.024
   709      1          0.96      -0.04 
   710      1          0.96      -0.04 
   711      1          0.96      -0.04 
   712      1          0.96      -0.04 
   713      1          0.96      -0.04 
   714      2          0.96      -1.04 
   715      2          1.665     -0.335
   716      2          1.648     -0.352
   717      2          1.665     -0.335
   718      2          1.648     -0.352
   719      2          1.674     -0.326
   720      2          1.596     -0.404
   721      2          1.596     -0.404
   722      1          1.556      0.556
   723      1          0.983     -0.017
   724      1          0.992     -0.008
   725      1          0.956     -0.044
   726      1          0.956     -0.044
   727      1          0.956     -0.044
   728      1          0.956     -0.044
   729      1          0.96      -0.04 
   730      1          0.96      -0.04 
   731      1          0.972     -0.028
