

=== Predictions on test data ===

 inst#     actual  predicted      error
     1      4          3.103     -0.897
     2      3          2.759     -0.241
     3      2          2.725      0.725
     4      2          1.845     -0.155
     5      2          2.225      0.225
     6      1.5        2.317      0.817
     7      1          1.644      0.644
     8      0.5        1.182      0.682
     9      1          1.107      0.107
    10      2          1.352     -0.648
    11      3.5        2.233     -1.267
    12      3.5        2.863     -0.637
    13      3.5        2.804     -0.696
    14      2.5        2.427     -0.073
    15      2.5        2.353     -0.147
    16      3          2.317     -0.683
    17      3          2.809     -0.191
    18      3          2.556     -0.444
    19      2.5        2.556      0.056
    20      2          2.382      0.382
    21      2          1.888     -0.112
    22      3          2.25      -0.75 
    23      3          2.766     -0.234
    24      2.5        2.514      0.014
    25      2.5        2.582      0.082
    26      2.5        2.251     -0.249
    27      2          2.3        0.3  
    28      2          1.998     -0.002
    29      1.5        2.236      0.736
    30      1.5        1.553      0.053
    31      1          1.875      0.875
    32      1          1.251      0.251
    33      1.5        1.207     -0.293
    34      2          1.898     -0.102
    35      3          2.233     -0.767
    36      3.5        2.823     -0.677
    37      3          2.804     -0.196
    38      2          2.381      0.381
    39      2          1.916     -0.084
    40      2          2.207      0.207
    41      3          2.133     -0.867
    42      3.5        2.556     -0.944
    43      3.5        2.643     -0.857
    44      3          2.913     -0.087
    45      1.5        2.919      1.419
    46      2          1.532     -0.468
    47      2.5        2.225     -0.275
    48      3          2.312     -0.688
    49      3          2.514     -0.486
    50      2.5        2.514      0.014
    51      3.5        2.294     -1.206
    52      1.5        2.586      1.086
    53      2          1.674     -0.326
    54      2          2.225      0.225
    55      2.5        2.305     -0.195
    56      1.5        2.545      1.045
    57      2          1.673     -0.327
    58      2.5        2.284     -0.216
    59      3          2.39      -0.61 
    60      3          2.952     -0.048
    61      2          2.381      0.381
    62      2          1.907     -0.093
    63      2          2.162      0.162
    64      2.5        2.181     -0.319
    65      2          2.522      0.522
    66      1.5        1.812      0.312
    67      1          1.411      0.411
    68      1          1.236      0.236
    69      2          1.493     -0.507
    70      3          2.259     -0.741
    71      3.5        2.823     -0.677
    72      3          2.475     -0.525
    73      3.5        2.495     -1.005
    74      3.5        2.624     -0.876
    75      3          2.586     -0.414
    76      2.5        2.919      0.419
    77      2          2.425      0.425
    78      2          1.709     -0.291
    79      2          2.035      0.035
    80      1.5        2.181      0.681
    81      2.5        1.748     -0.752
    82      3          2.453     -0.547
    83      3.5        2.823     -0.677
    84      3.5        2.967     -0.533
    85      2.5        2.452     -0.048
    86      2.5        2.356     -0.144
    87      3.5        2.341     -1.159
    88      2.5        2.888      0.388
    89      2          2.401      0.401
    90      1.5        1.889      0.389
    91      1          1.411      0.411
    92      1          1.12       0.12 
    93      2          1.313     -0.687
    94      3          2.305     -0.695
    95      3.5        2.798     -0.702
    96      3.5        2.437     -1.063
    97      2.5        2.566      0.066
    98      3.5        2.309     -1.191
    99      2.5        2.586      0.086
   100      2.5        2.458     -0.042
   101      2          2.434      0.434
   102      1          1.746      0.746
   103      1.5        1.063     -0.437
   104      1          1.742      0.742
   105      2.5        1.235     -1.265
   106      2          2.485      0.485
   107      1          1.878      0.878
   108      2.5        1.328     -1.172
   109      2.5        2.235     -0.265
   110      3          2.331     -0.669
   111      2          2.514      0.514
   112      3          1.845     -1.155
   113      2.5        2.746      0.246
   114      2          2.34       0.34 
   115      1.5        1.721      0.221
   116      1.5        1.549      0.049
   117      2          1.804     -0.196
   118      2.5        2.099     -0.401
   119      3          2.337     -0.663
   120      2.5        2.514      0.014
   121      2.5        2.309     -0.191
   122      3          2.323     -0.677
   123      3          2.514     -0.486
   124      2.5        2.514      0.014
   125      3          2.377     -0.623
   126      2          2.556      0.556
   127      2.5        1.823     -0.677
   128      2.5        2.721      0.221
   129      3          2.282     -0.718
   130      3          2.937     -0.063
   131      1          2.199      1.199
   132      1          0.702     -0.298
   133      2          1.513     -0.487
   134      3          2.249     -0.751
   135      3.5        2.152     -1.348
   136      3.5        2.437     -1.063
   137      3          2.904     -0.096
   138      2.5        2.51       0.01 
   139      1          2.336      1.336
   140      1.5        0.892     -0.608
   141      2          2.175      0.175
   142      2.5        2.235     -0.265
   143      2          2.366      0.366
   144      2.5        1.908     -0.592
   145      2          2.548      0.548
   146      1.5        1.84       0.34 
   147      1          1.529      0.529
   148      2.5        1.23      -1.27 
   149      2          2.572      0.572
   150      2          1.985     -0.015
   151      1.5        2.033      0.533
   152      1.5        1.694      0.194
   153      1          1.8        0.8  
   154      1.5        1.423     -0.077
   155      2          1.966     -0.034
   156      1          2.235      1.235
   157      2          1.454     -0.546
   158      3          1.846     -1.154
   159      3.5        2.075     -1.425
   160      3.5        2.624     -0.876
   161      3          2.904     -0.096
   162      2          2.51       0.51 
   163      1.5        1.826      0.326
   164      2.5        1.675     -0.825
   165      2          2.691      0.691
   166      1.5        1.86       0.36 
   167      1          1.596      0.596
   168      2          1.172     -0.828
   169      1.5        2.291      0.791
   170      1.5        1.596      0.096
   171      0.5        1.904      1.404
   172      1.5        0.95      -0.55 
   173      2          2.185      0.185
   174      1          2.214      1.214
   175      0.5        1.328      0.828
   176      1          1.089      0.089
   177      2          1.249     -0.751
   178      1.5        1.966      0.466
   179      1.5        1.449     -0.051
   180      3          1.852     -1.148
   181      2.5        2.806      0.306
   182      1.5        2.257      0.757
   183      1          1.303      0.303
   184      2          1.114     -0.886
   185      2          2.176      0.176
   186      1.5        2.056      0.556
   187      1          1.333      0.333
   188      2          1.146     -0.854
   189      3          2.165     -0.835
   190      4          2.51      -1.49 
   191      3.5        2.851     -0.649
   192      3.5        2.674     -0.826
   193      2          2.491      0.491
   194      2          1.968     -0.032
   195      2.5        2.107     -0.393
   196      2.5        2.574      0.074
   197      2          2.448      0.448
   198      2          1.765     -0.235
   199      1          2.143      1.143
   200      1.5        1.216     -0.284
   201      2.5        1.899     -0.601
   202      3          2.467     -0.533
   203      4          2.798     -1.202
   204      3.5        2.748     -0.752
   205      2.5        2.491     -0.009
   206      2.5        2.421     -0.079
   207      2.5        2.341     -0.159
   208      2.5        2.466     -0.034
   209      2          2.436      0.436
   210      1.5        1.857      0.357
   211      0.5        1.303      0.803
   212      1          1.173      0.173
   213      2          1.313     -0.687
   214      3          2.259     -0.741
   215      4          2.798     -1.202
   216      4          2.674     -1.326
   217      2          2.388      0.388
   218      2          1.907     -0.093
   219      2          2.223      0.223
   220      3          2.326     -0.674
   221      2.5        2.556      0.056
   222      2.5        2.255     -0.245
   223      1.5        2.437      0.937
   224      3.5        1.378     -2.122
   225      3          2.934     -0.066
   226      2.5        2.556      0.056
   227      2          2.278      0.278
   228      2.5        1.906     -0.594
   229      2          2.541      0.541
   230      1.5        1.823      0.323
   231      1          1.695      0.695
   232      2.5        1.366     -1.134
   233      2          2.623      0.623
   234      1.5        1.836      0.336
   235      1.5        1.536      0.036
   236      2.5        1.813     -0.687
   237      2.5        2.638      0.138
   238      2          2.392      0.392
   239      1.5        1.879      0.379
   240      2.5        1.504     -0.996
   241      2.5        2.529      0.029
   242      2          2.419      0.419
   243      1.5        1.894      0.394
   244      2          1.504     -0.496
   245      2          2.247      0.247
   246      1.5        2.098      0.598
   247      1.5        1.539      0.039
   248      1          1.832      0.832
   249      3          1.491     -1.509
   250      2.5        2.51       0.01 
   251      2          2.394      0.394
   252      2          1.986     -0.014
   253      2          2.214      0.214
   254      1.5        2.202      0.702
   255      1          1.599      0.599
   256      2.5        1.526     -0.974
   257      2.5        2.593      0.093
   258      2          2.395      0.395
   259      1.5        1.938      0.438
   260      2          1.374     -0.626
   261      2.5        2.259     -0.241
   262      3          2.428     -0.572
   263      2.5        2.514      0.014
   264      2.5        2.297     -0.203
   265      2          2.274      0.274
   266      3          1.901     -1.099
   267      2.5        2.514      0.014
   268      3.5        2.32      -1.18 
   269      2.5        2.857      0.357
   270      2          2.378      0.378
   271      1.5        2.061      0.561
   272      2          1.849     -0.151
   273      2.5        2.317     -0.183
   274      3          2.451     -0.549
   275      3.5        2.823     -0.677
   276      3.5        3.142     -0.358
   277      2.5        2.759      0.259
   278      2.5        2.322     -0.178
   279      2.5        2.328     -0.172
   280      2          2.464      0.464
   281      2.5        1.897     -0.603
   282      3          2.474     -0.526
   283      2.5        2.514      0.014
   284      3          2.39      -0.61 
   285      2.5        2.556      0.056
   286      3          2.374     -0.626
   287      3.5        2.514     -0.986
   288      3.5        2.586     -0.914
   289      3          2.849     -0.151
   290      2.5        2.556      0.056
   291      2          2.278      0.278
   292      1          2.035      1.035
   293      2          0.969     -1.031
   294      3          2.222     -0.778
   295      3.5        2.729     -0.771
   296      2          2.934      0.934
   297      2.5        1.807     -0.693
   298      2.5        2.421     -0.079
   299      3          2.331     -0.669
   300      3.5        2.514     -0.986
   301      3          2.934     -0.066
   302      2.5        2.51       0.01 
   303      2          2.348      0.348
   304      3          2.057     -0.943
   305      3          2.773     -0.227
   306      2.5        2.556      0.056
   307      2          2.278      0.278
   308      2          2.126      0.126
   309      2.5        2.27      -0.23 
   310      3          2.441     -0.559
   311      2.5        2.514      0.014
   312      3          2.265     -0.735
   313      2.5        2.84       0.34 
   314      2.5        2.343     -0.157
   315      2          2.306      0.306
   316      3          2.032     -0.968
   317      2.5        2.724      0.224
   318      2          2.354      0.354
   319      1.5        1.937      0.437
   320      2          1.674     -0.326
   321      3          2.271     -0.729
   322      2.5        2.754      0.254
   323      2          2.285      0.285
   324      3.5        1.932     -1.568
   325      3          2.934     -0.066
   326      2.5        2.51       0.01 
   327      2          2.331      0.331
   328      2.5        2.013     -0.487
   329      2.5        2.587      0.087
   330      2          2.406      0.406
   331      1.5        1.887      0.387
   332      1.5        1.504      0.004
   333      3          2.048     -0.952
   334      2.5        2.556      0.056
   335      2          2.494      0.494
   336      2.5        1.952     -0.548
   337      2.5        2.701      0.201
   338      2          2.438      0.438
   339      1.5        1.775      0.275
   340      2.5        1.504     -0.996
   341      2          2.572      0.572
   342      1.5        1.845      0.345
   343      1          1.405      0.405
   344      2          1.136     -0.864
   345      2.5        2.259     -0.241
   346      3          2.485     -0.515
   347      2          2.514      0.514
   348      3          1.804     -1.196
   349      2.5        2.746      0.246
   350      2.5        2.33      -0.17 
   351      2          2.35       0.35 
   352      3          1.965     -1.035
   353      2.5        2.919      0.419
   354      2          2.343      0.343
   355      1.5        1.907      0.407
   356      2          1.504     -0.496
   357      1.5        2.298      0.798
   358      1.5        1.742      0.242
   359      1          1.922      0.922
   360      2.5        1.331     -1.169
   361      2.5        2.726      0.226
   362      2          2.381      0.381
   363      1.5        1.975      0.475
   364      2.5        1.504     -0.996
   365      2          2.583      0.583
   366      2          1.805     -0.195
   367      1          2.137      1.137
   368      2          1.31      -0.69 
   369      2.5        2.005     -0.495
   370      2.5        2.55       0.05 
   371      2          2.317      0.317
   372      3          1.804     -1.196
   373      2          2.514      0.514
   374      3          2.043     -0.957
   375      2.5        2.514      0.014
   376      3.5        2.32      -1.18 
   377      3          2.998     -0.002
   378      2          2.556      0.556
   379      1          1.957      0.957
   380      1.5        1.216     -0.284
   381      2          1.864     -0.136
   382      3          2.272     -0.728
   383      2          2.514      0.514
   384      3          1.878     -1.122
   385      2          2.514      0.514
   386      3          2.235     -0.765
   387      3          2.514     -0.486
   388      3.5        2.514     -0.986
   389      3          2.998     -0.002
   390      2          2.556      0.556
   391      1.5        1.865      0.365
   392      2          1.833     -0.167
   393      2.5        2.296     -0.204
   394      3          2.441     -0.559
   395      2          2.514      0.514
   396      3          1.965     -1.035
   397      2          2.514      0.514
   398      3          2.104     -0.896
   399      2.5        2.514      0.014
   400      3          2.3       -0.7  
   401      3          2.919     -0.081
   402      2          2.556      0.556
   403      1          1.957      0.957
   404      1.5        1.224     -0.276
   405      2.5        1.884     -0.616
   406      3          2.441     -0.559
   407      2          2.514      0.514
   408      3.5        1.923     -1.577
   409      2          2.586      0.586
   410      2.5        2.032     -0.468
   411      2          2.274      0.274
   412      3          2.12      -0.88 
   413      2.5        2.919      0.419
   414      2          2.343      0.343
   415      1          1.782      0.782
   416      1.5        1.104     -0.396
   417      2.5        1.884     -0.616
   418      3.5        2.428     -1.072
   419      3          2.586     -0.414
   420      3          2.365     -0.635
   421      2          2.514      0.514
   422      3          1.955     -1.045
   423      2          2.514      0.514
   424      3.5        1.782     -1.718
   425      2          2.825      0.825
   426      1.5        1.824      0.324
   427      0.5        1.303      0.803
   428      1          1.088      0.088
   429      2          1.203     -0.797
   430      3          2.26      -0.74 
   431      2          2.514      0.514
   432      3          2.129     -0.871
   433      2          2.495      0.495
   434      3          1.873     -1.127
   435      2          2.514      0.514
   436      3.5        1.845     -1.655
   437      3          2.825     -0.175
   438      1.5        2.556      1.056
   439      0.5        1.303      0.803
   440      1.5        1.001     -0.499
   441      2          1.82      -0.18 
   442      3          2.272     -0.728
   443      2          2.514      0.514
   444      3          2.075     -0.925
   445      2          2.514      0.514
   446      3          1.951     -1.049
   447      2          2.514      0.514
   448      3          1.845     -1.155
   449      2          2.746      0.746
   450      1.5        1.691      0.191
   451      0.5        1.303      0.803
   452      1          0.703     -0.297
   453      3          1.395     -1.605
   454      3          2.937     -0.063
   455      1          2.099      1.099
   456      1          0.848     -0.152
   457      2          1.345     -0.655
   458      2.5        2.249     -0.251
   459      3.5        2.206     -1.294
   460      3.5        2.475     -1.025
   461      3          2.882     -0.118
   462      2          2.51       0.51 
   463      1          1.806      0.806
   464      1          0.906     -0.094
   465      2          0.968     -1.032
   466      3          2.235     -0.765
   467      2          2.514      0.514
   468      2.5        1.842     -0.658
   469      1.5        2.125      0.625
   470      3          1.504     -1.496
   471      2          2.514      0.514
   472      3          2.085     -0.915
   473      2.5        2.919      0.419
   474      1.5        2.343      0.843
   475      0.5        1.303      0.803
   476      1          0.672     -0.328
   477      3          1.388     -1.612
   478      3          2.952     -0.048
   479      1          2.02       1.02 
   480      1          0.779     -0.221
   481      2          1.166     -0.834
   482      3          2.249     -0.751
   483      4          2.072     -1.928
   484      4          2.437     -1.563
   485      3          2.855     -0.145
   486      2.5        2.51       0.01 
   487      1.5        2.329      0.829
   488      1          1.549      0.549
   489      2          0.968     -1.032
   490      3          2.235     -0.765
   491      2          2.514      0.514
   492      3          2.033     -0.967
   493      2          2.365      0.365
   494      3          2.163     -0.837
   495      2          2.514      0.514
   496      3          2.176     -0.824
   497      2          2.514      0.514
   498      3          2.082     -0.918
   499      2          2.514      0.514
   500      3.5        2.049     -1.451
   501      2          2.934      0.934
   502      1.5        1.89       0.39 
   503      0.5        1.425      0.925
   504      2          1.051     -0.949
   505      1          2.296      1.296
   506      2          1.285     -0.715
   507      3          2.266     -0.734
   508      2          2.384      0.384
   509      1.5        1.973      0.473
   510      2.5        1.504     -0.996
   511      1.5        2.294      0.794
   512      3.5        1.528     -1.972
   513      2          2.998      0.998
   514      3.5        1.67      -1.83 
   515      2.5        2.953      0.453
   516      2          2.404      0.404
   517      2.5        1.959     -0.541
   518      3          2.495     -0.505
   519      2          2.514      0.514
   520      3          1.795     -1.205
   521      2          2.514      0.514
   522      3          1.784     -1.216
   523      2          2.514      0.514
   524      1.5        2.095      0.595
   525      3.5        1.69      -1.81 
   526      2.5        2.595      0.095
   527      1.5        2.397      0.897
   528      1.5        1.865      0.365
   529      2          1.857     -0.143
   530      3          2.272     -0.728
   531      2          2.514      0.514
   532      2          1.845     -0.155
   533      3          2.218     -0.782
   534      2          2.514      0.514
   535      3          1.837     -1.163
   536      2          2.514      0.514
   537      3          1.853     -1.147
   538      2          2.51       0.51 
   539      1.5        1.796      0.296
   540      2          1.644     -0.356
   541      3          2.239     -0.761
   542      3.5        2.754     -0.746
   543      2          2.624      0.624
   544      3          1.979     -1.021
   545      2          2.514      0.514
   546      3          1.801     -1.199
   547      1.5        2.514      1.014
   548      0.5        1.142      0.642
   549      1          0.992     -0.008
   550      1.5        1.293     -0.207
   551      2          1.9       -0.1  
   552      2          1.077     -0.923
   553      2          2.098      0.098
   554      1.5        2.26       0.76 
   555      1.5        1.607      0.107
   556      3          1.878     -1.122
   557      2          2.514      0.514
   558      2.5        1.916     -0.584
   559      2          2.294      0.294
   560      2.5        1.997     -0.503
   561      2.5        2.348     -0.152
   562      3          2.359     -0.641
   563      2          2.514      0.514
   564      3          2.167     -0.833
   565      3          2.51      -0.49 
   566      3.5        2.556     -0.944
   567      3          2.806     -0.194
   568      3          2.898     -0.102
   569      2.5        2.695      0.195
   570      2.5        2.333     -0.167
   571      2.5        2.29      -0.21 
   572      2.5        2.439     -0.061
   573      3          2.439     -0.561
   574      3.5        2.777     -0.723
   575      2.5        2.586      0.086
   576      2.5        2.3       -0.2  
   577      3          2.341     -0.659
   578      2          2.514      0.514
   579      3          2.341     -0.659
   580      2.5        2.514      0.014
   581      3          2.285     -0.715
   582      2          2.514      0.514
   583      2.5        1.848     -0.652
   584      2          2.274      0.274
   585      3.5        2.004     -1.496
   586      3          2.586     -0.414
   587      2.5        2.514      0.014
   588      2          2.285      0.285
   589      2          2.055      0.055
   590      2.5        2.25      -0.25 
   591      3          2.425     -0.575
   592      3          2.919     -0.081
   593      2.5        2.556      0.056
   594      3          2.417     -0.583
   595      2.5        2.514      0.014
   596      3          2.338     -0.662
   597      2.5        2.514      0.014
   598      3          2.285     -0.715
   599      2          2.514      0.514
   600      2.5        1.819     -0.681
   601      1.5        2.613      1.113
   602      2          1.657     -0.343
   603      2          2.271      0.271
   604      2.5        2.257     -0.243
   605      1          2.274      1.274
   606      2          1.16      -0.84 
   607      3          2.281     -0.719
   608      1.5        2.919      1.419
   609      1.5        1.623      0.123
   610      2          1.805     -0.195
   611      2.5        2.244     -0.256
   612      2.5        2.7        0.2  
   613      3.5        2.109     -1.391
   614      4          3.075     -0.925
   615      4          2.966     -1.034
   616      3.5        2.598     -0.902
   617      3          2.643     -0.357
   618      2.5        2.556      0.056
   619      2          2.405      0.405
   620      1.5        1.765      0.265
   621      1          1.641      0.641
   622      0.5        1.186      0.686
   623      0.5        1.175      0.675
   624      0          1.107      1.107
   625      2          1.187     -0.813
   626      3          2.187     -0.813
   627      3.5        2.456     -1.044
   628      3          2.851     -0.149
   629      3          2.773     -0.227
   630      2.5        2.51       0.01 
   631      2          2.414      0.414
   632      2          1.744     -0.256
   633      1.5        2.015      0.515
   634      1          1.516      0.516
   635      1          1.127      0.127
   636      2          1.091     -0.909
   637      2.5        2.239     -0.261
   638      3          2.451     -0.549
   639      3.5        2.456     -1.044
   640      3          2.874     -0.126
   641      2.5        2.773      0.273
   642      2          2.331      0.331
   643      2          1.861     -0.139
   644      1.5        2.202      0.702
   645      1.5        1.642      0.142
   646      1          1.511      0.511
   647      1          1.182      0.182
   648      1          1.455      0.455
   649      2          1.3       -0.7  
   650      2.5        2.233     -0.267
   651      3          2.451     -0.549
   652      3.5        2.823     -0.677
   653      3          2.605     -0.395
   654      3.5        2.514     -0.986
   655      3.5        2.624     -0.876
   656      2          2.624      0.624
   657      3          1.823     -1.177
   658      3          2.514     -0.486
   659      2          2.514      0.514
   660      2.5        2.024     -0.476
   661      3          2.48      -0.52 
   662      4          2.729     -1.271
   663      3.5        2.586     -0.914
   664      2.5        2.586      0.086
   665      3          2.423     -0.577
   666      2          2.556      0.556
   667      1.5        1.862      0.362
   668      3          1.654     -1.346
   669      1.5        2.514      1.014
   670      3          1.601     -1.399
   671      1          2.514      1.514
   672      0.5        0.681      0.181
   673      1          0.921     -0.079
   674      1.5        1.33      -0.17 
   675      2          1.998     -0.002
   676      2.5        2.237     -0.263
   677      3          2.069     -0.931
   678      3.5        2.317     -1.183
   679      4          2.452     -1.548
   680      4          2.491     -1.509
   681      4          2.452     -1.548
   682      4          2.491     -1.509
   683      4          2.354     -1.646
   684      4          3.041     -0.959
   685      3.5        2.491     -1.009
   686      3          2.491     -0.509
   687      2.5        2.381     -0.119
   688      2          2.278      0.278
   689      1.5        1.905      0.405
   690      1          1.514      0.514
   691      0.5        1.118      0.618
   692      0.5        0.969      0.469
   693      0.5        0.927      0.427
   694      0.5        0.927      0.427
   695      0.5        1.002      0.502
   696      0.5        0.534      0.034
   697      1          0.916     -0.084
   698      1.5        1.322     -0.178
   699      2          1.993     -0.007
   700      2.5        1.987     -0.513
   701      3          2.16      -0.84 
   702      3.5        2.317     -1.183
   703      4          2.491     -1.509
   704      4          2.491     -1.509
   705      4          2.491     -1.509
   706      4          2.491     -1.509
   707      4          2.464     -1.536
   708      4          3.041     -0.959
   709      3.5        2.491     -1.009
   710      3          2.491     -0.509
   711      2.5        2.381     -0.119
   712      2          2.278      0.278
   713      1.5        1.905      0.405
   714      1          1.514      0.514
   715      0.5        1.179      0.679
   716      0.5        0.969      0.469
   717      0.5        0.927      0.427
   718      0.5        0.927      0.427
   719      0.5        1.002      0.502
   720      0.5        0.534      0.034
   721      1          0.916     -0.084
   722      1.5        1.322     -0.178
   723      2          1.971     -0.029
   724      2.5        1.987     -0.513
   725      3          2.16      -0.84 
   726      3.5        2.317     -1.183
   727      4          2.491     -1.509
   728      4          2.491     -1.509
   729      4          2.491     -1.509
   730      4          2.491     -1.509
   731      4          2.464     -1.536
